sopc_tb.vcd
$date
	Wed Sep  7 11:48:08 2016
$end
$version
	Icarus Verilog
$end
$timescale
	1ps
$end
$scope module sopc_tb $end
$var reg 1 ! CLOCK $end
$var reg 1 " rst $end
$scope module sopc0 $end
$var wire 1 ! clk $end
$var wire 1 " rst $end
$var wire 1 # rom_ce $end
$var wire 32 $ inst_addr [31:0] $end
$var wire 32 % inst [31:0] $end
$scope module cpu0 $end
$var wire 1 ! clk $end
$var wire 32 & rom_addr_out [31:0] $end
$var wire 1 " rst $end
$var wire 1 ' wb_wreg_in $end
$var wire 1 ( wb_whilo_in $end
$var wire 32 ) wb_lo_in [31:0] $end
$var wire 32 * wb_hi_in [31:0] $end
$var wire 32 + wb_dest_data_in [31:0] $end
$var wire 5 , wb_dest_addr_in [4:0] $end
$var wire 1 - stall_req_id $end
$var wire 1 . stall_req_ex $end
$var wire 6 / stall [5:0] $end
$var wire 32 0 rom_data_in [31:0] $end
$var wire 1 # rom_ce_out $end
$var wire 1 1 reg2_read $end
$var wire 32 2 reg2_data [31:0] $end
$var wire 5 3 reg2_addr [4:0] $end
$var wire 1 4 reg1_read $end
$var wire 32 5 reg1_data [31:0] $end
$var wire 5 6 reg1_addr [4:0] $end
$var wire 32 7 pc [31:0] $end
$var wire 1 8 mem_wreg_out $end
$var wire 1 9 mem_wreg_in $end
$var wire 1 : mem_whilo_out $end
$var wire 1 ; mem_whilo_in $end
$var wire 32 < mem_lo_out [31:0] $end
$var wire 32 = mem_lo_in [31:0] $end
$var wire 32 > mem_hi_out [31:0] $end
$var wire 32 ? mem_hi_in [31:0] $end
$var wire 32 @ mem_dest_data_out [31:0] $end
$var wire 32 A mem_dest_data_in [31:0] $end
$var wire 5 B mem_dest_addr_out [4:0] $end
$var wire 5 C mem_dest_addr_in [4:0] $end
$var wire 32 D lo_data [31:0] $end
$var wire 1 E id_wreg_out $end
$var wire 32 F id_src2_data_out [31:0] $end
$var wire 32 G id_src1_data_out [31:0] $end
$var wire 32 H id_pc_in [31:0] $end
$var wire 32 I id_inst_in [31:0] $end
$var wire 5 J id_dest_addr_out [4:0] $end
$var wire 3 K id_alusel_out [2:0] $end
$var wire 8 L id_aluop_out [7:0] $end
$var wire 64 M hilo_temp_out [63:0] $end
$var wire 64 N hilo_temp_in [63:0] $end
$var wire 32 O hi_data [31:0] $end
$var wire 1 P ex_wreg_out $end
$var wire 1 Q ex_wreg_in $end
$var wire 1 R ex_whilo_out $end
$var wire 32 S ex_src2_data_in [31:0] $end
$var wire 32 T ex_src1_data_in [31:0] $end
$var wire 32 U ex_lo_out [31:0] $end
$var wire 32 V ex_hi_out [31:0] $end
$var wire 32 W ex_dest_data_out [31:0] $end
$var wire 5 X ex_dest_addr_out [4:0] $end
$var wire 5 Y ex_dest_addr_in [4:0] $end
$var wire 3 Z ex_alusel_in [2:0] $end
$var wire 8 [ ex_aluop_in [7:0] $end
$var wire 2 \ cnt_out [1:0] $end
$var wire 2 ] cnt_in [1:0] $end
$scope module ctrl0 $end
$var wire 1 " rst $end
$var wire 1 - stall_req_id $end
$var wire 1 . stall_req_ex $end
$var reg 6 ^ stall [5:0] $end
$upscope $end
$scope module ex0 $end
$var wire 1 _ ov_sum $end
$var wire 1 " rst $end
$var wire 32 ` src1_in_not [31:0] $end
$var wire 1 Q wreg_in $end
$var wire 1 ( wb_whilo_in $end
$var wire 32 a wb_lo_in [31:0] $end
$var wire 32 b wb_hi_in [31:0] $end
$var wire 32 c src2_in_mux [31:0] $end
$var wire 32 d src2_data_in [31:0] $end
$var wire 1 e src1_lt_src2 $end
$var wire 32 f src1_data_in [31:0] $end
$var wire 32 g result_sum [31:0] $end
$var wire 32 h opdata2_mult [31:0] $end
$var wire 32 i opdata1_mult [31:0] $end
$var wire 1 : mem_whilo_in $end
$var wire 32 j mem_lo_in [31:0] $end
$var wire 32 k mem_hi_in [31:0] $end
$var wire 32 l lo_in [31:0] $end
$var wire 64 m hilo_temp_in [63:0] $end
$var wire 64 n hilo_temp [63:0] $end
$var wire 32 o hi_in [31:0] $end
$var wire 5 p dest_addr_in [4:0] $end
$var wire 2 q cnt_in [1:0] $end
$var wire 3 r alusel_in [2:0] $end
$var wire 8 s aluop_in [7:0] $end
$var reg 32 t HI [31:0] $end
$var reg 32 u LO [31:0] $end
$var reg 32 v arithmeticres [31:0] $end
$var reg 2 w cnt_out [1:0] $end
$var reg 5 x dest_addr_out [4:0] $end
$var reg 32 y dest_data_out [31:0] $end
$var reg 32 z hi_out [31:0] $end
$var reg 64 { hilo_temp1 [63:0] $end
$var reg 64 | hilo_temp_out [63:0] $end
$var reg 32 } lo_out [31:0] $end
$var reg 32 ~ logicres [31:0] $end
$var reg 32 !" moveres [31:0] $end
$var reg 64 "" mulres [63:0] $end
$var reg 32 #" shiftres [31:0] $end
$var reg 1 . stall_req $end
$var reg 1 $" stall_req_madd_msub $end
$var reg 1 R whilo_out $end
$var reg 1 P wreg_out $end
$upscope $end
$scope module ex_mem0 $end
$var wire 1 ! clk $end
$var wire 2 %" cnt_in [1:0] $end
$var wire 5 &" ex_dest_addr [4:0] $end
$var wire 32 '" ex_dest_data [31:0] $end
$var wire 32 (" ex_hi [31:0] $end
$var wire 32 )" ex_lo [31:0] $end
$var wire 1 R ex_whilo $end
$var wire 1 P ex_wreg $end
$var wire 64 *" hilo_in [63:0] $end
$var wire 1 " rst $end
$var wire 6 +" stall [5:0] $end
$var reg 2 ," cnt_out [1:0] $end
$var reg 64 -" hilo_out [63:0] $end
$var reg 5 ." mem_dest_addr [4:0] $end
$var reg 32 /" mem_dest_data [31:0] $end
$var reg 32 0" mem_hi [31:0] $end
$var reg 32 1" mem_lo [31:0] $end
$var reg 1 ; mem_whilo $end
$var reg 1 9 mem_wreg $end
$upscope $end
$scope module hilo_reg0 $end
$var wire 1 ! clk $end
$var wire 1 " rst $end
$var wire 1 ( we $end
$var wire 32 2" lo_in [31:0] $end
$var wire 32 3" hi_in [31:0] $end
$var reg 32 4" hi_out [31:0] $end
$var reg 32 5" lo_out [31:0] $end
$upscope $end
$scope module id0 $end
$var wire 5 6" ex_dest_addr_in [4:0] $end
$var wire 32 7" ex_dest_data_in [31:0] $end
$var wire 1 P ex_wreg_in $end
$var wire 1 " rst $end
$var wire 32 8" src2_data_in [31:0] $end
$var wire 32 9" src1_data_in [31:0] $end
$var wire 32 :" pc_in [31:0] $end
$var wire 5 ;" op4 [4:0] $end
$var wire 6 <" op3 [5:0] $end
$var wire 6 =" op2 [5:0] $end
$var wire 6 >" op [5:0] $end
$var wire 1 8 mem_wreg_in $end
$var wire 32 ?" mem_dest_data_in [31:0] $end
$var wire 5 @" mem_dest_addr_in [4:0] $end
$var wire 32 A" inst_in [31:0] $end
$var reg 8 B" aluop_out [7:0] $end
$var reg 3 C" alusel_out [2:0] $end
$var reg 5 D" dest_addr_out [4:0] $end
$var reg 32 E" imm [31:0] $end
$var reg 1 F" inst_valid $end
$var reg 5 G" src1_addr_out [4:0] $end
$var reg 32 H" src1_data_out [31:0] $end
$var reg 1 4 src1_read_out $end
$var reg 5 I" src2_addr_out [4:0] $end
$var reg 32 J" src2_data_out [31:0] $end
$var reg 1 1 src2_read_out $end
$var reg 1 - stall_req $end
$var reg 1 E wreg_out $end
$upscope $end
$scope module id_ex0 $end
$var wire 1 ! clk $end
$var wire 8 K" id_aluop [7:0] $end
$var wire 3 L" id_alusel [2:0] $end
$var wire 5 M" id_dest_addr [4:0] $end
$var wire 32 N" id_src1_data [31:0] $end
$var wire 32 O" id_src2_data [31:0] $end
$var wire 1 E id_wreg $end
$var wire 1 " rst $end
$var wire 6 P" stall [5:0] $end
$var reg 8 Q" ex_aluop [7:0] $end
$var reg 3 R" ex_alusel [2:0] $end
$var reg 5 S" ex_dest_addr [4:0] $end
$var reg 32 T" ex_src1_data [31:0] $end
$var reg 32 U" ex_src2_data [31:0] $end
$var reg 1 Q ex_wreg $end
$upscope $end
$scope module if_id0 $end
$var wire 1 ! clk $end
$var wire 1 " rst $end
$var wire 6 V" stall [5:0] $end
$var wire 32 W" if_pc [31:0] $end
$var wire 32 X" if_inst [31:0] $end
$var reg 32 Y" id_inst [31:0] $end
$var reg 32 Z" id_pc [31:0] $end
$upscope $end
$scope module mem0 $end
$var wire 5 [" dest_addr_in [4:0] $end
$var wire 32 \" dest_data_in [31:0] $end
$var wire 32 ]" hi_in [31:0] $end
$var wire 32 ^" lo_in [31:0] $end
$var wire 1 " rst $end
$var wire 1 ; whilo_in $end
$var wire 1 9 wreg_in $end
$var reg 5 _" dest_addr_out [4:0] $end
$var reg 32 `" dest_data_out [31:0] $end
$var reg 32 a" hi_out [31:0] $end
$var reg 32 b" lo_out [31:0] $end
$var reg 1 : whilo_out $end
$var reg 1 8 wreg_out $end
$upscope $end
$scope module men_wb0 $end
$var wire 1 ! clk $end
$var wire 5 c" mem_dest_addr [4:0] $end
$var wire 32 d" mem_dest_data [31:0] $end
$var wire 32 e" mem_hi [31:0] $end
$var wire 32 f" mem_lo [31:0] $end
$var wire 1 : mem_whilo $end
$var wire 1 8 mem_wreg $end
$var wire 1 " rst $end
$var wire 6 g" stall [5:0] $end
$var reg 5 h" wb_dest_addr [4:0] $end
$var reg 32 i" wb_dest_data [31:0] $end
$var reg 32 j" wb_hi [31:0] $end
$var reg 32 k" wb_lo [31:0] $end
$var reg 1 ( wb_whilo $end
$var reg 1 ' wb_wreg $end
$upscope $end
$scope module pc_reg0 $end
$var wire 1 ! clk $end
$var wire 1 " rst $end
$var wire 6 l" stall [5:0] $end
$var reg 1 # ce $end
$var reg 32 m" pc [31:0] $end
$upscope $end
$scope module reg_file0 $end
$var wire 1 ! clk $end
$var wire 5 n" raddr1 [4:0] $end
$var wire 5 o" raddr2 [4:0] $end
$var wire 1 4 re1 $end
$var wire 1 1 re2 $end
$var wire 1 " rst $end
$var wire 5 p" waddr [4:0] $end
$var wire 32 q" wdata [31:0] $end
$var wire 1 ' we $end
$var reg 32 r" rdata1 [31:0] $end
$var reg 32 s" rdata2 [31:0] $end
$upscope $end
$upscope $end
$scope module inst_rom0 $end
$var wire 32 t" addr [31:0] $end
$var wire 1 # ce $end
$var reg 32 u" inst [31:0] $end
$upscope $end
$upscope $end
$upscope $end
$enddefinitions $end
#0
$dumpvars
bx u"
bx t"
b0 s"
b0 r"
bx q"
bx p"
b0 o"
b0 n"
bx m"
b0 l"
bx k"
bx j"
bx i"
bx h"
b0 g"
b0 f"
b0 e"
b0 d"
b0 c"
b0 b"
b0 a"
b0 `"
b0 _"
bx ^"
bx ]"
bx \"
bx ["
bx Z"
bx Y"
bx X"
bx W"
b0 V"
bx U"
bx T"
bx S"
bx R"
bx Q"
b0 P"
b0 O"
b0 N"
b0 M"
b0 L"
b0 K"
b0 J"
b0 I"
b0 H"
b0 G"
0F"
b0 E"
b0 D"
b0 C"
b0 B"
bx A"
b0 @"
b0 ?"
bx >"
b0xxxxx ="
bx <"
bx ;"
bx :"
b0 9"
b0 8"
b0 7"
bx 6"
bx 5"
bx 4"
bx 3"
bx 2"
bx 1"
bx 0"
bx /"
bx ."
bx -"
bx ,"
b0 +"
b0 *"
b0 )"
b0 ("
b0 '"
bx &"
b0 %"
0$"
b0 #"
b0 ""
b0 !"
b0 ~
b0 }
b0 |
bx {
b0 z
b0 y
bx x
b0 w
b0 v
b0 u
b0 t
bx s
bx r
bx q
bx p
bx o
bx n
bx m
bx l
b0 k
b0 j
bx i
bx h
bx g
bx f
xe
bx d
bx c
bx b
bx a
bx `
x_
b0 ^
bx ]
b0 \
bx [
bx Z
bx Y
bx X
b0 W
b0 V
b0 U
bx T
bx S
0R
xQ
xP
bx O
bx N
b0 M
b0 L
b0 K
b0 J
bx I
bx H
b0 G
b0 F
0E
bx D
bx C
b0 B
bx A
b0 @
bx ?
b0 >
bx =
b0 <
x;
0:
x9
08
bx 7
b0 6
b0 5
04
b0 3
b0 2
01
bx 0
b0 /
0.
0-
bx ,
bx +
bx *
bx )
x(
x'
bx &
bx %
bx $
x#
1"
0!
$end
#10000
b0 %
b0 0
b0 X"
b0 u"
0P
b0 X
b0 x
b0 &"
b0 6"
0_
b0 ;"
b0 <"
b0 ="
b0 >"
b0 n
b0 h
b0 g
b0 c
b0 i
b11111111111111111111111111111111 `
0e
0#
b0 I
b0 A"
b0 Y"
b0 H
b0 :"
b0 Z"
b0 D
b0 l
b0 5"
b0 O
b0 o
b0 4"
0Q
b0 Y
b0 p
b0 S"
b0 S
b0 d
b0 U"
b0 T
b0 f
b0 T"
b0 Z
b0 r
b0 R"
b0 [
b0 s
b0 Q"
b0 ]
b0 q
b0 ,"
b0 N
b0 m
b0 -"
0;
b0 =
b0 1"
b0 ^"
b0 ?
b0 0"
b0 ]"
b0 A
b0 /"
b0 \"
09
b0 C
b0 ."
b0 ["
0(
b0 )
b0 a
b0 2"
b0 k"
b0 *
b0 b
b0 3"
b0 j"
b0 +
b0 i"
b0 q"
0'
b0 ,
b0 h"
b0 p"
1!
#20000
0!
#30000
b0 $
b0 &
b0 t"
b0 7
b0 W"
b0 m"
1!
#40000
0!
#50000
1!
#60000
0!
#70000
1!
#80000
0!
#90000
1!
#100000
0!
#110000
1!
#120000
0!
#130000
1!
#140000
0!
#150000
1!
#160000
0!
#170000
1!
#180000
0!
#190000
1!
#195000
11
b10 K
b10 C"
b10 L"
1E
0F"
0"
#200000
0!
#210000
b110100000000011111111111111111 %
b110100000000011111111111111111 0
b110100000000011111111111111111 X"
b110100000000011111111111111111 u"
1P
1#
1Q
b10 Z
b10 r
b10 R"
1!
#220000
0!
#230000
b1111111111111111 F
b1111111111111111 J"
b1111111111111111 O"
b1111111111111111 E"
14
b100101 L
b100101 B"
b100101 K"
18
b1 3
b1 I"
b1 o"
01
0F"
1E
b1 J
b1 D"
b1 M"
b1 K
b1 C"
b1 L"
b10000110000000000 %
b10000110000000000 0
b10000110000000000 X"
b10000110000000000 u"
b1 ;"
b111111 <"
b11111 ="
b1101 >"
19
b110100000000011111111111111111 I
b110100000000011111111111111111 A"
b110100000000011111111111111111 Y"
b100 $
b100 &
b100 t"
b100 7
b100 W"
b100 m"
1!
#240000
0!
#250000
bx 2
bx 8"
bx s"
b1111111111111111 F
b1111111111111111 J"
b1111111111111111 O"
b10000 G
b10000 H"
b10000 N"
b1111111111111111 W
b1111111111111111 y
b1111111111111111 '"
b1111111111111111 7"
11
b110100001000011111111111111011 %
b110100001000011111111111111011 0
b110100001000011111111111111011 X"
b110100001000011111111111111011 u"
b10000 E"
04
0F"
1E
b10 K
b10 C"
b10 L"
b0 L
b0 B"
b0 K"
b1 X
b1 x
b1 &"
b1 6"
b1111111111111111 ~
b0 <"
b10000 ="
b0 >"
b1111111111111111 h
1e
b1111111111111111 g
b1111111111111111 c
b1000 $
b1000 &
b1000 t"
b1000 7
b1000 W"
b1000 m"
b10000110000000000 I
b10000110000000000 A"
b10000110000000000 Y"
b100 H
b100 :"
b100 Z"
b1 Y
b1 p
b1 S"
b1111111111111111 S
b1111111111111111 d
b1111111111111111 U"
b1 Z
b1 r
b1 R"
b100101 [
b100101 s
b100101 Q"
1'
1!
#260000
0!
#270000
b11111111111111110000000000000000 G
b11111111111111110000000000000000 H"
b11111111111111110000000000000000 N"
bx 5
bx 9"
bx r"
b1111111111111011 F
b1111111111111011 J"
b1111111111111011 O"
b0 2
b0 8"
b0 s"
b11111111111111110000 ""
14
b100101 L
b100101 B"
b100101 K"
b1111111111111111 @
b1111111111111111 ?"
b1111111111111111 `"
b1111111111111111 d"
b1 B
b1 @"
b1 _"
b1 c"
b11111111111111110000000000000000 W
b11111111111111110000000000000000 y
b11111111111111110000000000000000 '"
b11111111111111110000000000000000 7"
b11111111111111110000000000000000 #"
b0 ~
b1111111111111011 E"
b1 6
b1 G"
b1 n"
01
0F"
1E
b1 J
b1 D"
b1 M"
b1 K
b1 C"
b1 L"
b110100000000100000000000000110 %
b110100000000100000000000000110 0
b110100000000100000000000000110 X"
b110100000000100000000000000110 u"
b11111111111111110000 n
b10000 i
b11111111111111111111111111101111 `
b111011 <"
b11111 ="
b1101 >"
b1111111111111111 A
b1111111111111111 /"
b1111111111111111 \"
b1 C
b1 ."
b1 ["
b10000000000001111 g
b10000 T
b10000 f
b10000 T"
b10 Z
b10 r
b10 R"
b0 [
b0 s
b0 Q"
b110100001000011111111111111011 I
b110100001000011111111111111011 A"
b110100001000011111111111111011 Y"
b1000 H
b1000 :"
b1000 Z"
b1100 $
b1100 &
b1100 t"
b1100 7
b1100 W"
b1100 m"
1!
#280000
0!
#290000
b110 F
b110 J"
b110 O"
b0 G
b0 H"
b0 N"
b111111111111101000000000000001010000000000000000 ""
b1000100000000000011000 %
b1000100000000000011000 0
b1000100000000000011000 X"
b1000100000000000011000 u"
b110 E"
b10 3
b10 I"
b10 o"
b0 6
b0 G"
b0 n"
14
0F"
1E
b10 J
b10 D"
b10 M"
b1 K
b1 C"
b1 L"
b100101 L
b100101 B"
b100101 K"
b11111111111111111111111111111011 W
b11111111111111111111111111111011 y
b11111111111111111111111111111011 '"
b11111111111111111111111111111011 7"
b0 #"
b11111111111111111111111111111011 ~
b11111111111111110000000000000000 @
b11111111111111110000000000000000 ?"
b11111111111111110000000000000000 `"
b11111111111111110000000000000000 d"
b0 5
b0 9"
b0 r"
0_
b10 ;"
b110 <"
b0 ="
b1111111111111011 h
b1111111111111011 c
b111111111111101000000000000001010000000000000000 n
b11111111111111110000000000000000 i
0e
b1111111111111111 `
b10000 $
b10000 &
b10000 t"
b10000 7
b10000 W"
b10000 m"
b110100000000100000000000000110 I
b110100000000100000000000000110 A"
b110100000000100000000000000110 Y"
b1100 H
b1100 :"
b1100 Z"
b1111111111111011 S
b1111111111111011 d
b1111111111111011 U"
b11111111111111111111111111111011 g
b11111111111111110000000000000000 T
b11111111111111110000000000000000 f
b11111111111111110000000000000000 T"
b1 Z
b1 r
b1 R"
b100101 [
b100101 s
b100101 Q"
b11111111111111110000000000000000 A
b11111111111111110000000000000000 /"
b11111111111111110000000000000000 \"
b1111111111111111 +
b1111111111111111 i"
b1111111111111111 q"
b1 ,
b1 h"
b1 p"
1!
#300000
0!
#310000
bx 2
bx 8"
bx s"
b110 W
b110 y
b110 '"
b110 7"
b110 F
b110 J"
b110 O"
b11111111111111111111111111111011 G
b11111111111111111111111111111011 H"
b11111111111111111111111111111011 N"
b11111111111111110000000000000000 5
b11111111111111110000000000000000 9"
b11111111111111110000000000000000 r"
b0 ""
11
b11111111111111111111111111111011 @
b11111111111111111111111111111011 ?"
b11111111111111111111111111111011 `"
b11111111111111111111111111111011 d"
b10 X
b10 x
b10 &"
b10 6"
b110 ~
b0 E"
b1 6
b1 G"
b1 n"
14
0F"
0E
b0 J
b0 D"
b0 M"
b0 K
b0 C"
b0 L"
b11000 L
b11000 B"
b11000 K"
b1110000001000100000000000000000 %
b1110000001000100000000000000000 0
b1110000001000100000000000000000 X"
b1110000001000100000000000000000 u"
b110 h
b110 c
b0 n
b0 i
1e
b11111111111111111111111111111111 `
b11000 <"
b0 >"
b11111111111111110000000000000000 +
b11111111111111110000000000000000 i"
b11111111111111110000000000000000 q"
b11111111111111111111111111111011 A
b11111111111111111111111111111011 /"
b11111111111111111111111111111011 \"
b10 Y
b10 p
b10 S"
b110 S
b110 d
b110 U"
b110 g
b0 T
b0 f
b0 T"
b1000100000000000011000 I
b1000100000000000011000 A"
b1000100000000000011000 Y"
b10000 H
b10000 :"
b10000 Z"
b10100 $
b10100 &
b10100 t"
b10100 7
b10100 W"
b10100 m"
1!
#320000
0!
#330000
b11111111111111111111111111100010 U
b11111111111111111111111111100010 }
b11111111111111111111111111100010 )"
b11111111111111111111111111111111 V
b11111111111111111111111111111111 z
b11111111111111111111111111111111 ("
b101 K
b101 C"
b101 L"
b1111111111111111111111111111111111111111111111111111111111100010 ""
b1110000001000100000000000000001 %
b1110000001000100000000000000001 0
b1110000001000100000000000000001 X"
b1110000001000100000000000000001 u"
11
14
0F"
b1000000 L
b1000000 B"
b1000000 K"
1R
b0 W
b0 y
b0 '"
b0 7"
0P
b0 X
b0 x
b0 &"
b0 6"
b0 ~
b110 @
b110 ?"
b110 `"
b110 d"
b10 B
b10 @"
b10 _"
b10 c"
b11111111111111111111111111111011 5
b11111111111111111111111111111011 9"
b11111111111111111111111111111011 r"
b0 <"
b11100 >"
b11110 n
b101 i
0e
b100 `
b11000 $
b11000 &
b11000 t"
b11000 7
b11000 W"
b11000 m"
b1110000001000100000000000000000 I
b1110000001000100000000000000000 A"
b1110000001000100000000000000000 Y"
b10100 H
b10100 :"
b10100 Z"
0Q
b0 Y
b0 p
b0 S"
b1 g
b11111111111111111111111111111011 T
b11111111111111111111111111111011 f
b11111111111111111111111111111011 T"
b0 Z
b0 r
b0 R"
b11000 [
b11000 s
b11000 Q"
b110 A
b110 /"
b110 \"
b10 C
b10 ."
b10 ["
b11111111111111111111111111111011 +
b11111111111111111111111111111011 i"
b11111111111111111111111111111011 q"
1!
#340000
0!
#350000
b1111 /
b1111 ^
b1111 +"
b1111 P"
b1111 V"
b1111 g"
b1111 l"
b11111111111111111111111111111111 t
b11111111111111111111111111100010 u
1.
1:
b11111111111111111111111111100010 <
b11111111111111111111111111100010 j
b11111111111111111111111111100010 b"
b11111111111111111111111111100010 f"
b11111111111111111111111111111111 >
b11111111111111111111111111111111 k
b11111111111111111111111111111111 a"
b11111111111111111111111111111111 e"
b0 @
b0 ?"
b0 `"
b0 d"
08
b0 B
b0 @"
b0 _"
b0 c"
b0 U
b0 }
b0 )"
b0 V
b0 z
b0 ("
b11111111111111111111111111100010 W
b11111111111111111111111111100010 y
b11111111111111111111111111100010 '"
b11111111111111111111111111100010 7"
1$"
b0 {
b1 \
b1 w
b1 %"
b1111111111111111111111111111111111111111111111111111111111100010 M
b1111111111111111111111111111111111111111111111111111111111100010 |
b1111111111111111111111111111111111111111111111111111111111100010 *"
b110 2
b110 8"
b110 s"
11
14
0F"
b101 K
b101 C"
b101 L"
b1000001 L
b1000001 B"
b1000001 K"
b1110000001000100000000000000100 %
b1110000001000100000000000000100 0
b1110000001000100000000000000100 X"
b1110000001000100000000000000100 u"
b1 <"
b110 +
b110 i"
b110 q"
b10 ,
b10 h"
b10 p"
1;
b11111111111111111111111111100010 =
b11111111111111111111111111100010 1"
b11111111111111111111111111100010 ^"
b11111111111111111111111111111111 ?
b11111111111111111111111111111111 0"
b11111111111111111111111111111111 ]"
b0 A
b0 /"
b0 \"
09
b0 C
b0 ."
b0 ["
b101 Z
b101 r
b101 R"
b1000000 [
b1000000 s
b1000000 Q"
b1110000001000100000000000000001 I
b1110000001000100000000000000001 A"
b1110000001000100000000000000001 Y"
b11000 H
b11000 :"
b11000 Z"
b11100 $
b11100 &
b11100 t"
b11100 7
b11100 W"
b11100 m"
1!
#360000
0!
#370000
b0 /
b0 ^
b0 +"
b0 P"
b0 V"
b0 g"
b0 l"
b11111111111111111111111111000100 U
b11111111111111111111111111000100 }
b11111111111111111111111111000100 )"
b11111111111111111111111111111111 V
b11111111111111111111111111111111 z
b11111111111111111111111111111111 ("
0.
0$"
b1111111111111111111111111111111111111111111111111111111111000100 {
b10 \
b10 w
b10 %"
b0 M
b0 |
b0 *"
0:
b0 <
b0 j
b0 b"
b0 f"
b0 >
b0 k
b0 a"
b0 e"
b1 ]
b1 q
b1 ,"
b1111111111111111111111111111111111111111111111111111111111100010 N
b1111111111111111111111111111111111111111111111111111111111100010 m
b1111111111111111111111111111111111111111111111111111111111100010 -"
0;
b0 =
b0 1"
b0 ^"
b0 ?
b0 0"
b0 ]"
1(
b11111111111111111111111111100010 )
b11111111111111111111111111100010 a
b11111111111111111111111111100010 2"
b11111111111111111111111111100010 k"
b11111111111111111111111111111111 *
b11111111111111111111111111111111 b
b11111111111111111111111111111111 3"
b11111111111111111111111111111111 j"
b0 +
b0 i"
b0 q"
0'
b0 ,
b0 h"
b0 p"
1!
#380000
0!
#390000
b1111 /
b1111 ^
b1111 +"
b1111 P"
b1111 V"
b1111 g"
b1111 l"
b11111111111111111111111111000100 u
b0 U
b0 }
b0 )"
b0 V
b0 z
b0 ("
1.
1:
b11111111111111111111111111000100 <
b11111111111111111111111111000100 j
b11111111111111111111111111000100 b"
b11111111111111111111111111000100 f"
b11111111111111111111111111111111 >
b11111111111111111111111111111111 k
b11111111111111111111111111111111 a"
b11111111111111111111111111111111 e"
b11111111111111111111111111100010 @
b11111111111111111111111111100010 ?"
b11111111111111111111111111100010 `"
b11111111111111111111111111100010 d"
1$"
b0 {
b1 \
b1 w
b1 %"
b10111111111111111111111111111100010 M
b10111111111111111111111111111100010 |
b10111111111111111111111111111100010 *"
b10111111111111111111111111111100010 ""
11
14
0F"
b101 K
b101 C"
b101 L"
b1000100 L
b1000100 B"
b1000100 K"
b1110000001000100000000000000101 %
b1110000001000100000000000000101 0
b1110000001000100000000000000101 X"
b1110000001000100000000000000101 u"
b10111111111111111111111111111100010 n
b11111111111111111111111111111011 i
b100 <"
0(
b0 )
b0 a
b0 2"
b0 k"
b0 *
b0 b
b0 3"
b0 j"
b0 ]
b0 q
b0 ,"
b0 N
b0 m
b0 -"
1;
b11111111111111111111111111000100 =
b11111111111111111111111111000100 1"
b11111111111111111111111111000100 ^"
b11111111111111111111111111111111 ?
b11111111111111111111111111111111 0"
b11111111111111111111111111111111 ]"
b11111111111111111111111111100010 A
b11111111111111111111111111100010 /"
b11111111111111111111111111100010 \"
b1000001 [
b1000001 s
b1000001 Q"
b11111111111111111111111111100010 D
b11111111111111111111111111100010 l
b11111111111111111111111111100010 5"
b11111111111111111111111111111111 O
b11111111111111111111111111111111 o
b11111111111111111111111111111111 4"
b1110000001000100000000000000100 I
b1110000001000100000000000000100 A"
b1110000001000100000000000000100 Y"
b11100 H
b11100 :"
b11100 Z"
b100000 $
b100000 &
b100000 t"
b100000 7
b100000 W"
b100000 m"
1!
#400000
0!
#410000
b0 /
b0 ^
b0 +"
b0 P"
b0 V"
b0 g"
b0 l"
b11111111111111111111111110100110 U
b11111111111111111111111110100110 }
b11111111111111111111111110100110 )"
b101 V
b101 z
b101 ("
0.
0$"
b10111111111111111111111111110100110 {
b10 \
b10 w
b10 %"
b0 M
b0 |
b0 *"
0:
b0 <
b0 j
b0 b"
b0 f"
b0 >
b0 k
b0 a"
b0 e"
b0 @
b0 ?"
b0 `"
b0 d"
b1 ]
b1 q
b1 ,"
b10111111111111111111111111111100010 N
b10111111111111111111111111111100010 m
b10111111111111111111111111111100010 -"
0;
b0 =
b0 1"
b0 ^"
b0 ?
b0 0"
b0 ]"
b0 A
b0 /"
b0 \"
1(
b11111111111111111111111111000100 )
b11111111111111111111111111000100 a
b11111111111111111111111111000100 2"
b11111111111111111111111111000100 k"
b11111111111111111111111111111111 *
b11111111111111111111111111111111 b
b11111111111111111111111111111111 3"
b11111111111111111111111111111111 j"
b11111111111111111111111111100010 +
b11111111111111111111111111100010 i"
b11111111111111111111111111100010 q"
1!
#420000
0!
#430000
b1111 /
b1111 ^
b1111 +"
b1111 P"
b1111 V"
b1111 g"
b1111 l"
b101 t
b11111111111111111111111110100110 u
1.
1:
b11111111111111111111111110100110 <
b11111111111111111111111110100110 j
b11111111111111111111111110100110 b"
b11111111111111111111111110100110 f"
b101 >
b101 k
b101 a"
b101 e"
b11111111111111111111111111100010 @
b11111111111111111111111111100010 ?"
b11111111111111111111111111100010 `"
b11111111111111111111111111100010 d"
1$"
b1 \
b1 w
b1 %"
b11110 M
b11110 |
b11110 *"
b1111111111111111111111111111111111111111111111111111111111100010 ""
11
14
0F"
b101 K
b101 C"
b101 L"
b1000101 L
b1000101 B"
b1000101 K"
bx %
bx 0
bx X"
bx u"
b11110 n
b101 i
b101 <"
0(
b0 )
b0 a
b0 2"
b0 k"
b0 *
b0 b
b0 3"
b0 j"
b0 +
b0 i"
b0 q"
b0 ]
b0 q
b0 ,"
b0 N
b0 m
b0 -"
1;
b11111111111111111111111110100110 =
b11111111111111111111111110100110 1"
b11111111111111111111111110100110 ^"
b101 ?
b101 0"
b101 ]"
b11111111111111111111111111100010 A
b11111111111111111111111111100010 /"
b11111111111111111111111111100010 \"
b1000100 [
b1000100 s
b1000100 Q"
b11111111111111111111111111000100 D
b11111111111111111111111111000100 l
b11111111111111111111111111000100 5"
b1110000001000100000000000000101 I
b1110000001000100000000000000101 A"
b1110000001000100000000000000101 Y"
b100000 H
b100000 :"
b100000 Z"
b100100 $
b100100 &
b100100 t"
b100100 7
b100100 W"
b100100 m"
1!
#440000
0!
#450000
b0 /
b0 ^
b0 +"
b0 P"
b0 V"
b0 g"
b0 l"
b11111111111111111111111111000100 U
b11111111111111111111111111000100 }
b11111111111111111111111111000100 )"
0.
0$"
b10111111111111111111111111111000100 {
b10 \
b10 w
b10 %"
b0 M
b0 |
b0 *"
0:
b0 <
b0 j
b0 b"
b0 f"
b0 >
b0 k
b0 a"
b0 e"
b0 @
b0 ?"
b0 `"
b0 d"
b1 ]
b1 q
b1 ,"
b11110 N
b11110 m
b11110 -"
0;
b0 =
b0 1"
b0 ^"
b0 ?
b0 0"
b0 ]"
b0 A
b0 /"
b0 \"
1(
b11111111111111111111111110100110 )
b11111111111111111111111110100110 a
b11111111111111111111111110100110 2"
b11111111111111111111111110100110 k"
b101 *
b101 b
b101 3"
b101 j"
b11111111111111111111111111100010 +
b11111111111111111111111111100010 i"
b11111111111111111111111111100010 q"
1!
#460000
0!
