sopc_tb.vcd
$date
	Mon Sep  5 21:28:50 2016
$end
$version
	Icarus Verilog
$end
$timescale
	1ps
$end
$scope module sopc_tb $end
$var reg 1 ! CLOCK $end
$var reg 1 " rst $end
$scope module sopc0 $end
$var wire 1 ! clk $end
$var wire 1 " rst $end
$var wire 1 # rom_ce $end
$var wire 32 $ inst_addr [31:0] $end
$var wire 32 % inst [31:0] $end
$scope module cpu0 $end
$var wire 1 ! clk $end
$var wire 32 & rom_addr_out [31:0] $end
$var wire 1 " rst $end
$var wire 1 ' wb_wreg_in $end
$var wire 32 ( wb_dest_data_in [31:0] $end
$var wire 5 ) wb_dest_addr_in [4:0] $end
$var wire 32 * rom_data_in [31:0] $end
$var wire 1 # rom_ce_out $end
$var wire 1 + reg2_read $end
$var wire 32 , reg2_data [31:0] $end
$var wire 5 - reg2_addr [4:0] $end
$var wire 1 . reg1_read $end
$var wire 32 / reg1_data [31:0] $end
$var wire 5 0 reg1_addr [4:0] $end
$var wire 32 1 pc [31:0] $end
$var wire 1 2 mem_wreg_out $end
$var wire 1 3 mem_wreg_in $end
$var wire 32 4 mem_dest_data_out [31:0] $end
$var wire 32 5 mem_dest_data_in [31:0] $end
$var wire 5 6 mem_dest_addr_out [4:0] $end
$var wire 5 7 mem_dest_addr_in [4:0] $end
$var wire 1 8 id_wreg_out $end
$var wire 32 9 id_src2_data_out [31:0] $end
$var wire 32 : id_src1_data_out [31:0] $end
$var wire 32 ; id_pc_in [31:0] $end
$var wire 32 < id_inst_in [31:0] $end
$var wire 5 = id_dest_addr_out [4:0] $end
$var wire 3 > id_alusel_out [2:0] $end
$var wire 8 ? id_aluop_out [7:0] $end
$var wire 1 @ ex_wreg_out $end
$var wire 1 A ex_wreg_in $end
$var wire 32 B ex_src2_data_in [31:0] $end
$var wire 32 C ex_src1_data_in [31:0] $end
$var wire 32 D ex_dest_data_out [31:0] $end
$var wire 5 E ex_dest_addr_out [4:0] $end
$var wire 5 F ex_dest_addr_in [4:0] $end
$var wire 3 G ex_alusel_in [2:0] $end
$var wire 8 H ex_aluop_in [7:0] $end
$scope module ex0 $end
$var wire 1 " rst $end
$var wire 1 A wreg_in $end
$var wire 32 I src2_data_in [31:0] $end
$var wire 32 J src1_data_in [31:0] $end
$var wire 5 K dest_addr_in [4:0] $end
$var wire 3 L alusel_in [2:0] $end
$var wire 8 M aluop_in [7:0] $end
$var reg 5 N dest_addr_out [4:0] $end
$var reg 32 O dest_data_out [31:0] $end
$var reg 32 P logicout [31:0] $end
$var reg 32 Q shiftout [31:0] $end
$var reg 1 @ wreg_out $end
$upscope $end
$scope module ex_mem0 $end
$var wire 1 ! clk $end
$var wire 5 R ex_dest_addr [4:0] $end
$var wire 32 S ex_dest_data [31:0] $end
$var wire 1 @ ex_wreg $end
$var wire 1 " rst $end
$var reg 5 T mem_dest_addr [4:0] $end
$var reg 32 U mem_dest_data [31:0] $end
$var reg 1 3 mem_wreg $end
$upscope $end
$scope module id0 $end
$var wire 5 V ex_dest_addr_in [4:0] $end
$var wire 32 W ex_dest_data_in [31:0] $end
$var wire 1 @ ex_wreg_in $end
$var wire 1 " rst $end
$var wire 32 X src2_data_in [31:0] $end
$var wire 32 Y src1_data_in [31:0] $end
$var wire 32 Z pc_in [31:0] $end
$var wire 5 [ op4 [4:0] $end
$var wire 6 \ op3 [5:0] $end
$var wire 6 ] op2 [5:0] $end
$var wire 6 ^ op [5:0] $end
$var wire 1 2 mem_wreg_in $end
$var wire 32 _ mem_dest_data_in [31:0] $end
$var wire 5 ` mem_dest_addr_in [4:0] $end
$var wire 32 a inst_in [31:0] $end
$var reg 8 b aluop_out [7:0] $end
$var reg 3 c alusel_out [2:0] $end
$var reg 5 d dest_addr_out [4:0] $end
$var reg 32 e imm [31:0] $end
$var reg 1 f inst_valid $end
$var reg 5 g src1_addr_out [4:0] $end
$var reg 32 h src1_data_out [31:0] $end
$var reg 1 . src1_read_out $end
$var reg 5 i src2_addr_out [4:0] $end
$var reg 32 j src2_data_out [31:0] $end
$var reg 1 + src2_read_out $end
$var reg 1 8 wreg_out $end
$upscope $end
$scope module id_ex0 $end
$var wire 1 ! clk $end
$var wire 8 k id_aluop [7:0] $end
$var wire 3 l id_alusel [2:0] $end
$var wire 5 m id_dest_addr [4:0] $end
$var wire 32 n id_src1_data [31:0] $end
$var wire 32 o id_src2_data [31:0] $end
$var wire 1 8 id_wreg $end
$var wire 1 " rst $end
$var reg 8 p ex_aluop [7:0] $end
$var reg 3 q ex_alusel [2:0] $end
$var reg 5 r ex_dest_addr [4:0] $end
$var reg 32 s ex_src1_data [31:0] $end
$var reg 32 t ex_src2_data [31:0] $end
$var reg 1 A ex_wreg $end
$upscope $end
$scope module if_id0 $end
$var wire 1 ! clk $end
$var wire 1 " rst $end
$var wire 32 u if_pc [31:0] $end
$var wire 32 v if_inst [31:0] $end
$var reg 32 w id_inst [31:0] $end
$var reg 32 x id_pc [31:0] $end
$upscope $end
$scope module mem0 $end
$var wire 5 y dest_addr_in [4:0] $end
$var wire 32 z dest_data_in [31:0] $end
$var wire 1 " rst $end
$var wire 1 3 wreg_in $end
$var reg 5 { dest_addr_out [4:0] $end
$var reg 32 | dest_data_out [31:0] $end
$var reg 1 2 wreg_out $end
$upscope $end
$scope module men_wb0 $end
$var wire 1 ! clk $end
$var wire 5 } mem_dest_addr [4:0] $end
$var wire 32 ~ mem_dest_data [31:0] $end
$var wire 1 2 mem_wreg $end
$var wire 1 " rst $end
$var reg 5 !" wb_dest_addr [4:0] $end
$var reg 32 "" wb_dest_data [31:0] $end
$var reg 1 ' wb_wreg $end
$upscope $end
$scope module pc_reg0 $end
$var wire 1 ! clk $end
$var wire 1 " rst $end
$var reg 1 # ce $end
$var reg 32 #" pc [31:0] $end
$upscope $end
$scope module reg_file0 $end
$var wire 1 ! clk $end
$var wire 5 $" raddr1 [4:0] $end
$var wire 5 %" raddr2 [4:0] $end
$var wire 1 . re1 $end
$var wire 1 + re2 $end
$var wire 1 " rst $end
$var wire 5 &" waddr [4:0] $end
$var wire 32 '" wdata [31:0] $end
$var wire 1 ' we $end
$var reg 32 (" rdata1 [31:0] $end
$var reg 32 )" rdata2 [31:0] $end
$upscope $end
$upscope $end
$scope module inst_rom0 $end
$var wire 32 *" addr [31:0] $end
$var wire 1 # ce $end
$var reg 32 +" inst [31:0] $end
$upscope $end
$upscope $end
$upscope $end
$enddefinitions $end
#0
$dumpvars
bx +"
bx *"
b0 )"
b0 ("
bx '"
bx &"
b0 %"
b0 $"
bx #"
bx ""
bx !"
b0 ~
b0 }
b0 |
b0 {
bx z
bx y
bx x
bx w
bx v
bx u
bx t
bx s
bx r
bx q
bx p
b0 o
b0 n
b0 m
b0 l
b0 k
b0 j
b0 i
b0 h
b0 g
0f
b0 e
b0 d
b0 c
b0 b
bx a
b0 `
b0 _
bx ^
b0xxxxx ]
bx \
bx [
bx Z
b0 Y
b0 X
b0 W
bx V
bx U
bx T
b0 S
bx R
b0 Q
b0 P
b0 O
bx N
bx M
bx L
bx K
bx J
bx I
bx H
bx G
bx F
bx E
b0 D
bx C
bx B
xA
x@
b0 ?
b0 >
b0 =
bx <
bx ;
b0 :
b0 9
08
bx 7
b0 6
bx 5
b0 4
x3
02
bx 1
b0 0
b0 /
0.
b0 -
b0 ,
0+
bx *
bx )
bx (
x'
bx &
bx %
bx $
x#
1"
0!
$end
#10000
b0 %
b0 *
b0 v
b0 +"
0@
b0 E
b0 N
b0 R
b0 V
b0 [
b0 \
b0 ]
b0 ^
0#
b0 <
b0 a
b0 w
b0 ;
b0 Z
b0 x
0A
b0 F
b0 K
b0 r
b0 B
b0 I
b0 t
b0 C
b0 J
b0 s
b0 G
b0 L
b0 q
b0 H
b0 M
b0 p
b0 5
b0 U
b0 z
03
b0 7
b0 T
b0 y
b0 (
b0 ""
b0 '"
0'
b0 )
b0 !"
b0 &"
1!
#20000
0!
#30000
b0 $
b0 &
b0 *"
b0 1
b0 u
b0 #"
1!
#40000
0!
#50000
1!
#60000
0!
#70000
1!
#80000
0!
#90000
1!
#100000
0!
#110000
1!
#120000
0!
#130000
1!
#140000
0!
#150000
1!
#160000
0!
#170000
1!
#180000
0!
#190000
1!
#195000
1+
b10 >
b10 c
b10 l
18
0f
0"
#200000
0!
#210000
b111100000000100000010000000100 %
b111100000000100000010000000100 *
b111100000000100000010000000100 v
b111100000000100000010000000100 +"
1@
1#
1A
b10 G
b10 L
b10 q
1!
#220000
0!
#230000
b100000001000000000000000000 9
b100000001000000000000000000 j
b100000001000000000000000000 o
b10 =
b10 d
b10 m
b100000001000000000000000000 e
1.
b100101 ?
b100101 b
b100101 k
12
b10 -
b10 i
b10 %"
0+
0f
18
b1 >
b1 c
b1 l
b110100010000100000010000000100 %
b110100010000100000010000000100 *
b110100010000100000010000000100 v
b110100010000100000010000000100 +"
b10 [
b100 \
b10000 ]
b1111 ^
13
b111100000000100000010000000100 <
b111100000000100000010000000100 a
b111100000000100000010000000100 w
b100 $
b100 &
b100 *"
b100 1
b100 u
b100 #"
1!
#240000
0!
#250000
b100000001000000000000000000 :
b100000001000000000000000000 h
b100000001000000000000000000 n
bx /
bx Y
bx ("
b10000000100 9
b10000000100 j
b10000000100 o
b100000001000000000000000000 D
b100000001000000000000000000 O
b100000001000000000000000000 S
b100000001000000000000000000 W
b110100000001110000000000000111 %
b110100000001110000000000000111 *
b110100000001110000000000000111 v
b110100000001110000000000000111 +"
b10000000100 e
b10 0
b10 g
b10 $"
1.
0f
18
b10 =
b10 d
b10 m
b1 >
b1 c
b1 l
b100101 ?
b100101 b
b100101 k
b10 E
b10 N
b10 R
b10 V
b100000001000000000000000000 P
b1101 ^
b1000 $
b1000 &
b1000 *"
b1000 1
b1000 u
b1000 #"
b110100010000100000010000000100 <
b110100010000100000010000000100 a
b110100010000100000010000000100 w
b100 ;
b100 Z
b100 x
b10 F
b10 K
b10 r
b100000001000000000000000000 B
b100000001000000000000000000 I
b100000001000000000000000000 t
b1 G
b1 L
b1 q
b100101 H
b100101 M
b100101 p
1'
1!
#260000
0!
#270000
b100000001000000010000000100 D
b100000001000000010000000100 O
b100000001000000010000000100 S
b100000001000000010000000100 W
b111 9
b111 j
b111 o
b0 :
b0 h
b0 n
b0 /
b0 Y
b0 ("
b100000001000000000000000000 4
b100000001000000000000000000 _
b100000001000000000000000000 |
b100000001000000000000000000 ~
b10 6
b10 `
b10 {
b10 }
b100000001000000010000000100 P
b111 e
b111 -
b111 i
b111 %"
b0 0
b0 g
b0 $"
1.
0f
18
b111 =
b111 d
b111 m
b1 >
b1 c
b1 l
b100101 ?
b100101 b
b100101 k
b110100000001010000000000000101 %
b110100000001010000000000000101 *
b110100000001010000000000000101 v
b110100000001010000000000000101 +"
b111 [
b111 \
b0 ]
b100000001000000000000000000 5
b100000001000000000000000000 U
b100000001000000000000000000 z
b10 7
b10 T
b10 y
b10000000100 B
b10000000100 I
b10000000100 t
b100000001000000000000000000 C
b100000001000000000000000000 J
b100000001000000000000000000 s
b110100000001110000000000000111 <
b110100000001110000000000000111 a
b110100000001110000000000000111 w
b1000 ;
b1000 Z
b1000 x
b1100 $
b1100 &
b1100 *"
b1100 1
b1100 u
b1100 #"
1!
#280000
0!
#290000
b111 D
b111 O
b111 S
b111 W
b101 9
b101 j
b101 o
b110100000010000000000000001000 %
b110100000010000000000000001000 *
b110100000010000000000000001000 v
b110100000010000000000000001000 +"
b101 e
b101 -
b101 i
b101 %"
1.
0f
18
b101 =
b101 d
b101 m
b1 >
b1 c
b1 l
b100101 ?
b100101 b
b100101 k
b111 E
b111 N
b111 R
b111 V
b111 P
b100000001000000010000000100 4
b100000001000000010000000100 _
b100000001000000010000000100 |
b100000001000000010000000100 ~
b101 [
b101 \
b10000 $
b10000 &
b10000 *"
b10000 1
b10000 u
b10000 #"
b110100000001010000000000000101 <
b110100000001010000000000000101 a
b110100000001010000000000000101 w
b1100 ;
b1100 Z
b1100 x
b111 F
b111 K
b111 r
b111 B
b111 I
b111 t
b0 C
b0 J
b0 s
b100000001000000010000000100 5
b100000001000000010000000100 U
b100000001000000010000000100 z
b100000001000000000000000000 (
b100000001000000000000000000 ""
b100000001000000000000000000 '"
b10 )
b10 !"
b10 &"
1!
#300000
0!
#310000
b101 D
b101 O
b101 S
b101 W
b1000 9
b1000 j
b1000 o
b111 4
b111 _
b111 |
b111 ~
b111 6
b111 `
b111 {
b111 }
b101 E
b101 N
b101 R
b101 V
b101 P
b1000 e
b1000 -
b1000 i
b1000 %"
1.
0f
18
b1000 =
b1000 d
b1000 m
b1 >
b1 c
b1 l
b100101 ?
b100101 b
b100101 k
b1111 %
b1111 *
b1111 v
b1111 +"
b1000 [
b1000 \
b100000001000000010000000100 (
b100000001000000010000000100 ""
b100000001000000010000000100 '"
b111 5
b111 U
b111 z
b111 7
b111 T
b111 y
b101 F
b101 K
b101 r
b101 B
b101 I
b101 t
b110100000010000000000000001000 <
b110100000010000000000000001000 a
b110100000010000000000000001000 w
b10000 ;
b10000 Z
b10000 x
b10100 $
b10100 &
b10100 *"
b10100 1
b10100 u
b10100 #"
1!
#320000
0!
#330000
b1000 D
b1000 O
b1000 S
b1000 W
b0 9
b0 j
b0 o
1+
b100001001000000000 %
b100001001000000000 *
b100001001000000000 v
b100001001000000000 +"
b0 e
b0 -
b0 i
b0 %"
0.
0f
08
b0 =
b0 d
b0 m
b0 >
b0 c
b0 l
b0 ?
b0 b
b0 k
b1000 E
b1000 N
b1000 R
b1000 V
b1000 P
b101 4
b101 _
b101 |
b101 ~
b101 6
b101 `
b101 {
b101 }
b0 [
b1111 \
b0 ^
b11000 $
b11000 &
b11000 *"
b11000 1
b11000 u
b11000 #"
b1111 <
b1111 a
b1111 w
b10100 ;
b10100 Z
b10100 x
b1000 F
b1000 K
b1000 r
b1000 B
b1000 I
b1000 t
b101 5
b101 U
b101 z
b101 7
b101 T
b101 y
b111 (
b111 ""
b111 '"
b111 )
b111 !"
b111 &"
1!
#340000
0!
#350000
b100000001000000010000000100 9
b100000001000000010000000100 j
b100000001000000010000000100 o
b1000 :
b1000 h
b1000 n
b100000001000000010000000100 ,
b100000001000000010000000100 X
b100000001000000010000000100 )"
b1000 e
b10 >
b10 c
b10 l
18
b1000 4
b1000 _
b1000 |
b1000 ~
b1000 6
b1000 `
b1000 {
b1000 }
b0 D
b0 O
b0 S
b0 W
0@
b0 E
b0 N
b0 R
b0 V
b0 P
b10 -
b10 i
b10 %"
1+
0f
b10 =
b10 d
b10 m
b111000100001000000000100 %
b111000100001000000000100 *
b111000100001000000000100 v
b111000100001000000000100 +"
b10 [
b0 \
b1000 ]
b101 (
b101 ""
b101 '"
b101 )
b101 !"
b101 &"
b1000 5
b1000 U
b1000 z
b1000 7
b1000 T
b1000 y
0A
b0 F
b0 K
b0 r
b0 B
b0 I
b0 t
b0 G
b0 L
b0 q
b0 H
b0 M
b0 p
b100001001000000000 <
b100001001000000000 a
b100001001000000000 w
b11000 ;
b11000 Z
b11000 x
b11100 $
b11100 &
b11100 *"
b11100 1
b11100 u
b11100 #"
1!
#360000
0!
#370000
b111 /
b111 Y
b111 ("
b100000001000000010000000000 D
b100000001000000010000000000 O
b100000001000000010000000000 S
b100000001000000010000000000 W
b100000001000000010000000000 9
b100000001000000010000000000 j
b100000001000000010000000000 o
b111 :
b111 h
b111 n
1.
b100001001000000010 %
b100001001000000010 *
b100001001000000010 v
b100001001000000010 +"
b0 e
b111 0
b111 g
b111 $"
1+
0f
18
b10 >
b10 c
b10 l
b100000001000000010000000000 Q
1@
b10 E
b10 N
b10 R
b10 V
b0 4
b0 _
b0 |
b0 ~
02
b0 6
b0 `
b0 {
b0 }
b100 \
b0 ]
b100000 $
b100000 &
b100000 *"
b100000 1
b100000 u
b100000 #"
b111000100001000000000100 <
b111000100001000000000100 a
b111000100001000000000100 w
b11100 ;
b11100 Z
b11100 x
1A
b10 F
b10 K
b10 r
b100000001000000010000000100 B
b100000001000000010000000100 I
b100000001000000010000000100 t
b1000 C
b1000 J
b1000 s
b10 G
b10 L
b10 q
b0 5
b0 U
b0 z
03
b0 7
b0 T
b0 y
b1000 (
b1000 ""
b1000 '"
b1000 )
b1000 !"
b1000 &"
1!
#380000
0!
#390000
b10000000100000000000000000 9
b10000000100000000000000000 j
b10000000100000000000000000 o
b10000000100000000000000000 D
b10000000100000000000000000 O
b10000000100000000000000000 S
b10000000100000000000000000 W
b1000 :
b1000 h
b1000 n
b0 /
b0 Y
b0 ("
b1000 e
b10 ?
b10 b
b10 k
b100000001000000010000000000 4
b100000001000000010000000000 _
b100000001000000010000000000 |
b100000001000000010000000000 ~
12
b10 6
b10 `
b10 {
b10 }
b10000000100000000000000000 Q
b0 0
b0 g
b0 $"
1+
0.
0f
18
b10 >
b10 c
b10 l
b101000100001000000000110 %
b101000100001000000000110 *
b101000100001000000000110 v
b101000100001000000000110 +"
b10 \
b1000 ]
b0 (
b0 ""
b0 '"
0'
b0 )
b0 !"
b0 &"
b100000001000000010000000000 5
b100000001000000010000000000 U
b100000001000000010000000000 z
13
b10 7
b10 T
b10 y
b100000001000000010000000000 B
b100000001000000010000000000 I
b100000001000000010000000000 t
b111 C
b111 J
b111 s
b100001001000000010 <
b100001001000000010 a
b100001001000000010 w
b100000 ;
b100000 Z
b100000 x
b100100 $
b100100 &
b100100 *"
b100100 1
b100100 u
b100100 #"
1!
#400000
0!
#410000
b100000001000000000 9
b100000001000000000 j
b100000001000000000 o
b101 /
b101 Y
b101 ("
b100000001000000000 D
b100000001000000000 O
b100000001000000000 S
b100000001000000000 W
b101 :
b101 h
b101 n
1.
b0 %
b0 *
b0 v
b0 +"
b0 e
b101 0
b101 g
b101 $"
1+
0f
18
b10 >
b10 c
b10 l
b10 ?
b10 b
b10 k
b100000001000000000 Q
b10000000100000000000000000 4
b10000000100000000000000000 _
b10000000100000000000000000 |
b10000000100000000000000000 ~
b100000001000000010000000000 ,
b100000001000000010000000000 X
b100000001000000010000000000 )"
b110 \
b0 ]
b101000 $
b101000 &
b101000 *"
b101000 1
b101000 u
b101000 #"
b101000100001000000000110 <
b101000100001000000000110 a
b101000100001000000000110 w
b100100 ;
b100100 Z
b100100 x
b10000000100000000000000000 B
b10000000100000000000000000 I
b10000000100000000000000000 t
b1000 C
b1000 J
b1000 s
b10 H
b10 M
b10 p
b10000000100000000000000000 5
b10000000100000000000000000 U
b10000000100000000000000000 z
b100000001000000010000000000 (
b100000001000000010000000000 ""
b100000001000000010000000000 '"
1'
b10 )
b10 !"
b10 &"
1!
#420000
0!
#430000
b1000000010000 D
b1000000010000 O
b1000000010000 S
b1000000010000 W
b0 9
b0 j
b0 o
b0 :
b0 h
b0 n
b0 /
b0 Y
b0 ("
b100000001000000000 4
b100000001000000000 _
b100000001000000000 |
b100000001000000000 ~
b1000000010000 Q
b0 ,
b0 X
b0 )"
b0 -
b0 i
b0 %"
b0 0
b0 g
b0 $"
1+
0.
0f
18
b0 =
b0 d
b0 m
b10 >
b10 c
b10 l
b0 ?
b0 b
b0 k
b100001010011000000 %
b100001010011000000 *
b100001010011000000 v
b100001010011000000 +"
b0 [
b0 \
b10000000100000000000000000 (
b10000000100000000000000000 ""
b10000000100000000000000000 '"
b100000001000000000 5
b100000001000000000 U
b100000001000000000 z
b100000001000000000 B
b100000001000000000 I
b100000001000000000 t
b101 C
b101 J
b101 s
b0 <
b0 a
b0 w
b101000 ;
b101000 Z
b101000 x
b101100 $
b101100 &
b101100 *"
b101100 1
b101100 u
b101100 #"
1!
#440000
0!
#450000
b100000001000000000 ,
b100000001000000000 X
b100000001000000000 )"
b0 D
b0 O
b0 S
b0 W
b1000000010000 9
b1000000010000 j
b1000000010000 o
b10011 :
b10011 h
b10011 n
b1000000 %
b1000000 *
b1000000 v
b1000000 +"
b10011 e
b10 -
b10 i
b10 %"
1+
0f
18
b10 =
b10 d
b10 m
b10 >
b10 c
b10 l
b0 E
b0 N
b0 R
b0 V
b0 Q
b1000000010000 4
b1000000010000 _
b1000000010000 |
b1000000010000 ~
b10 [
b10011 ]
b110000 $
b110000 &
b110000 *"
b110000 1
b110000 u
b110000 #"
b100001010011000000 <
b100001010011000000 a
b100001010011000000 w
b101100 ;
b101100 Z
b101100 x
b0 F
b0 K
b0 r
b0 B
b0 I
b0 t
b0 C
b0 J
b0 s
b0 H
b0 M
b0 p
b1000000010000 5
b1000000010000 U
b1000000010000 z
b100000001000000000 (
b100000001000000000 ""
b100000001000000000 '"
1!
#460000
0!
#470000
b10000000100000000000000000000000 D
b10000000100000000000000000000000 O
b10000000100000000000000000000000 S
b10000000100000000000000000000000 W
b1 :
b1 h
b1 n
b0 9
b0 j
b0 o
b0 4
b0 _
b0 |
b0 ~
b0 6
b0 `
b0 {
b0 }
b10 E
b10 N
b10 R
b10 V
b10000000100000000000000000000000 Q
b0 ,
b0 X
b0 )"
b1 e
b0 -
b0 i
b0 %"
1+
0f
18
b0 =
b0 d
b0 m
b10 >
b10 c
b10 l
b100001010000000011 %
b100001010000000011 *
b100001010000000011 v
b100001010000000011 +"
b0 [
b1 ]
b1000000010000 (
b1000000010000 ""
b1000000010000 '"
b0 5
b0 U
b0 z
b0 7
b0 T
b0 y
b10 F
b10 K
b10 r
b1000000010000 B
b1000000010000 I
b1000000010000 t
b10011 C
b10011 J
b10011 s
b1000000 <
b1000000 a
b1000000 w
b110000 ;
b110000 Z
b110000 x
b110100 $
b110100 &
b110100 *"
b110100 1
b110100 u
b110100 #"
1!
#480000
0!
#490000
b1000000010000 ,
b1000000010000 X
b1000000010000 )"
b0 D
b0 O
b0 S
b0 W
b10000000100000000000000000000000 9
b10000000100000000000000000000000 j
b10000000100000000000000000000000 o
b10000 :
b10000 h
b10000 n
b11 ?
b11 b
b11 k
b1000000100001000000000111 %
b1000000100001000000000111 *
b1000000100001000000000111 v
b1000000100001000000000111 +"
b10000 e
b10 -
b10 i
b10 %"
1+
0f
18
b10 =
b10 d
b10 m
b10 >
b10 c
b10 l
b0 E
b0 N
b0 R
b0 V
b0 Q
b10000000100000000000000000000000 4
b10000000100000000000000000000000 _
b10000000100000000000000000000000 |
b10000000100000000000000000000000 ~
b10 6
b10 `
b10 {
b10 }
b10 [
b11 \
b10000 ]
b111000 $
b111000 &
b111000 *"
b111000 1
b111000 u
b111000 #"
b100001010000000011 <
b100001010000000011 a
b100001010000000011 w
b110100 ;
b110100 Z
b110100 x
b0 F
b0 K
b0 r
b0 B
b0 I
b0 t
b1 C
b1 J
b1 s
b10000000100000000000000000000000 5
b10000000100000000000000000000000 U
b10000000100000000000000000000000 z
b10 7
b10 T
b10 y
b0 (
b0 ""
b0 '"
b0 )
b0 !"
b0 &"
1!
#500000
0!
#510000
b11111111111111111000000010000000 D
b11111111111111111000000010000000 O
b11111111111111111000000010000000 S
b11111111111111111000000010000000 W
b1000 :
b1000 h
b1000 n
b1000 /
b1000 Y
b1000 ("
b11111111111111111000000010000000 9
b11111111111111111000000010000000 j
b11111111111111111000000010000000 o
1.
b10000000100000000000000000000000 ,
b10000000100000000000000000000000 X
b10000000100000000000000000000000 )"
b0 4
b0 _
b0 |
b0 ~
b0 6
b0 `
b0 {
b0 }
b10 E
b10 N
b10 R
b10 V
b11111111111111111000000010000000 Q
b0 e
b1000 0
b1000 g
b1000 $"
1+
0f
18
b10 >
b10 c
b10 l
b11 ?
b11 b
b11 k
bx %
bx *
bx v
bx +"
b111 \
b0 ]
b10000000100000000000000000000000 (
b10000000100000000000000000000000 ""
b10000000100000000000000000000000 '"
b10 )
b10 !"
b10 &"
b0 5
b0 U
b0 z
b0 7
b0 T
b0 y
b10 F
b10 K
b10 r
b10000000100000000000000000000000 B
b10000000100000000000000000000000 I
b10000000100000000000000000000000 t
b10000 C
b10000 J
b10000 s
b11 H
b11 M
b11 p
b1000000100001000000000111 <
b1000000100001000000000111 a
b1000000100001000000000111 w
b111000 ;
b111000 Z
b111000 x
b111100 $
b111100 &
b111100 *"
b111100 1
b111100 u
b111100 #"
1!
#520000
0!
#530000
b0 ,
b0 X
b0 )"
b0 /
b0 Y
b0 ("
b11111111111111111111111110000000 D
b11111111111111111111111110000000 O
b11111111111111111111111110000000 S
b11111111111111111111111110000000 W
b0 9
b0 j
b0 o
b0 :
b0 h
b0 n
bx -
bx i
bx %"
bx 0
bx g
bx $"
0+
0.
1f
08
bx =
bx d
bx m
b0 >
b0 c
b0 l
b0 ?
b0 b
b0 k
b11111111111111111111111110000000 Q
b11111111111111111000000010000000 4
b11111111111111111000000010000000 _
b11111111111111111000000010000000 |
b11111111111111111000000010000000 ~
b10 6
b10 `
b10 {
b10 }
bx [
bx \
b0xxxxx ]
bx ^
b1000000 $
b1000000 &
b1000000 *"
b1000000 1
b1000000 u
b1000000 #"
bx <
bx a
bx w
b111100 ;
b111100 Z
b111100 x
b11111111111111111000000010000000 B
b11111111111111111000000010000000 I
b11111111111111111000000010000000 t
b1000 C
b1000 J
b1000 s
b11111111111111111000000010000000 5
b11111111111111111000000010000000 U
b11111111111111111000000010000000 z
b10 7
b10 T
b10 y
b0 (
b0 ""
b0 '"
b0 )
b0 !"
b0 &"
1!
#540000
0!
#550000
b11111111111111111111111110000000 4
b11111111111111111111111110000000 _
b11111111111111111111111110000000 |
b11111111111111111111111110000000 ~
b0 D
b0 O
b0 S
b0 W
0@
bx E
bx N
bx R
bx V
b0 Q
b11111111111111111000000010000000 (
b11111111111111111000000010000000 ""
b11111111111111111000000010000000 '"
b10 )
b10 !"
b10 &"
b11111111111111111111111110000000 5
b11111111111111111111111110000000 U
b11111111111111111111111110000000 z
0A
bx F
bx K
bx r
b0 B
b0 I
b0 t
b0 C
b0 J
b0 s
b0 G
b0 L
b0 q
b0 H
b0 M
b0 p
b1000000 ;
b1000000 Z
b1000000 x
b1000100 $
b1000100 &
b1000100 *"
b1000100 1
b1000100 u
b1000100 #"
1!
#560000
0!
#570000
b0 4
b0 _
b0 |
b0 ~
02
bx 6
bx `
bx {
bx }
b1001000 $
b1001000 &
b1001000 *"
b1001000 1
b1001000 u
b1001000 #"
b1000100 ;
b1000100 Z
b1000100 x
b0 5
b0 U
b0 z
03
bx 7
bx T
bx y
b11111111111111111111111110000000 (
b11111111111111111111111110000000 ""
b11111111111111111111111110000000 '"
1!
#580000
0!
#590000
b0 (
b0 ""
b0 '"
0'
bx )
bx !"
bx &"
b1001000 ;
b1001000 Z
b1001000 x
b1001100 $
b1001100 &
b1001100 *"
b1001100 1
b1001100 u
b1001100 #"
1!
#600000
0!
#610000
b1010000 $
b1010000 &
b1010000 *"
b1010000 1
b1010000 u
b1010000 #"
b1001100 ;
b1001100 Z
b1001100 x
1!
#620000
0!
#630000
b1010000 ;
b1010000 Z
b1010000 x
b1010100 $
b1010100 &
b1010100 *"
b1010100 1
b1010100 u
b1010100 #"
1!
#640000
0!
#650000
b1011000 $
b1011000 &
b1011000 *"
b1011000 1
b1011000 u
b1011000 #"
b1010100 ;
b1010100 Z
b1010100 x
1!
#660000
0!
#670000
b1011000 ;
b1011000 Z
b1011000 x
b1011100 $
b1011100 &
b1011100 *"
b1011100 1
b1011100 u
b1011100 #"
1!
#680000
0!
#690000
b1100000 $
b1100000 &
b1100000 *"
b1100000 1
b1100000 u
b1100000 #"
b1011100 ;
b1011100 Z
b1011100 x
1!
#700000
0!
#710000
b1100000 ;
b1100000 Z
b1100000 x
b1100100 $
b1100100 &
b1100100 *"
b1100100 1
b1100100 u
b1100100 #"
1!
#720000
0!
#730000
b1101000 $
b1101000 &
b1101000 *"
b1101000 1
b1101000 u
b1101000 #"
b1100100 ;
b1100100 Z
b1100100 x
1!
#740000
0!
#750000
b1101000 ;
b1101000 Z
b1101000 x
b1101100 $
b1101100 &
b1101100 *"
b1101100 1
b1101100 u
b1101100 #"
1!
#760000
0!
#770000
b1110000 $
b1110000 &
b1110000 *"
b1110000 1
b1110000 u
b1110000 #"
b1101100 ;
b1101100 Z
b1101100 x
1!
#780000
0!
#790000
b1110000 ;
b1110000 Z
b1110000 x
b1110100 $
b1110100 &
b1110100 *"
b1110100 1
b1110100 u
b1110100 #"
1!
#800000
0!
#810000
b1111000 $
b1111000 &
b1111000 *"
b1111000 1
b1111000 u
b1111000 #"
b1110100 ;
b1110100 Z
b1110100 x
1!
#820000
0!
#830000
b1111000 ;
b1111000 Z
b1111000 x
b1111100 $
b1111100 &
b1111100 *"
b1111100 1
b1111100 u
b1111100 #"
1!
#840000
0!
#850000
b10000000 $
b10000000 &
b10000000 *"
b10000000 1
b10000000 u
b10000000 #"
b1111100 ;
b1111100 Z
b1111100 x
1!
#860000
0!
#870000
b10000000 ;
b10000000 Z
b10000000 x
b10000100 $
b10000100 &
b10000100 *"
b10000100 1
b10000100 u
b10000100 #"
1!
#880000
0!
#890000
b10001000 $
b10001000 &
b10001000 *"
b10001000 1
b10001000 u
b10001000 #"
b10000100 ;
b10000100 Z
b10000100 x
1!
#900000
0!
#910000
b10001000 ;
b10001000 Z
b10001000 x
b10001100 $
b10001100 &
b10001100 *"
b10001100 1
b10001100 u
b10001100 #"
1!
#920000
0!
#930000
b10010000 $
b10010000 &
b10010000 *"
b10010000 1
b10010000 u
b10010000 #"
b10001100 ;
b10001100 Z
b10001100 x
1!
#940000
0!
#950000
b10010000 ;
b10010000 Z
b10010000 x
b10010100 $
b10010100 &
b10010100 *"
b10010100 1
b10010100 u
b10010100 #"
1!
#960000
0!
#970000
b10011000 $
b10011000 &
b10011000 *"
b10011000 1
b10011000 u
b10011000 #"
b10010100 ;
b10010100 Z
b10010100 x
1!
#980000
0!
#990000
b10011000 ;
b10011000 Z
b10011000 x
b10011100 $
b10011100 &
b10011100 *"
b10011100 1
b10011100 u
b10011100 #"
1!
#1000000
0!
