sopc_tb.vcd
$date
	Tue Sep  6 20:12:06 2016
$end
$version
	Icarus Verilog
$end
$timescale
	1ps
$end
$scope module sopc_tb $end
$var reg 1 ! CLOCK $end
$var reg 1 " rst $end
$scope module sopc0 $end
$var wire 1 ! clk $end
$var wire 1 " rst $end
$var wire 1 # rom_ce $end
$var wire 32 $ inst_addr [31:0] $end
$var wire 32 % inst [31:0] $end
$scope module cpu0 $end
$var wire 1 ! clk $end
$var wire 32 & rom_addr_out [31:0] $end
$var wire 1 " rst $end
$var wire 1 ' wb_wreg_in $end
$var wire 1 ( wb_whilo_in $end
$var wire 32 ) wb_lo_in [31:0] $end
$var wire 32 * wb_hi_in [31:0] $end
$var wire 32 + wb_dest_data_in [31:0] $end
$var wire 5 , wb_dest_addr_in [4:0] $end
$var wire 32 - rom_data_in [31:0] $end
$var wire 1 # rom_ce_out $end
$var wire 1 . reg2_read $end
$var wire 32 / reg2_data [31:0] $end
$var wire 5 0 reg2_addr [4:0] $end
$var wire 1 1 reg1_read $end
$var wire 32 2 reg1_data [31:0] $end
$var wire 5 3 reg1_addr [4:0] $end
$var wire 32 4 pc [31:0] $end
$var wire 1 5 mem_wreg_out $end
$var wire 1 6 mem_wreg_in $end
$var wire 1 7 mem_whilo_out $end
$var wire 1 8 mem_whilo_in $end
$var wire 32 9 mem_lo_out [31:0] $end
$var wire 32 : mem_lo_in [31:0] $end
$var wire 32 ; mem_hi_out [31:0] $end
$var wire 32 < mem_hi_in [31:0] $end
$var wire 32 = mem_dest_data_out [31:0] $end
$var wire 32 > mem_dest_data_in [31:0] $end
$var wire 5 ? mem_dest_addr_out [4:0] $end
$var wire 5 @ mem_dest_addr_in [4:0] $end
$var wire 32 A lo_data [31:0] $end
$var wire 1 B id_wreg_out $end
$var wire 32 C id_src2_data_out [31:0] $end
$var wire 32 D id_src1_data_out [31:0] $end
$var wire 32 E id_pc_in [31:0] $end
$var wire 32 F id_inst_in [31:0] $end
$var wire 5 G id_dest_addr_out [4:0] $end
$var wire 3 H id_alusel_out [2:0] $end
$var wire 8 I id_aluop_out [7:0] $end
$var wire 32 J hi_data [31:0] $end
$var wire 1 K ex_wreg_out $end
$var wire 1 L ex_wreg_in $end
$var wire 1 M ex_whilo_out $end
$var wire 32 N ex_src2_data_in [31:0] $end
$var wire 32 O ex_src1_data_in [31:0] $end
$var wire 32 P ex_lo_out [31:0] $end
$var wire 32 Q ex_hi_out [31:0] $end
$var wire 32 R ex_dest_data_out [31:0] $end
$var wire 5 S ex_dest_addr_out [4:0] $end
$var wire 5 T ex_dest_addr_in [4:0] $end
$var wire 3 U ex_alusel_in [2:0] $end
$var wire 8 V ex_aluop_in [7:0] $end
$scope module ex0 $end
$var wire 1 W ov_sum $end
$var wire 1 " rst $end
$var wire 32 X src1_in_not [31:0] $end
$var wire 1 L wreg_in $end
$var wire 1 ( wb_whilo_in $end
$var wire 32 Y wb_lo_in [31:0] $end
$var wire 32 Z wb_hi_in [31:0] $end
$var wire 32 [ src2_in_mux [31:0] $end
$var wire 32 \ src2_data_in [31:0] $end
$var wire 1 ] src1_lt_src2 $end
$var wire 32 ^ src1_data_in [31:0] $end
$var wire 32 _ result_sum [31:0] $end
$var wire 32 ` opdata2_mult [31:0] $end
$var wire 32 a opdata1_mult [31:0] $end
$var wire 1 7 mem_whilo_in $end
$var wire 32 b mem_lo_in [31:0] $end
$var wire 32 c mem_hi_in [31:0] $end
$var wire 32 d lo_in [31:0] $end
$var wire 64 e hilo_temp [63:0] $end
$var wire 32 f hi_in [31:0] $end
$var wire 5 g dest_addr_in [4:0] $end
$var wire 3 h alusel_in [2:0] $end
$var wire 8 i aluop_in [7:0] $end
$var reg 32 j HI [31:0] $end
$var reg 32 k LO [31:0] $end
$var reg 32 l arithmeticres [31:0] $end
$var reg 5 m dest_addr_out [4:0] $end
$var reg 32 n dest_data_out [31:0] $end
$var reg 32 o hi_out [31:0] $end
$var reg 32 p lo_out [31:0] $end
$var reg 32 q logicres [31:0] $end
$var reg 32 r moveres [31:0] $end
$var reg 64 s mulres [63:0] $end
$var reg 32 t shiftres [31:0] $end
$var reg 1 M whilo_out $end
$var reg 1 K wreg_out $end
$upscope $end
$scope module ex_mem0 $end
$var wire 1 ! clk $end
$var wire 5 u ex_dest_addr [4:0] $end
$var wire 32 v ex_dest_data [31:0] $end
$var wire 32 w ex_hi [31:0] $end
$var wire 32 x ex_lo [31:0] $end
$var wire 1 M ex_whilo $end
$var wire 1 K ex_wreg $end
$var wire 1 " rst $end
$var reg 5 y mem_dest_addr [4:0] $end
$var reg 32 z mem_dest_data [31:0] $end
$var reg 32 { mem_hi [31:0] $end
$var reg 32 | mem_lo [31:0] $end
$var reg 1 8 mem_whilo $end
$var reg 1 6 mem_wreg $end
$upscope $end
$scope module hilo_reg0 $end
$var wire 1 ! clk $end
$var wire 1 " rst $end
$var wire 1 ( we $end
$var wire 32 } lo_in [31:0] $end
$var wire 32 ~ hi_in [31:0] $end
$var reg 32 !" hi_out [31:0] $end
$var reg 32 "" lo_out [31:0] $end
$upscope $end
$scope module id0 $end
$var wire 5 #" ex_dest_addr_in [4:0] $end
$var wire 32 $" ex_dest_data_in [31:0] $end
$var wire 1 K ex_wreg_in $end
$var wire 1 " rst $end
$var wire 32 %" src2_data_in [31:0] $end
$var wire 32 &" src1_data_in [31:0] $end
$var wire 32 '" pc_in [31:0] $end
$var wire 5 (" op4 [4:0] $end
$var wire 6 )" op3 [5:0] $end
$var wire 6 *" op2 [5:0] $end
$var wire 6 +" op [5:0] $end
$var wire 1 5 mem_wreg_in $end
$var wire 32 ," mem_dest_data_in [31:0] $end
$var wire 5 -" mem_dest_addr_in [4:0] $end
$var wire 32 ." inst_in [31:0] $end
$var reg 8 /" aluop_out [7:0] $end
$var reg 3 0" alusel_out [2:0] $end
$var reg 5 1" dest_addr_out [4:0] $end
$var reg 32 2" imm [31:0] $end
$var reg 1 3" inst_valid $end
$var reg 5 4" src1_addr_out [4:0] $end
$var reg 32 5" src1_data_out [31:0] $end
$var reg 1 1 src1_read_out $end
$var reg 5 6" src2_addr_out [4:0] $end
$var reg 32 7" src2_data_out [31:0] $end
$var reg 1 . src2_read_out $end
$var reg 1 B wreg_out $end
$upscope $end
$scope module id_ex0 $end
$var wire 1 ! clk $end
$var wire 8 8" id_aluop [7:0] $end
$var wire 3 9" id_alusel [2:0] $end
$var wire 5 :" id_dest_addr [4:0] $end
$var wire 32 ;" id_src1_data [31:0] $end
$var wire 32 <" id_src2_data [31:0] $end
$var wire 1 B id_wreg $end
$var wire 1 " rst $end
$var reg 8 =" ex_aluop [7:0] $end
$var reg 3 >" ex_alusel [2:0] $end
$var reg 5 ?" ex_dest_addr [4:0] $end
$var reg 32 @" ex_src1_data [31:0] $end
$var reg 32 A" ex_src2_data [31:0] $end
$var reg 1 L ex_wreg $end
$upscope $end
$scope module if_id0 $end
$var wire 1 ! clk $end
$var wire 1 " rst $end
$var wire 32 B" if_pc [31:0] $end
$var wire 32 C" if_inst [31:0] $end
$var reg 32 D" id_inst [31:0] $end
$var reg 32 E" id_pc [31:0] $end
$upscope $end
$scope module mem0 $end
$var wire 5 F" dest_addr_in [4:0] $end
$var wire 32 G" dest_data_in [31:0] $end
$var wire 32 H" hi_in [31:0] $end
$var wire 32 I" lo_in [31:0] $end
$var wire 1 " rst $end
$var wire 1 8 whilo_in $end
$var wire 1 6 wreg_in $end
$var reg 5 J" dest_addr_out [4:0] $end
$var reg 32 K" dest_data_out [31:0] $end
$var reg 32 L" hi_out [31:0] $end
$var reg 32 M" lo_out [31:0] $end
$var reg 1 7 whilo_out $end
$var reg 1 5 wreg_out $end
$upscope $end
$scope module men_wb0 $end
$var wire 1 ! clk $end
$var wire 5 N" mem_dest_addr [4:0] $end
$var wire 32 O" mem_dest_data [31:0] $end
$var wire 32 P" mem_hi [31:0] $end
$var wire 32 Q" mem_lo [31:0] $end
$var wire 1 7 mem_whilo $end
$var wire 1 5 mem_wreg $end
$var wire 1 " rst $end
$var reg 5 R" wb_dest_addr [4:0] $end
$var reg 32 S" wb_dest_data [31:0] $end
$var reg 32 T" wb_hi [31:0] $end
$var reg 32 U" wb_lo [31:0] $end
$var reg 1 ( wb_whilo $end
$var reg 1 ' wb_wreg $end
$upscope $end
$scope module pc_reg0 $end
$var wire 1 ! clk $end
$var wire 1 " rst $end
$var reg 1 # ce $end
$var reg 32 V" pc [31:0] $end
$upscope $end
$scope module reg_file0 $end
$var wire 1 ! clk $end
$var wire 5 W" raddr1 [4:0] $end
$var wire 5 X" raddr2 [4:0] $end
$var wire 1 1 re1 $end
$var wire 1 . re2 $end
$var wire 1 " rst $end
$var wire 5 Y" waddr [4:0] $end
$var wire 32 Z" wdata [31:0] $end
$var wire 1 ' we $end
$var reg 32 [" rdata1 [31:0] $end
$var reg 32 \" rdata2 [31:0] $end
$upscope $end
$upscope $end
$scope module inst_rom0 $end
$var wire 32 ]" addr [31:0] $end
$var wire 1 # ce $end
$var reg 32 ^" inst [31:0] $end
$upscope $end
$upscope $end
$upscope $end
$enddefinitions $end
#0
$dumpvars
bx ^"
bx ]"
b0 \"
b0 ["
bx Z"
bx Y"
b0 X"
b0 W"
bx V"
bx U"
bx T"
bx S"
bx R"
b0 Q"
b0 P"
b0 O"
b0 N"
b0 M"
b0 L"
b0 K"
b0 J"
bx I"
bx H"
bx G"
bx F"
bx E"
bx D"
bx C"
bx B"
bx A"
bx @"
bx ?"
bx >"
bx ="
b0 <"
b0 ;"
b0 :"
b0 9"
b0 8"
b0 7"
b0 6"
b0 5"
b0 4"
03"
b0 2"
b0 1"
b0 0"
b0 /"
bx ."
b0 -"
b0 ,"
bx +"
b0xxxxx *"
bx )"
bx ("
bx '"
b0 &"
b0 %"
b0 $"
bx #"
bx ""
bx !"
bx ~
bx }
bx |
bx {
bx z
bx y
b0 x
b0 w
b0 v
bx u
b0 t
b0 s
b0 r
b0 q
b0 p
b0 o
b0 n
bx m
b0 l
b0 k
b0 j
bx i
bx h
bx g
bx f
bx e
bx d
b0 c
b0 b
bx a
bx `
bx _
bx ^
x]
bx \
bx [
bx Z
bx Y
bx X
xW
bx V
bx U
bx T
bx S
b0 R
b0 Q
b0 P
bx O
bx N
0M
xL
xK
bx J
b0 I
b0 H
b0 G
bx F
bx E
b0 D
b0 C
0B
bx A
bx @
b0 ?
bx >
b0 =
bx <
b0 ;
bx :
b0 9
x8
07
x6
05
bx 4
b0 3
b0 2
01
b0 0
b0 /
0.
bx -
bx ,
bx +
bx *
bx )
x(
x'
bx &
bx %
bx $
x#
1"
0!
$end
#10000
b0 %
b0 -
b0 C"
b0 ^"
0K
b0 S
b0 m
b0 u
b0 #"
0W
b0 ("
b0 )"
b0 *"
b0 +"
b0 e
b0 `
b0 _
b0 [
b0 a
b11111111111111111111111111111111 X
0]
0#
b0 F
b0 ."
b0 D"
b0 E
b0 '"
b0 E"
b0 A
b0 d
b0 ""
b0 J
b0 f
b0 !"
0L
b0 T
b0 g
b0 ?"
b0 N
b0 \
b0 A"
b0 O
b0 ^
b0 @"
b0 U
b0 h
b0 >"
b0 V
b0 i
b0 ="
08
b0 :
b0 |
b0 I"
b0 <
b0 {
b0 H"
b0 >
b0 z
b0 G"
06
b0 @
b0 y
b0 F"
0(
b0 )
b0 Y
b0 }
b0 U"
b0 *
b0 Z
b0 ~
b0 T"
b0 +
b0 S"
b0 Z"
0'
b0 ,
b0 R"
b0 Y"
1!
#20000
0!
#30000
b0 $
b0 &
b0 ]"
b0 4
b0 B"
b0 V"
1!
#40000
0!
#50000
1!
#60000
0!
#70000
1!
#80000
0!
#90000
1!
#100000
0!
#110000
1!
#120000
0!
#130000
1!
#140000
0!
#150000
1!
#160000
0!
#170000
1!
#180000
0!
#190000
1!
#195000
1.
b10 H
b10 0"
b10 9"
1B
03"
0"
#200000
0!
#210000
b110100000000011000000000000000 %
b110100000000011000000000000000 -
b110100000000011000000000000000 C"
b110100000000011000000000000000 ^"
1K
1#
1L
b10 U
b10 h
b10 >"
1!
#220000
0!
#230000
b1000000000000000 C
b1000000000000000 7"
b1000000000000000 <"
b1000000000000000 2"
11
b100101 I
b100101 /"
b100101 8"
15
b1 0
b1 6"
b1 X"
0.
03"
1B
b1 G
b1 1"
b1 :"
b1 H
b1 0"
b1 9"
b10000110000000000 %
b10000110000000000 -
b10000110000000000 C"
b10000110000000000 ^"
b1 ("
b1101 +"
16
b110100000000011000000000000000 F
b110100000000011000000000000000 ."
b110100000000011000000000000000 D"
b100 $
b100 &
b100 ]"
b100 4
b100 B"
b100 V"
1!
#240000
0!
#250000
bx /
bx %"
bx \"
b1000000000000000 C
b1000000000000000 7"
b1000000000000000 <"
b10000 D
b10000 5"
b10000 ;"
b1000000000000000 R
b1000000000000000 n
b1000000000000000 v
b1000000000000000 $"
b110100001000010000000000010000 %
b110100001000010000000000010000 -
b110100001000010000000000010000 C"
b110100001000010000000000010000 ^"
1.
b10000 2"
01
03"
1B
b10 H
b10 0"
b10 9"
b0 I
b0 /"
b0 8"
b1 S
b1 m
b1 u
b1 #"
b1000000000000000 q
b10000 *"
b0 +"
b1000000000000000 `
1]
b1000000000000000 _
b1000000000000000 [
b1000 $
b1000 &
b1000 ]"
b1000 4
b1000 B"
b1000 V"
b10000110000000000 F
b10000110000000000 ."
b10000110000000000 D"
b100 E
b100 '"
b100 E"
b1 T
b1 g
b1 ?"
b1000000000000000 N
b1000000000000000 \
b1000000000000000 A"
b1 U
b1 h
b1 >"
b100101 V
b100101 i
b100101 ="
1'
1!
#260000
0!
#270000
b10000000000000000000000000000000 D
b10000000000000000000000000000000 5"
b10000000000000000000000000000000 ;"
bx 2
bx &"
bx ["
b10000 C
b10000 7"
b10000 <"
b0 /
b0 %"
b0 \"
b10000000000000000000 s
11
b100101 I
b100101 /"
b100101 8"
b1000000000000000 =
b1000000000000000 ,"
b1000000000000000 K"
b1000000000000000 O"
b1 ?
b1 -"
b1 J"
b1 N"
b10000000000000000000000000000000 R
b10000000000000000000000000000000 n
b10000000000000000000000000000000 v
b10000000000000000000000000000000 $"
b10000000000000000000000000000000 t
b0 q
b10000 2"
b1 3
b1 4"
b1 W"
0.
03"
1B
b1 G
b1 1"
b1 :"
b1 H
b1 0"
b1 9"
b110100000000101000000000000000 %
b110100000000101000000000000000 -
b110100000000101000000000000000 C"
b110100000000101000000000000000 ^"
b10000000000000000000 e
b10000 a
b11111111111111111111111111101111 X
b10000 )"
b0 *"
b1101 +"
b1000000000000000 >
b1000000000000000 z
b1000000000000000 G"
b1 @
b1 y
b1 F"
b1000000000010000 _
b10000 O
b10000 ^
b10000 @"
b10 U
b10 h
b10 >"
b0 V
b0 i
b0 ="
b110100001000010000000000010000 F
b110100001000010000000000010000 ."
b110100001000010000000000010000 D"
b1000 E
b1000 '"
b1000 E"
b1100 $
b1100 &
b1100 ]"
b1100 4
b1100 B"
b1100 V"
1!
#280000
0!
#290000
b1000000000000000 C
b1000000000000000 7"
b1000000000000000 <"
b0 D
b0 5"
b0 ;"
b100000000000000000000000000000000000 s
b100001010000000000 %
b100001010000000000 -
b100001010000000000 C"
b100001010000000000 ^"
b1000000000000000 2"
b10 0
b10 6"
b10 X"
b0 3
b0 4"
b0 W"
11
03"
1B
b10 G
b10 1"
b10 :"
b1 H
b1 0"
b1 9"
b100101 I
b100101 /"
b100101 8"
b10000000000000000000000000010000 R
b10000000000000000000000000010000 n
b10000000000000000000000000010000 v
b10000000000000000000000000010000 $"
b0 t
b10000000000000000000000000010000 q
b10000000000000000000000000000000 =
b10000000000000000000000000000000 ,"
b10000000000000000000000000000000 K"
b10000000000000000000000000000000 O"
b0 2
b0 &"
b0 ["
0W
b10 ("
b0 )"
b10000 `
b10000 [
b100000000000000000000000000000000000 e
b10000000000000000000000000000000 a
0]
b1111111111111111111111111111111 X
b10000 $
b10000 &
b10000 ]"
b10000 4
b10000 B"
b10000 V"
b110100000000101000000000000000 F
b110100000000101000000000000000 ."
b110100000000101000000000000000 D"
b1100 E
b1100 '"
b1100 E"
b10000 N
b10000 \
b10000 A"
b10000000000000000000000000010000 _
b10000000000000000000000000000000 O
b10000000000000000000000000000000 ^
b10000000000000000000000000000000 @"
b1 U
b1 h
b1 >"
b100101 V
b100101 i
b100101 ="
b10000000000000000000000000000000 >
b10000000000000000000000000000000 z
b10000000000000000000000000000000 G"
b1000000000000000 +
b1000000000000000 S"
b1000000000000000 Z"
b1 ,
b1 R"
b1 Y"
1!
#300000
0!
#310000
b1000000000000000 R
b1000000000000000 n
b1000000000000000 v
b1000000000000000 $"
bx /
bx %"
bx \"
b1000000000000000 C
b1000000000000000 7"
b1000000000000000 <"
b10000 D
b10000 5"
b10000 ;"
b0 s
b10000000000000000000000000010000 =
b10000000000000000000000000010000 ,"
b10000000000000000000000000010000 K"
b10000000000000000000000000010000 O"
b10 S
b10 m
b10 u
b10 #"
b1000000000000000 q
1.
b10000 2"
01
03"
1B
b10 H
b10 0"
b10 9"
b0 I
b0 /"
b0 8"
b110100010000100000000000000001 %
b110100010000100000000000000001 -
b110100010000100000000000000001 C"
b110100010000100000000000000001 ^"
b1000000000000000 `
b1000000000000000 [
b0 e
b0 a
1]
b11111111111111111111111111111111 X
b10000 *"
b0 +"
b10000000000000000000000000000000 +
b10000000000000000000000000000000 S"
b10000000000000000000000000000000 Z"
b10000000000000000000000000010000 >
b10000000000000000000000000010000 z
b10000000000000000000000000010000 G"
b10 T
b10 g
b10 ?"
b1000000000000000 N
b1000000000000000 \
b1000000000000000 A"
b1000000000000000 _
b0 O
b0 ^
b0 @"
b100001010000000000 F
b100001010000000000 ."
b100001010000000000 D"
b10000 E
b10000 '"
b10000 E"
b10100 $
b10100 &
b10100 ]"
b10100 4
b10100 B"
b10100 V"
1!
#320000
0!
#330000
bx 2
bx &"
bx ["
b0 /
b0 %"
b0 \"
b1 C
b1 7"
b1 <"
b10000000000000000000000000000000 D
b10000000000000000000000000000000 5"
b10000000000000000000000000000000 ;"
11
b100101 I
b100101 /"
b100101 8"
b10000000000000000000 s
b110100000000110000000000000000 %
b110100000000110000000000000000 -
b110100000000110000000000000000 C"
b110100000000110000000000000000 ^"
b1 2"
b10 3
b10 4"
b10 W"
0.
03"
1B
b10 G
b10 1"
b10 :"
b1 H
b1 0"
b1 9"
b10000000000000000000000000000000 R
b10000000000000000000000000000000 n
b10000000000000000000000000000000 v
b10000000000000000000000000000000 $"
b10000000000000000000000000000000 t
b0 q
b1000000000000000 =
b1000000000000000 ,"
b1000000000000000 K"
b1000000000000000 O"
b10 ?
b10 -"
b10 J"
b10 N"
b1 )"
b0 *"
b1101 +"
b10000000000000000000 e
b10000 a
b11111111111111111111111111101111 X
b11000 $
b11000 &
b11000 ]"
b11000 4
b11000 B"
b11000 V"
b110100010000100000000000000001 F
b110100010000100000000000000001 ."
b110100010000100000000000000001 D"
b10100 E
b10100 '"
b10100 E"
b1000000000010000 _
b10000 O
b10000 ^
b10000 @"
b10 U
b10 h
b10 >"
b0 V
b0 i
b0 ="
b1000000000000000 >
b1000000000000000 z
b1000000000000000 G"
b10 @
b10 y
b10 F"
b10000000000000000000000000010000 +
b10000000000000000000000000010000 S"
b10000000000000000000000000010000 Z"
1!
#340000
0!
#350000
b0 C
b0 7"
b0 <"
b0 D
b0 5"
b0 ;"
b10000000000000000000000000000000 s
b10000000000000000000000000000000 =
b10000000000000000000000000000000 ,"
b10000000000000000000000000000000 K"
b10000000000000000000000000000000 O"
b10000000000000000000000000000001 R
b10000000000000000000000000000001 n
b10000000000000000000000000000001 v
b10000000000000000000000000000001 $"
b0 t
b10000000000000000000000000000001 q
b0 2
b0 &"
b0 ["
b0 2"
b11 0
b11 6"
b11 X"
b0 3
b0 4"
b0 W"
11
03"
1B
b11 G
b11 1"
b11 :"
b1 H
b1 0"
b1 9"
b100101 I
b100101 /"
b100101 8"
b10000010001100000100001 %
b10000010001100000100001 -
b10000010001100000100001 C"
b10000010001100000100001 ^"
0W
b1 `
b1 [
b10000000000000000000000000000000 e
b10000000000000000000000000000000 a
0]
b1111111111111111111111111111111 X
b11 ("
b0 )"
b1000000000000000 +
b1000000000000000 S"
b1000000000000000 Z"
b10 ,
b10 R"
b10 Y"
b10000000000000000000000000000000 >
b10000000000000000000000000000000 z
b10000000000000000000000000000000 G"
b1 N
b1 \
b1 A"
b10000000000000000000000000000001 _
b10000000000000000000000000000000 O
b10000000000000000000000000000000 ^
b10000000000000000000000000000000 @"
b1 U
b1 h
b1 >"
b100101 V
b100101 i
b100101 ="
b110100000000110000000000000000 F
b110100000000110000000000000000 ."
b110100000000110000000000000000 D"
b11000 E
b11000 '"
b11000 E"
b11100 $
b11100 &
b11100 ]"
b11100 4
b11100 B"
b11100 V"
1!
#360000
0!
#370000
b10000000000000000000000000010000 C
b10000000000000000000000000010000 7"
b10000000000000000000000000010000 <"
b10000000000000000000000000010000 /
b10000000000000000000000000010000 %"
b10000000000000000000000000010000 \"
b10000000000000000000000000000000 2
b10000000000000000000000000000000 &"
b10000000000000000000000000000000 ["
b0 R
b0 n
b0 v
b0 $"
b10000000000000000000000000000001 D
b10000000000000000000000000000001 5"
b10000000000000000000000000000001 ;"
1.
b0 s
b110100000000110000000000000000 %
b110100000000110000000000000000 -
b110100000000110000000000000000 C"
b110100000000110000000000000000 ^"
b11 G
b11 1"
b11 :"
b0 2"
b1 0
b1 6"
b1 X"
b10 3
b10 4"
b10 W"
11
03"
1B
b100 H
b100 0"
b100 9"
b100001 I
b100001 /"
b100001 8"
b11 S
b11 m
b11 u
b11 #"
b0 q
b10000000000000000000000000000001 =
b10000000000000000000000000000001 ,"
b10000000000000000000000000000001 K"
b10000000000000000000000000000001 O"
b1 ("
b100001 )"
b0 +"
b0 `
b0 [
b0 e
b0 a
b11111111111111111111111111111111 X
b100000 $
b100000 &
b100000 ]"
b100000 4
b100000 B"
b100000 V"
b10000010001100000100001 F
b10000010001100000100001 ."
b10000010001100000100001 D"
b11100 E
b11100 '"
b11100 E"
b11 T
b11 g
b11 ?"
b0 N
b0 \
b0 A"
b0 _
b0 O
b0 ^
b0 @"
b10000000000000000000000000000001 >
b10000000000000000000000000000001 z
b10000000000000000000000000000001 G"
b10000000000000000000000000000000 +
b10000000000000000000000000000000 S"
b10000000000000000000000000000000 Z"
1!
#380000
0!
#390000
b0 D
b0 5"
b0 ;"
b10001 R
b10001 n
b10001 v
b10001 $"
b0 C
b0 7"
b0 <"
b0 /
b0 %"
b0 \"
b100000000000000000000000000100010000000000000000000000000010000 s
b0 =
b0 ,"
b0 K"
b0 O"
b11 ?
b11 -"
b11 J"
b11 N"
b10001 l
b0 2
b0 &"
b0 ["
b11 0
b11 6"
b11 X"
b0 3
b0 4"
b0 W"
0.
11
03"
1B
b11 G
b11 1"
b11 :"
b1 H
b1 0"
b1 9"
b100101 I
b100101 /"
b100101 8"
b10000010001100000100000 %
b10000010001100000100000 -
b10000010001100000100000 C"
b10000010001100000100000 ^"
1W
b100000000000000000000000000100010000000000000000000000000010000 e
b10000000000000000000000000010000 `
1]
b10000000000000000000000000010000 [
b10000000000000000000000000000001 a
b1111111111111111111111111111110 X
b11 ("
b0 )"
b1101 +"
b10000000000000000000000000000001 +
b10000000000000000000000000000001 S"
b10000000000000000000000000000001 Z"
b0 >
b0 z
b0 G"
b11 @
b11 y
b11 F"
b10000000000000000000000000010000 N
b10000000000000000000000000010000 \
b10000000000000000000000000010000 A"
b10001 _
b10000000000000000000000000000001 O
b10000000000000000000000000000001 ^
b10000000000000000000000000000001 @"
b100 U
b100 h
b100 >"
b100001 V
b100001 i
b100001 ="
b110100000000110000000000000000 F
b110100000000110000000000000000 ."
b110100000000110000000000000000 D"
b100000 E
b100000 '"
b100000 E"
b100100 $
b100100 &
b100100 ]"
b100100 4
b100100 B"
b100100 V"
1!
#400000
0!
#410000
b10000000000000000000000000010000 C
b10000000000000000000000000010000 7"
b10000000000000000000000000010000 <"
b10000000000000000000000000000001 D
b10000000000000000000000000000001 5"
b10000000000000000000000000000001 ;"
b10000000000000000000000000010000 /
b10000000000000000000000000010000 %"
b10000000000000000000000000010000 \"
b10000000000000000000000000000001 2
b10000000000000000000000000000001 &"
b10000000000000000000000000000001 ["
1.
b0 s
b1000110001100000100010 %
b1000110001100000100010 -
b1000110001100000100010 C"
b1000110001100000100010 ^"
b11 G
b11 1"
b11 :"
b0 2"
b1 0
b1 6"
b1 X"
b10 3
b10 4"
b10 W"
11
03"
1B
b100 H
b100 0"
b100 9"
b100000 I
b100000 /"
b100000 8"
b0 R
b0 n
b0 v
b0 $"
b0 l
b10001 =
b10001 ,"
b10001 K"
b10001 O"
0W
b1 ("
b100000 )"
b0 +"
b0 `
0]
b0 [
b0 e
b0 a
b11111111111111111111111111111111 X
b101000 $
b101000 &
b101000 ]"
b101000 4
b101000 B"
b101000 V"
b10000010001100000100000 F
b10000010001100000100000 ."
b10000010001100000100000 D"
b100100 E
b100100 '"
b100100 E"
b0 N
b0 \
b0 A"
b0 _
b0 O
b0 ^
b0 @"
b1 U
b1 h
b1 >"
b100101 V
b100101 i
b100101 ="
b10001 >
b10001 z
b10001 G"
b0 +
b0 S"
b0 Z"
b11 ,
b11 R"
b11 Y"
1!
#420000
0!
#430000
b10000000000000000000000000010000 D
b10000000000000000000000000010000 5"
b10000000000000000000000000010000 ;"
b10001 R
b10001 n
b10001 v
b10001 $"
b0 C
b0 7"
b0 <"
b10001 /
b10001 %"
b10001 \"
b10000000000000000000000000010000 2
b10000000000000000000000000010000 &"
b10000000000000000000000000010000 ["
0K
b100000000000000000000000000100010000000000000000000000000010000 s
b0 =
b0 ,"
b0 K"
b0 O"
b10001 l
b11 0
b11 6"
b11 X"
b1 3
b1 4"
b1 W"
1.
11
03"
1B
b100 H
b100 0"
b100 9"
b100010 I
b100010 /"
b100010 8"
b11000100001100000100011 %
b11000100001100000100011 -
b11000100001100000100011 C"
b11000100001100000100011 ^"
1W
b100000000000000000000000000100010000000000000000000000000010000 e
b10000000000000000000000000010000 `
1]
b10000000000000000000000000010000 [
b10000000000000000000000000000001 a
b1111111111111111111111111111110 X
b11 ("
b100010 )"
b10001 +
b10001 S"
b10001 Z"
b0 >
b0 z
b0 G"
b10000000000000000000000000010000 N
b10000000000000000000000000010000 \
b10000000000000000000000000010000 A"
b10001 _
b10000000000000000000000000000001 O
b10000000000000000000000000000001 ^
b10000000000000000000000000000001 @"
b100 U
b100 h
b100 >"
b100000 V
b100000 i
b100000 ="
b1000110001100000100010 F
b1000110001100000100010 ."
b1000110001100000100010 D"
b101000 E
b101000 '"
b101000 E"
b101100 $
b101100 &
b101100 ]"
b101100 4
b101100 B"
b101100 V"
1!
#440000
0!
#450000
b10000000000000000000000000000001 C
b10000000000000000000000000000001 7"
b10000000000000000000000000000001 <"
b0 2
b0 &"
b0 ["
b10000000000000000000000000010000 R
b10000000000000000000000000010000 n
b10000000000000000000000000010000 v
b10000000000000000000000000010000 $"
b10000000000000000000000000010000 D
b10000000000000000000000000010000 5"
b10000000000000000000000000010000 ;"
1K
b0 s
b100000011000110000000000000010 %
b100000011000110000000000000010 -
b100000011000110000000000000010 C"
b100000011000110000000000000010 ^"
b10 0
b10 6"
b10 X"
b11 3
b11 4"
b11 W"
1.
11
03"
1B
b100 H
b100 0"
b100 9"
b100011 I
b100011 /"
b100011 8"
b10000000000000000000000000010000 l
b10001 =
b10001 ,"
b10001 K"
b10001 O"
05
b10000000000000000000000000000001 /
b10000000000000000000000000000001 %"
b10000000000000000000000000000001 \"
0W
b10 ("
b100011 )"
b0 `
b0 [
b0 e
b10000000000000000000000000010000 a
0]
b1111111111111111111111111101111 X
b110000 $
b110000 &
b110000 ]"
b110000 4
b110000 B"
b110000 V"
b11000100001100000100011 F
b11000100001100000100011 ."
b11000100001100000100011 D"
b101100 E
b101100 '"
b101100 E"
b0 N
b0 \
b0 A"
b10000000000000000000000000010000 _
b10000000000000000000000000010000 O
b10000000000000000000000000010000 ^
b10000000000000000000000000010000 @"
b100010 V
b100010 i
b100010 ="
b10001 >
b10001 z
b10001 G"
06
b0 +
b0 S"
b0 Z"
1!
#460000
0!
#470000
b1111 D
b1111 5"
b1111 ;"
b1111 R
b1111 n
b1111 v
b1111 $"
b10 C
b10 7"
b10 <"
b0 /
b0 %"
b0 \"
b1111 l
b100000000000000000000000000100010000000000000000000000000010000 s
b10 2"
b10000000000000000000000000010000 =
b10000000000000000000000000010000 ,"
b10000000000000000000000000010000 K"
b10000000000000000000000000010000 O"
15
b11 0
b11 6"
b11 X"
0.
11
03"
1B
b11 G
b11 1"
b11 :"
b100 H
b100 0"
b100 9"
b1000 I
b1000 /"
b1000 8"
b110100000000110000000000000000 %
b110100000000110000000000000000 -
b110100000000110000000000000000 C"
b110100000000110000000000000000 ^"
b1111 _
b1111111111111111111111111111111 [
b100000000000000000000000000100010000000000000000000000000010000 e
b10000000000000000000000000000001 `
b11 ("
b10 )"
b1000 +"
b10001 +
b10001 S"
b10001 Z"
0'
b10000000000000000000000000010000 >
b10000000000000000000000000010000 z
b10000000000000000000000000010000 G"
16
b10000000000000000000000000000001 N
b10000000000000000000000000000001 \
b10000000000000000000000000000001 A"
b100011 V
b100011 i
b100011 ="
b100000011000110000000000000010 F
b100000011000110000000000000010 ."
b100000011000110000000000000010 D"
b110000 E
b110000 '"
b110000 E"
b110100 $
b110100 &
b110100 ]"
b110100 4
b110100 B"
b110100 V"
1!
#480000
0!
