sopc_tb.vcd
$date
	Wed Sep  7 23:29:51 2016
$end
$version
	Icarus Verilog
$end
$timescale
	1ps
$end
$scope module sopc_tb $end
$var reg 1 ! CLOCK $end
$var reg 1 " rst $end
$scope module sopc0 $end
$var wire 1 ! clk $end
$var wire 1 " rst $end
$var wire 1 # rom_ce $end
$var wire 32 $ inst_addr [31:0] $end
$var wire 32 % inst [31:0] $end
$scope module cpu0 $end
$var wire 1 ! clk $end
$var wire 32 & rom_addr_out [31:0] $end
$var wire 1 " rst $end
$var wire 1 ' wb_wreg_in $end
$var wire 1 ( wb_whilo_in $end
$var wire 32 ) wb_lo_in [31:0] $end
$var wire 32 * wb_hi_in [31:0] $end
$var wire 32 + wb_dest_data_in [31:0] $end
$var wire 5 , wb_dest_addr_in [4:0] $end
$var wire 1 - stall_req_id $end
$var wire 1 . stall_req_ex $end
$var wire 6 / stall [5:0] $end
$var wire 1 0 signed_div $end
$var wire 32 1 rom_data_in [31:0] $end
$var wire 1 # rom_ce_out $end
$var wire 1 2 reg2_read $end
$var wire 32 3 reg2_data [31:0] $end
$var wire 5 4 reg2_addr [4:0] $end
$var wire 1 5 reg1_read $end
$var wire 32 6 reg1_data [31:0] $end
$var wire 5 7 reg1_addr [4:0] $end
$var wire 32 8 pc [31:0] $end
$var wire 1 9 mem_wreg_out $end
$var wire 1 : mem_wreg_in $end
$var wire 1 ; mem_whilo_out $end
$var wire 1 < mem_whilo_in $end
$var wire 32 = mem_lo_out [31:0] $end
$var wire 32 > mem_lo_in [31:0] $end
$var wire 32 ? mem_hi_out [31:0] $end
$var wire 32 @ mem_hi_in [31:0] $end
$var wire 32 A mem_dest_data_out [31:0] $end
$var wire 32 B mem_dest_data_in [31:0] $end
$var wire 5 C mem_dest_addr_out [4:0] $end
$var wire 5 D mem_dest_addr_in [4:0] $end
$var wire 32 E lo_data [31:0] $end
$var wire 1 F in_delayslot $end
$var wire 1 G id_wreg_out $end
$var wire 32 H id_src2_data_out [31:0] $end
$var wire 32 I id_src1_data_out [31:0] $end
$var wire 32 J id_pc_in [31:0] $end
$var wire 1 K id_nex_inst_delayslot_out $end
$var wire 32 L id_link_addr_out [31:0] $end
$var wire 32 M id_inst_in [31:0] $end
$var wire 1 N id_in_delayslot_out $end
$var wire 5 O id_dest_addr_out [4:0] $end
$var wire 32 P id_branch_tar_addr_out [31:0] $end
$var wire 1 Q id_branch_flag_out $end
$var wire 3 R id_alusel_out [2:0] $end
$var wire 8 S id_aluop_out [7:0] $end
$var wire 64 T hilo_temp_out [63:0] $end
$var wire 64 U hilo_temp_in [63:0] $end
$var wire 32 V hi_data [31:0] $end
$var wire 1 W ex_wreg_out $end
$var wire 1 X ex_wreg_in $end
$var wire 1 Y ex_whilo_out $end
$var wire 32 Z ex_src2_data_in [31:0] $end
$var wire 32 [ ex_src1_data_in [31:0] $end
$var wire 32 \ ex_lo_out [31:0] $end
$var wire 32 ] ex_link_addr_in [31:0] $end
$var wire 1 ^ ex_in_delayslot_in $end
$var wire 32 _ ex_hi_out [31:0] $end
$var wire 32 ` ex_dest_data_out [31:0] $end
$var wire 5 a ex_dest_addr_out [4:0] $end
$var wire 5 b ex_dest_addr_in [4:0] $end
$var wire 3 c ex_alusel_in [2:0] $end
$var wire 8 d ex_aluop_in [7:0] $end
$var wire 1 e div_start $end
$var wire 64 f div_result [63:0] $end
$var wire 1 g div_ready $end
$var wire 32 h div_opdata2 [31:0] $end
$var wire 32 i div_opdata1 [31:0] $end
$var wire 2 j cnt_out [1:0] $end
$var wire 2 k cnt_in [1:0] $end
$scope module ctrl0 $end
$var wire 1 " rst $end
$var wire 1 - stall_req_id $end
$var wire 1 . stall_req_ex $end
$var reg 6 l stall [5:0] $end
$upscope $end
$scope module div0 $end
$var wire 1 m annul_in $end
$var wire 1 ! clk $end
$var wire 1 " rst $end
$var wire 1 e start_in $end
$var wire 1 0 signed_div_in $end
$var wire 32 n opdata2_in [31:0] $end
$var wire 32 o opdata1_in [31:0] $end
$var wire 33 p div_temp [32:0] $end
$var reg 6 q cnt [5:0] $end
$var reg 65 r dividend [64:0] $end
$var reg 32 s divisor [31:0] $end
$var reg 1 g ready_out $end
$var reg 64 t result_out [63:0] $end
$var reg 2 u state [1:0] $end
$var reg 32 v temp_op1 [31:0] $end
$var reg 32 w temp_op2 [31:0] $end
$upscope $end
$scope module ex0 $end
$var wire 1 g div_ready_in $end
$var wire 64 x div_result_in [63:0] $end
$var wire 1 y ov_sum $end
$var wire 1 " rst $end
$var wire 32 z src1_in_not [31:0] $end
$var wire 1 X wreg_in $end
$var wire 1 ( wb_whilo_in $end
$var wire 32 { wb_lo_in [31:0] $end
$var wire 32 | wb_hi_in [31:0] $end
$var wire 32 } src2_in_mux [31:0] $end
$var wire 32 ~ src2_data_in [31:0] $end
$var wire 1 !" src1_lt_src2 $end
$var wire 32 "" src1_data_in [31:0] $end
$var wire 32 #" result_sum [31:0] $end
$var wire 32 $" opdata2_mult [31:0] $end
$var wire 32 %" opdata1_mult [31:0] $end
$var wire 1 ; mem_whilo_in $end
$var wire 32 &" mem_lo_in [31:0] $end
$var wire 32 '" mem_hi_in [31:0] $end
$var wire 32 (" lo_in [31:0] $end
$var wire 32 )" link_addr_in [31:0] $end
$var wire 1 ^ in_delayslot_in $end
$var wire 64 *" hilo_temp_in [63:0] $end
$var wire 64 +" hilo_temp [63:0] $end
$var wire 32 ," hi_in [31:0] $end
$var wire 5 -" dest_addr_in [4:0] $end
$var wire 2 ." cnt_in [1:0] $end
$var wire 3 /" alusel_in [2:0] $end
$var wire 8 0" aluop_in [7:0] $end
$var reg 32 1" HI [31:0] $end
$var reg 32 2" LO [31:0] $end
$var reg 32 3" arithmeticres [31:0] $end
$var reg 2 4" cnt_out [1:0] $end
$var reg 5 5" dest_addr_out [4:0] $end
$var reg 32 6" dest_data_out [31:0] $end
$var reg 32 7" div_opdata1_out [31:0] $end
$var reg 32 8" div_opdata2_out [31:0] $end
$var reg 1 e div_start_out $end
$var reg 32 9" hi_out [31:0] $end
$var reg 64 :" hilo_temp1 [63:0] $end
$var reg 64 ;" hilo_temp_out [63:0] $end
$var reg 32 <" lo_out [31:0] $end
$var reg 32 =" logicres [31:0] $end
$var reg 32 >" moveres [31:0] $end
$var reg 64 ?" mulres [63:0] $end
$var reg 32 @" shiftres [31:0] $end
$var reg 1 0 signed_div_out $end
$var reg 1 . stall_req $end
$var reg 1 A" stall_req_div $end
$var reg 1 B" stall_req_madd_msub $end
$var reg 1 Y whilo_out $end
$var reg 1 W wreg_out $end
$upscope $end
$scope module ex_mem0 $end
$var wire 1 ! clk $end
$var wire 2 C" cnt_in [1:0] $end
$var wire 5 D" ex_dest_addr [4:0] $end
$var wire 32 E" ex_dest_data [31:0] $end
$var wire 32 F" ex_hi [31:0] $end
$var wire 32 G" ex_lo [31:0] $end
$var wire 1 Y ex_whilo $end
$var wire 1 W ex_wreg $end
$var wire 64 H" hilo_in [63:0] $end
$var wire 1 " rst $end
$var wire 6 I" stall [5:0] $end
$var reg 2 J" cnt_out [1:0] $end
$var reg 64 K" hilo_out [63:0] $end
$var reg 5 L" mem_dest_addr [4:0] $end
$var reg 32 M" mem_dest_data [31:0] $end
$var reg 32 N" mem_hi [31:0] $end
$var reg 32 O" mem_lo [31:0] $end
$var reg 1 < mem_whilo $end
$var reg 1 : mem_wreg $end
$upscope $end
$scope module hilo_reg0 $end
$var wire 1 ! clk $end
$var wire 1 " rst $end
$var wire 1 ( we $end
$var wire 32 P" lo_in [31:0] $end
$var wire 32 Q" hi_in [31:0] $end
$var reg 32 R" hi_out [31:0] $end
$var reg 32 S" lo_out [31:0] $end
$upscope $end
$scope module id0 $end
$var wire 5 T" ex_dest_addr_in [4:0] $end
$var wire 32 U" ex_dest_data_in [31:0] $end
$var wire 1 W ex_wreg_in $end
$var wire 1 " rst $end
$var wire 32 V" src2_data_in [31:0] $end
$var wire 32 W" src1_data_in [31:0] $end
$var wire 32 X" pc_plus_8 [31:0] $end
$var wire 32 Y" pc_plus_4 [31:0] $end
$var wire 32 Z" pc_in [31:0] $end
$var wire 5 [" op4 [4:0] $end
$var wire 6 \" op3 [5:0] $end
$var wire 6 ]" op2 [5:0] $end
$var wire 6 ^" op [5:0] $end
$var wire 1 9 mem_wreg_in $end
$var wire 32 _" mem_dest_data_in [31:0] $end
$var wire 5 `" mem_dest_addr_in [4:0] $end
$var wire 32 a" inst_in [31:0] $end
$var wire 1 F in_delayslot_in $end
$var wire 32 b" imm_sll2 [31:0] $end
$var reg 8 c" aluop_out [7:0] $end
$var reg 3 d" alusel_out [2:0] $end
$var reg 1 Q branch_flag_out $end
$var reg 32 e" branch_tar_addr_out [31:0] $end
$var reg 5 f" dest_addr_out [4:0] $end
$var reg 32 g" imm [31:0] $end
$var reg 1 N in_delayslot_out $end
$var reg 1 h" inst_valid $end
$var reg 32 i" link_addr_out [31:0] $end
$var reg 1 K next_inst_delayslot_out $end
$var reg 5 j" src1_addr_out [4:0] $end
$var reg 32 k" src1_data_out [31:0] $end
$var reg 1 5 src1_read_out $end
$var reg 5 l" src2_addr_out [4:0] $end
$var reg 32 m" src2_data_out [31:0] $end
$var reg 1 2 src2_read_out $end
$var reg 1 - stall_req $end
$var reg 1 G wreg_out $end
$upscope $end
$scope module id_ex0 $end
$var wire 1 ! clk $end
$var wire 8 n" id_aluop [7:0] $end
$var wire 3 o" id_alusel [2:0] $end
$var wire 5 p" id_dest_addr [4:0] $end
$var wire 1 N id_in_delayslot $end
$var wire 32 q" id_link_addr [31:0] $end
$var wire 32 r" id_src1_data [31:0] $end
$var wire 32 s" id_src2_data [31:0] $end
$var wire 1 G id_wreg $end
$var wire 1 K next_inst_delayslot_in $end
$var wire 1 " rst $end
$var wire 6 t" stall [5:0] $end
$var reg 8 u" ex_aluop [7:0] $end
$var reg 3 v" ex_alusel [2:0] $end
$var reg 5 w" ex_dest_addr [4:0] $end
$var reg 1 ^ ex_in_delayslot $end
$var reg 32 x" ex_link_addr [31:0] $end
$var reg 32 y" ex_src1_data [31:0] $end
$var reg 32 z" ex_src2_data [31:0] $end
$var reg 1 X ex_wreg $end
$var reg 1 F next_inst_delayslot_out $end
$upscope $end
$scope module if_id0 $end
$var wire 1 ! clk $end
$var wire 1 " rst $end
$var wire 6 {" stall [5:0] $end
$var wire 32 |" if_pc [31:0] $end
$var wire 32 }" if_inst [31:0] $end
$var reg 32 ~" id_inst [31:0] $end
$var reg 32 !# id_pc [31:0] $end
$upscope $end
$scope module mem0 $end
$var wire 5 "# dest_addr_in [4:0] $end
$var wire 32 ## dest_data_in [31:0] $end
$var wire 32 $# hi_in [31:0] $end
$var wire 32 %# lo_in [31:0] $end
$var wire 1 " rst $end
$var wire 1 < whilo_in $end
$var wire 1 : wreg_in $end
$var reg 5 &# dest_addr_out [4:0] $end
$var reg 32 '# dest_data_out [31:0] $end
$var reg 32 (# hi_out [31:0] $end
$var reg 32 )# lo_out [31:0] $end
$var reg 1 ; whilo_out $end
$var reg 1 9 wreg_out $end
$upscope $end
$scope module men_wb0 $end
$var wire 1 ! clk $end
$var wire 5 *# mem_dest_addr [4:0] $end
$var wire 32 +# mem_dest_data [31:0] $end
$var wire 32 ,# mem_hi [31:0] $end
$var wire 32 -# mem_lo [31:0] $end
$var wire 1 ; mem_whilo $end
$var wire 1 9 mem_wreg $end
$var wire 1 " rst $end
$var wire 6 .# stall [5:0] $end
$var reg 5 /# wb_dest_addr [4:0] $end
$var reg 32 0# wb_dest_data [31:0] $end
$var reg 32 1# wb_hi [31:0] $end
$var reg 32 2# wb_lo [31:0] $end
$var reg 1 ( wb_whilo $end
$var reg 1 ' wb_wreg $end
$upscope $end
$scope module pc_reg0 $end
$var wire 1 Q branch_flag_in $end
$var wire 32 3# branch_tar_addr_in [31:0] $end
$var wire 1 ! clk $end
$var wire 1 " rst $end
$var wire 6 4# stall [5:0] $end
$var reg 1 # ce $end
$var reg 32 5# pc [31:0] $end
$upscope $end
$scope module reg_file0 $end
$var wire 1 ! clk $end
$var wire 5 6# raddr1 [4:0] $end
$var wire 5 7# raddr2 [4:0] $end
$var wire 1 5 re1 $end
$var wire 1 2 re2 $end
$var wire 1 " rst $end
$var wire 5 8# waddr [4:0] $end
$var wire 32 9# wdata [31:0] $end
$var wire 1 ' we $end
$var reg 32 :# rdata1 [31:0] $end
$var reg 32 ;# rdata2 [31:0] $end
$upscope $end
$upscope $end
$scope module inst_rom0 $end
$var wire 32 <# addr [31:0] $end
$var wire 1 # ce $end
$var reg 32 =# inst [31:0] $end
$upscope $end
$upscope $end
$upscope $end
$enddefinitions $end
#0
$dumpvars
bx =#
bx <#
b0 ;#
b0 :#
bx 9#
bx 8#
b0 7#
b0 6#
bx 5#
b0 4#
b0 3#
bx 2#
bx 1#
bx 0#
bx /#
b0 .#
b0 -#
b0 ,#
b0 +#
b0 *#
b0 )#
b0 (#
b0 '#
b0 &#
bx %#
bx $#
bx ##
bx "#
bx !#
bx ~"
bx }"
bx |"
b0 {"
bx z"
bx y"
bx x"
bx w"
bx v"
bx u"
b0 t"
b0 s"
b0 r"
b0 q"
b0 p"
b0 o"
b0 n"
b0 m"
b0 l"
b0 k"
b0 j"
b0 i"
0h"
b0 g"
b0 f"
b0 e"
b0 d"
b0 c"
bx00 b"
bx a"
b0 `"
b0 _"
bx ^"
b0xxxxx ]"
bx \"
bx ["
bx Z"
bx Y"
bx X"
b0 W"
b0 V"
b0 U"
bx T"
bx S"
bx R"
bx Q"
bx P"
bx O"
bx N"
bx M"
bx L"
bx K"
bx J"
b0 I"
b0 H"
b0 G"
b0 F"
b0 E"
bx D"
b0 C"
0B"
0A"
b0 @"
b0 ?"
b0 >"
b0 ="
b0 <"
b0 ;"
bx :"
b0 9"
b0 8"
b0 7"
b0 6"
bx 5"
b0 4"
b0 3"
b0 2"
b0 1"
bx 0"
bx /"
bx ."
bx -"
bx ,"
bx +"
bx *"
bx )"
bx ("
b0 '"
b0 &"
bx %"
bx $"
bx #"
bx ""
x!"
bx ~
bx }
bx |
bx {
bx z
xy
bx x
bx w
bx v
bx u
bx t
bx s
bx r
bx q
bx p
b0 o
b0 n
0m
b0 l
bx k
b0 j
b0 i
b0 h
xg
bx f
0e
bx d
bx c
bx b
bx a
b0 `
b0 _
x^
bx ]
b0 \
bx [
bx Z
0Y
xX
xW
bx V
bx U
b0 T
b0 S
b0 R
0Q
b0 P
b0 O
0N
bx M
b0 L
0K
bx J
b0 I
b0 H
0G
xF
bx E
bx D
b0 C
bx B
b0 A
bx @
b0 ?
bx >
b0 =
x<
0;
x:
09
bx 8
b0 7
b0 6
05
b0 4
b0 3
02
bx 1
00
b0 /
0.
0-
bx ,
bx +
bx *
bx )
x(
x'
bx &
bx %
bx $
x#
1"
0!
$end
#10000
b0 %
b0 1
b0 }"
b0 =#
0W
b0 a
b0 5"
b0 D"
b0 T"
0y
b0 b"
b0 ["
b0 \"
b0 ]"
b0 ^"
b0 +"
b0 $"
b0 #"
b0 }
b0 %"
b11111111111111111111111111111111 z
0!"
0#
b0 M
b0 a"
b0 ~"
b1000 X"
b100 Y"
b0 J
b0 Z"
b0 !#
b0 E
b0 ("
b0 S"
b0 V
b0 ,"
b0 R"
0F
0^
b0 ]
b0 )"
b0 x"
0X
b0 b
b0 -"
b0 w"
b0 Z
b0 ~
b0 z"
b0 [
b0 ""
b0 y"
b0 c
b0 /"
b0 v"
b0 d
b0 0"
b0 u"
b0 k
b0 ."
b0 J"
b0 U
b0 *"
b0 K"
0<
b0 >
b0 O"
b0 %#
b0 @
b0 N"
b0 $#
b0 B
b0 M"
b0 ##
0:
b0 D
b0 L"
b0 "#
0(
b0 )
b0 {
b0 P"
b0 2#
b0 *
b0 |
b0 Q"
b0 1#
b0 +
b0 0#
b0 9#
0'
b0 ,
b0 /#
b0 8#
b0 f
b0 t
b0 x
0g
b0 u
1!
#20000
0!
#30000
b0 $
b0 &
b0 <#
b0 8
b0 |"
b0 5#
1!
#40000
0!
#50000
1!
#60000
0!
#70000
1!
#80000
0!
#90000
1!
#100000
0!
#110000
1!
#120000
0!
#130000
1!
#140000
0!
#150000
1!
#160000
0!
#170000
1!
#180000
0!
#190000
1!
#195000
12
b10 R
b10 d"
b10 o"
1G
0h"
0"
#200000
0!
#210000
b110100000000111000000000000000 %
b110100000000111000000000000000 1
b110100000000111000000000000000 }"
b110100000000111000000000000000 =#
1W
1#
1X
b10 c
b10 /"
b10 v"
1!
#220000
0!
#230000
b1000000000000000 H
b1000000000000000 m"
b1000000000000000 s"
b1000000000000000 g"
15
b100101 S
b100101 c"
b100101 n"
19
b11 4
b11 l"
b11 7#
02
0h"
1G
b11 O
b11 f"
b11 p"
b1 R
b1 d"
b1 o"
b110001110000000000 %
b110001110000000000 1
b110001110000000000 }"
b110001110000000000 =#
b11111111111111100000000000000000 b"
b11 ["
b1101 ^"
1:
b110100000000111000000000000000 M
b110100000000111000000000000000 a"
b110100000000111000000000000000 ~"
b100 $
b100 &
b100 <#
b100 8
b100 |"
b100 5#
1!
#240000
0!
#250000
bx 3
bx V"
bx ;#
b1000000000000000 H
b1000000000000000 m"
b1000000000000000 s"
b10000 I
b10000 k"
b10000 r"
b1000000000000000 `
b1000000000000000 6"
b1000000000000000 E"
b1000000000000000 U"
b110100000000010000000000000001 %
b110100000000010000000000000001 1
b110100000000010000000000000001 }"
b110100000000010000000000000001 =#
12
b10000 g"
05
0h"
1G
b10 R
b10 d"
b10 o"
b0 S
b0 c"
b0 n"
b11 a
b11 5"
b11 D"
b11 T"
b1000000000000000 ="
b111000000000000 b"
b10000 ]"
b0 ^"
b1000000000000000 $"
1!"
b1000000000000000 #"
b1000000000000000 }
b1000 $
b1000 &
b1000 <#
b1000 8
b1000 |"
b1000 5#
b110001110000000000 M
b110001110000000000 a"
b110001110000000000 ~"
b1100 X"
b1000 Y"
b100 J
b100 Z"
b100 !#
b11 b
b11 -"
b11 w"
b1000000000000000 Z
b1000000000000000 ~
b1000000000000000 z"
b1 c
b1 /"
b1 v"
b100101 d
b100101 0"
b100101 u"
1'
1!
#260000
0!
#270000
b0 I
b0 k"
b0 r"
b1 H
b1 m"
b1 s"
b0 3
b0 V"
b0 ;#
b10000000000000000000 ?"
15
b100101 S
b100101 c"
b100101 n"
b1000000000000000 A
b1000000000000000 _"
b1000000000000000 '#
b1000000000000000 +#
b11 C
b11 `"
b11 &#
b11 *#
b10000000000000000000000000000000 `
b10000000000000000000000000000000 6"
b10000000000000000000000000000000 E"
b10000000000000000000000000000000 U"
b10000000000000000000000000000000 @"
b0 ="
b1 g"
b1 4
b1 l"
b1 7#
02
0h"
1G
b1 O
b1 f"
b1 p"
b1 R
b1 d"
b1 o"
b10000000000000000000000000100 %
b10000000000000000000000000100 1
b10000000000000000000000000100 }"
b10000000000000000000000000100 =#
b10000000000000000000 +"
b10000 %"
b11111111111111111111111111101111 z
b100 b"
b1 ["
b1 \"
b0 ]"
b1101 ^"
b1000000000000000 B
b1000000000000000 M"
b1000000000000000 ##
b11 D
b11 L"
b11 "#
b1000000000010000 #"
b10000 [
b10000 ""
b10000 y"
b10 c
b10 /"
b10 v"
b0 d
b0 0"
b0 u"
b110100000000010000000000000001 M
b110100000000010000000000000001 a"
b110100000000010000000000000001 ~"
b10000 X"
b1100 Y"
b1000 J
b1000 Z"
b1000 !#
b1100 $
b1100 &
b1100 <#
b1100 8
b1100 |"
b1100 5#
1!
#280000
0!
#290000
1K
1Q
b100000 P
b100000 e"
b100000 3#
b0 H
b0 m"
b0 s"
12
b0 ?"
b110100000000010000000000000010 %
b110100000000010000000000000010 1
b110100000000010000000000000010 }"
b110100000000010000000000000010 =#
b0 g"
b0 4
b0 l"
b0 7#
15
0h"
0G
b0 O
b0 f"
b0 p"
b110 R
b110 d"
b110 o"
b10000100 S
b10000100 c"
b10000100 n"
b1 `
b1 6"
b1 E"
b1 U"
b1 a
b1 5"
b1 D"
b1 T"
b0 @"
b1 ="
b10000000000000000000000000000000 A
b10000000000000000000000000000000 _"
b10000000000000000000000000000000 '#
b10000000000000000000000000000000 +#
b10000 b"
b0 ["
b100 \"
b100 ^"
b1 $"
b1 }
b0 +"
b0 %"
b11111111111111111111111111111111 z
b10000 $
b10000 &
b10000 <#
b10000 8
b10000 |"
b10000 5#
b10000000000000000000000000100 M
b10000000000000000000000000100 a"
b10000000000000000000000000100 ~"
b10100 X"
b10000 Y"
b1100 J
b1100 Z"
b1100 !#
b1 b
b1 -"
b1 w"
b1 Z
b1 ~
b1 z"
b1 #"
b0 [
b0 ""
b0 y"
b1 c
b1 /"
b1 v"
b100101 d
b100101 0"
b100101 u"
b10000000000000000000000000000000 B
b10000000000000000000000000000000 M"
b10000000000000000000000000000000 ##
b1000000000000000 +
b1000000000000000 0#
b1000000000000000 9#
b11 ,
b11 /#
b11 8#
1!
#300000
0!
#310000
b10 H
b10 m"
b10 s"
b1 O
b1 f"
b1 p"
b10 g"
1G
b1 A
b1 _"
b1 '#
b1 +#
b1 C
b1 `"
b1 &#
b1 *#
1N
b0 `
b0 6"
b0 E"
b0 U"
0W
b0 a
b0 5"
b0 D"
b0 T"
b0 ="
0K
0Q
b0 P
b0 e"
b0 3#
b1 4
b1 l"
b1 7#
02
15
0h"
b1 R
b1 d"
b1 o"
b100101 S
b100101 c"
b100101 n"
b110100000000010000000000000011 %
b110100000000010000000000000011 1
b110100000000010000000000000011 }"
b110100000000010000000000000011 =#
b0 $"
0!"
b0 #"
b0 }
b1000 b"
b1 ["
b10 \"
b1101 ^"
b10000000000000000000000000000000 +
b10000000000000000000000000000000 0#
b10000000000000000000000000000000 9#
b1 B
b1 M"
b1 ##
b1 D
b1 L"
b1 "#
1F
0X
b0 b
b0 -"
b0 w"
b0 Z
b0 ~
b0 z"
b110 c
b110 /"
b110 v"
b10000100 d
b10000100 0"
b10000100 u"
b110100000000010000000000000010 M
b110100000000010000000000000010 a"
b110100000000010000000000000010 ~"
b11000 X"
b10100 Y"
b10000 J
b10000 Z"
b10000 !#
b100000 $
b100000 &
b100000 <#
b100000 8
b100000 |"
b100000 5#
1!
#320000
0!
#330000
b10 `
b10 6"
b10 E"
b10 U"
b11 H
b11 m"
b11 s"
b100000100010000000000001010 %
b100000100010000000000001010 1
b100000100010000000000001010 }"
b100000100010000000000001010 =#
b11 g"
15
0h"
1G
b1 O
b1 f"
b1 p"
b1 R
b1 d"
b1 o"
b100101 S
b100101 c"
b100101 n"
0N
1W
b1 a
b1 5"
b1 D"
b1 T"
b10 ="
b0 A
b0 _"
b0 '#
b0 +#
09
b0 C
b0 `"
b0 &#
b0 *#
b1100 b"
b11 \"
b10 $"
1!"
b10 #"
b10 }
b100100 $
b100100 &
b100100 <#
b100100 8
b100100 |"
b100100 5#
b110100000000010000000000000011 M
b110100000000010000000000000011 a"
b110100000000010000000000000011 ~"
b101000 X"
b100100 Y"
b100000 J
b100000 Z"
b100000 !#
0F
1^
1X
b1 b
b1 -"
b1 w"
b10 Z
b10 ~
b10 z"
b1 c
b1 /"
b1 v"
b100101 d
b100101 0"
b100101 u"
b0 B
b0 M"
b0 ##
0:
b0 D
b0 L"
b0 "#
b1 +
b1 0#
b1 9#
b1 ,
b1 /#
b1 8#
1!
#340000
0!
#350000
b11 `
b11 6"
b11 E"
b11 U"
b0 H
b0 m"
b0 s"
1K
1Q
b1010000 P
b1010000 e"
b1010000 3#
b101100 L
b101100 i"
b101100 q"
b10 A
b10 _"
b10 '#
b10 +#
19
b1 C
b1 `"
b1 &#
b1 *#
b11 ="
b0 g"
b10001 4
b10001 l"
b10001 7#
15
0h"
1G
b11111 O
b11111 f"
b11111 p"
b110 R
b110 d"
b110 o"
b11010001 S
b11010001 c"
b11010001 n"
b11111000010000000000011010 %
b11111000010000000000011010 1
b11111000010000000000011010 }"
b11111000010000000000011010 =#
b11 $"
b11 #"
b11 }
b101000 b"
b10001 ["
b1010 \"
b1 ^"
b0 +
b0 0#
b0 9#
0'
b0 ,
b0 /#
b0 8#
b10 B
b10 M"
b10 ##
1:
b1 D
b1 L"
b1 "#
0^
b11 Z
b11 ~
b11 z"
b100000100010000000000001010 M
b100000100010000000000001010 a"
b100000100010000000000001010 ~"
b101100 X"
b101000 Y"
b100100 J
b100100 Z"
b100100 !#
b101000 $
b101000 &
b101000 <#
b101000 8
b101000 |"
b101000 5#
1!
#360000
0!
#370000
b10 3
b10 V"
b10 ;#
bx 6
bx W"
bx :#
b11 H
b11 m"
b11 s"
b101100 I
b101100 k"
b101100 r"
12
b110100000000010000000000000100 %
b110100000000010000000000000100 1
b110100000000010000000000000100 }"
b110100000000010000000000000100 =#
0K
0Q
b0 P
b0 e"
b0 3#
b0 L
b0 i"
b0 q"
b1 4
b1 l"
b1 7#
b11111 7
b11111 j"
b11111 6#
15
0h"
0G
b0 O
b0 f"
b0 p"
b0 R
b0 d"
b0 o"
b11010 S
b11010 c"
b11010 n"
1N
b101100 `
b101100 6"
b101100 E"
b101100 U"
b11111 a
b11111 5"
b11111 D"
b11111 T"
b0 ="
b11 A
b11 _"
b11 '#
b11 +#
b1101000 b"
b1 ["
b11010 \"
b0 ^"
b0 $"
0!"
b0 #"
b0 }
b1010000 $
b1010000 &
b1010000 <#
b1010000 8
b1010000 |"
b1010000 5#
b11111000010000000000011010 M
b11111000010000000000011010 a"
b11111000010000000000011010 ~"
b110000 X"
b101100 Y"
b101000 J
b101000 Z"
b101000 !#
1F
b101100 ]
b101100 )"
b101100 x"
b11111 b
b11111 -"
b11111 w"
b0 Z
b0 ~
b0 z"
b110 c
b110 /"
b110 v"
b11010001 d
b11010001 0"
b11010001 u"
b11 B
b11 M"
b11 ##
b10 +
b10 0#
b10 9#
1'
b1 ,
b1 /#
b1 8#
1!
#380000
0!
#390000
b1111 /
b1111 l
b1111 I"
b1111 t"
b1111 {"
b1111 .#
b1111 4#
b100 H
b100 m"
b100 s"
b0 I
b0 k"
b0 r"
b0 6
b0 W"
b0 :#
1.
b10000100 ?"
b1 O
b1 f"
b1 p"
b100 g"
b1 R
b1 d"
b1 o"
1G
b101100 A
b101100 _"
b101100 '#
b101100 +#
b11111 C
b11111 `"
b11111 &#
b11111 *#
0N
1Y
b0 `
b0 6"
b0 E"
b0 U"
0W
b0 a
b0 5"
b0 D"
b0 T"
1A"
10
1e
b11 h
b11 n
b11 8"
b101100 i
b101100 o
b101100 7"
b0 3
b0 V"
b0 ;#
b0 7
b0 j"
b0 6#
02
15
0h"
b100101 S
b100101 c"
b100101 n"
b10000011000110000000000001010 %
b10000011000110000000000001010 1
b10000011000110000000000001010 }"
b10000011000110000000000001010 =#
b10000100 +"
b11 $"
b11 }
b101100 %"
b11111111111111111111111111010011 z
b10000 b"
b100 \"
b1101 ^"
b11 +
b11 0#
b11 9#
b101100 B
b101100 M"
b101100 ##
b11111 D
b11111 L"
b11111 "#
0F
1^
b0 ]
b0 )"
b0 x"
0X
b0 b
b0 -"
b0 w"
b11 Z
b11 ~
b11 z"
b101111 #"
b101100 [
b101100 ""
b101100 y"
b0 c
b0 /"
b0 v"
b11010 d
b11010 0"
b11010 u"
b110100000000010000000000000100 M
b110100000000010000000000000100 a"
b110100000000010000000000000100 ~"
b1011000 X"
b1010100 Y"
b1010000 J
b1010000 Z"
b1010000 !#
b1010100 $
b1010100 &
b1010100 <#
b1010100 8
b1010100 |"
b1010100 5#
1!
#400000
0!
#410000
b0 A
b0 _"
b0 '#
b0 +#
09
b0 C
b0 `"
b0 &#
b0 *#
b111111111111111111111111111111101 p
b0 B
b0 M"
b0 ##
0:
b0 D
b0 L"
b0 "#
b101100 +
b101100 0#
b101100 9#
b11111 ,
b11111 /#
b11111 8#
b11 s
b1011000 r
b0 q
b10 u
b11 w
b101100 v
1!
#420000
0!
#430000
b1 q
b10110000 r
b0 +
b0 0#
b0 9#
0'
b0 ,
b0 /#
b0 8#
1!
#440000
0!
#450000
b10 q
b101100000 r
1!
#460000
0!
#470000
b11 q
b1011000000 r
1!
#480000
0!
#490000
b100 q
b10110000000 r
1!
#500000
0!
#510000
b101 q
b101100000000 r
1!
#520000
0!
#530000
b110 q
b1011000000000 r
1!
#540000
0!
#550000
b111 q
b10110000000000 r
1!
#560000
0!
#570000
b1000 q
b101100000000000 r
1!
#580000
0!
#590000
b1001 q
b1011000000000000 r
1!
#600000
0!
#610000
b1010 q
b10110000000000000 r
1!
#620000
0!
#630000
b1011 q
b101100000000000000 r
1!
#640000
0!
#650000
b1100 q
b1011000000000000000 r
1!
#660000
0!
#670000
b1101 q
b10110000000000000000 r
1!
#680000
0!
#690000
b1110 q
b101100000000000000000 r
1!
#700000
0!
#710000
b1111 q
b1011000000000000000000 r
1!
#720000
0!
#730000
b10000 q
b10110000000000000000000 r
1!
#740000
0!
#750000
b10001 q
b101100000000000000000000 r
1!
#760000
0!
#770000
b10010 q
b1011000000000000000000000 r
1!
#780000
0!
#790000
b10011 q
b10110000000000000000000000 r
1!
#800000
0!
#810000
b10100 q
b101100000000000000000000000 r
1!
#820000
0!
#830000
b10101 q
b1011000000000000000000000000 r
1!
#840000
0!
#850000
b10110 q
b10110000000000000000000000000 r
1!
#860000
0!
#870000
b10111 q
b101100000000000000000000000000 r
1!
#880000
0!
#890000
b11000 q
b1011000000000000000000000000000 r
1!
#900000
0!
#910000
b11001 q
b10110000000000000000000000000000 r
1!
#920000
0!
#930000
b111111111111111111111111111111110 p
b11010 q
b101100000000000000000000000000000 r
1!
#940000
0!
#950000
b111111111111111111111111111111111 p
b11011 q
b1011000000000000000000000000000000 r
1!
#960000
0!
#970000
b10 p
b11100 q
b10110000000000000000000000000000000 r
1!
#980000
0!
#990000
b11101 q
b10100000000000000000000000000000001 r
1!
#1000000
0!
