sopc_tb.vcd
$date
	Tue Sep  6 00:15:29 2016
$end
$version
	Icarus Verilog
$end
$timescale
	1ps
$end
$scope module sopc_tb $end
$var reg 1 ! CLOCK $end
$var reg 1 " rst $end
$scope module sopc0 $end
$var wire 1 ! clk $end
$var wire 1 " rst $end
$var wire 1 # rom_ce $end
$var wire 32 $ inst_addr [31:0] $end
$var wire 32 % inst [31:0] $end
$scope module cpu0 $end
$var wire 1 ! clk $end
$var wire 32 & rom_addr_out [31:0] $end
$var wire 1 " rst $end
$var wire 1 ' wb_wreg_in $end
$var wire 1 ( wb_whilo_in $end
$var wire 32 ) wb_lo_in [31:0] $end
$var wire 32 * wb_hi_in [31:0] $end
$var wire 32 + wb_dest_data_in [31:0] $end
$var wire 5 , wb_dest_addr_in [4:0] $end
$var wire 32 - rom_data_in [31:0] $end
$var wire 1 # rom_ce_out $end
$var wire 1 . reg2_read $end
$var wire 32 / reg2_data [31:0] $end
$var wire 5 0 reg2_addr [4:0] $end
$var wire 1 1 reg1_read $end
$var wire 32 2 reg1_data [31:0] $end
$var wire 5 3 reg1_addr [4:0] $end
$var wire 32 4 pc [31:0] $end
$var wire 1 5 mem_wreg_out $end
$var wire 1 6 mem_wreg_in $end
$var wire 1 7 mem_whilo_out $end
$var wire 1 8 mem_whilo_in $end
$var wire 32 9 mem_lo_out [31:0] $end
$var wire 32 : mem_lo_in [31:0] $end
$var wire 32 ; mem_hi_out [31:0] $end
$var wire 32 < mem_hi_in [31:0] $end
$var wire 32 = mem_dest_data_out [31:0] $end
$var wire 32 > mem_dest_data_in [31:0] $end
$var wire 5 ? mem_dest_addr_out [4:0] $end
$var wire 5 @ mem_dest_addr_in [4:0] $end
$var wire 32 A lo_data [31:0] $end
$var wire 1 B id_wreg_out $end
$var wire 32 C id_src2_data_out [31:0] $end
$var wire 32 D id_src1_data_out [31:0] $end
$var wire 32 E id_pc_in [31:0] $end
$var wire 32 F id_inst_in [31:0] $end
$var wire 5 G id_dest_addr_out [4:0] $end
$var wire 3 H id_alusel_out [2:0] $end
$var wire 8 I id_aluop_out [7:0] $end
$var wire 32 J hi_data [31:0] $end
$var wire 1 K ex_wreg_out $end
$var wire 1 L ex_wreg_in $end
$var wire 1 M ex_whilo_out $end
$var wire 32 N ex_src2_data_in [31:0] $end
$var wire 32 O ex_src1_data_in [31:0] $end
$var wire 32 P ex_lo_out [31:0] $end
$var wire 32 Q ex_hi_out [31:0] $end
$var wire 32 R ex_dest_data_out [31:0] $end
$var wire 5 S ex_dest_addr_out [4:0] $end
$var wire 5 T ex_dest_addr_in [4:0] $end
$var wire 3 U ex_alusel_in [2:0] $end
$var wire 8 V ex_aluop_in [7:0] $end
$scope module ex0 $end
$var wire 1 " rst $end
$var wire 1 L wreg_in $end
$var wire 1 ( wb_whilo_in $end
$var wire 32 W wb_lo_in [31:0] $end
$var wire 32 X wb_hi_in [31:0] $end
$var wire 32 Y src2_data_in [31:0] $end
$var wire 32 Z src1_data_in [31:0] $end
$var wire 1 7 mem_whilo_in $end
$var wire 32 [ mem_lo_in [31:0] $end
$var wire 32 \ mem_hi_in [31:0] $end
$var wire 32 ] lo_in [31:0] $end
$var wire 32 ^ hi_in [31:0] $end
$var wire 5 _ dest_addr_in [4:0] $end
$var wire 3 ` alusel_in [2:0] $end
$var wire 8 a aluop_in [7:0] $end
$var reg 32 b HI [31:0] $end
$var reg 32 c LO [31:0] $end
$var reg 5 d dest_addr_out [4:0] $end
$var reg 32 e dest_data_out [31:0] $end
$var reg 32 f hi_out [31:0] $end
$var reg 32 g lo_out [31:0] $end
$var reg 32 h logicres [31:0] $end
$var reg 32 i moveres [31:0] $end
$var reg 32 j shiftres [31:0] $end
$var reg 1 M whilo_out $end
$var reg 1 K wreg_out $end
$upscope $end
$scope module ex_mem0 $end
$var wire 1 ! clk $end
$var wire 5 k ex_dest_addr [4:0] $end
$var wire 32 l ex_dest_data [31:0] $end
$var wire 32 m ex_hi [31:0] $end
$var wire 32 n ex_lo [31:0] $end
$var wire 1 M ex_whilo $end
$var wire 1 K ex_wreg $end
$var wire 1 " rst $end
$var reg 5 o mem_dest_addr [4:0] $end
$var reg 32 p mem_dest_data [31:0] $end
$var reg 32 q mem_hi [31:0] $end
$var reg 32 r mem_lo [31:0] $end
$var reg 1 8 mem_whilo $end
$var reg 1 6 mem_wreg $end
$upscope $end
$scope module hilo_reg0 $end
$var wire 1 ! clk $end
$var wire 1 " rst $end
$var wire 1 ( we $end
$var wire 32 s lo_in [31:0] $end
$var wire 32 t hi_in [31:0] $end
$var reg 32 u hi_out [31:0] $end
$var reg 32 v lo_out [31:0] $end
$upscope $end
$scope module id0 $end
$var wire 5 w ex_dest_addr_in [4:0] $end
$var wire 32 x ex_dest_data_in [31:0] $end
$var wire 1 K ex_wreg_in $end
$var wire 1 " rst $end
$var wire 32 y src2_data_in [31:0] $end
$var wire 32 z src1_data_in [31:0] $end
$var wire 32 { pc_in [31:0] $end
$var wire 5 | op4 [4:0] $end
$var wire 6 } op3 [5:0] $end
$var wire 6 ~ op2 [5:0] $end
$var wire 6 !" op [5:0] $end
$var wire 1 5 mem_wreg_in $end
$var wire 32 "" mem_dest_data_in [31:0] $end
$var wire 5 #" mem_dest_addr_in [4:0] $end
$var wire 32 $" inst_in [31:0] $end
$var reg 8 %" aluop_out [7:0] $end
$var reg 3 &" alusel_out [2:0] $end
$var reg 5 '" dest_addr_out [4:0] $end
$var reg 32 (" imm [31:0] $end
$var reg 1 )" inst_valid $end
$var reg 5 *" src1_addr_out [4:0] $end
$var reg 32 +" src1_data_out [31:0] $end
$var reg 1 1 src1_read_out $end
$var reg 5 ," src2_addr_out [4:0] $end
$var reg 32 -" src2_data_out [31:0] $end
$var reg 1 . src2_read_out $end
$var reg 1 B wreg_out $end
$upscope $end
$scope module id_ex0 $end
$var wire 1 ! clk $end
$var wire 8 ." id_aluop [7:0] $end
$var wire 3 /" id_alusel [2:0] $end
$var wire 5 0" id_dest_addr [4:0] $end
$var wire 32 1" id_src1_data [31:0] $end
$var wire 32 2" id_src2_data [31:0] $end
$var wire 1 B id_wreg $end
$var wire 1 " rst $end
$var reg 8 3" ex_aluop [7:0] $end
$var reg 3 4" ex_alusel [2:0] $end
$var reg 5 5" ex_dest_addr [4:0] $end
$var reg 32 6" ex_src1_data [31:0] $end
$var reg 32 7" ex_src2_data [31:0] $end
$var reg 1 L ex_wreg $end
$upscope $end
$scope module if_id0 $end
$var wire 1 ! clk $end
$var wire 1 " rst $end
$var wire 32 8" if_pc [31:0] $end
$var wire 32 9" if_inst [31:0] $end
$var reg 32 :" id_inst [31:0] $end
$var reg 32 ;" id_pc [31:0] $end
$upscope $end
$scope module mem0 $end
$var wire 5 <" dest_addr_in [4:0] $end
$var wire 32 =" dest_data_in [31:0] $end
$var wire 32 >" hi_in [31:0] $end
$var wire 32 ?" lo_in [31:0] $end
$var wire 1 " rst $end
$var wire 1 8 whilo_in $end
$var wire 1 6 wreg_in $end
$var reg 5 @" dest_addr_out [4:0] $end
$var reg 32 A" dest_data_out [31:0] $end
$var reg 32 B" hi_out [31:0] $end
$var reg 32 C" lo_out [31:0] $end
$var reg 1 7 whilo_out $end
$var reg 1 5 wreg_out $end
$upscope $end
$scope module men_wb0 $end
$var wire 1 ! clk $end
$var wire 5 D" mem_dest_addr [4:0] $end
$var wire 32 E" mem_dest_data [31:0] $end
$var wire 32 F" mem_hi [31:0] $end
$var wire 32 G" mem_lo [31:0] $end
$var wire 1 7 mem_whilo $end
$var wire 1 5 mem_wreg $end
$var wire 1 " rst $end
$var reg 5 H" wb_dest_addr [4:0] $end
$var reg 32 I" wb_dest_data [31:0] $end
$var reg 32 J" wb_hi [31:0] $end
$var reg 32 K" wb_lo [31:0] $end
$var reg 1 ( wb_whilo $end
$var reg 1 ' wb_wreg $end
$upscope $end
$scope module pc_reg0 $end
$var wire 1 ! clk $end
$var wire 1 " rst $end
$var reg 1 # ce $end
$var reg 32 L" pc [31:0] $end
$upscope $end
$scope module reg_file0 $end
$var wire 1 ! clk $end
$var wire 5 M" raddr1 [4:0] $end
$var wire 5 N" raddr2 [4:0] $end
$var wire 1 1 re1 $end
$var wire 1 . re2 $end
$var wire 1 " rst $end
$var wire 5 O" waddr [4:0] $end
$var wire 32 P" wdata [31:0] $end
$var wire 1 ' we $end
$var reg 32 Q" rdata1 [31:0] $end
$var reg 32 R" rdata2 [31:0] $end
$upscope $end
$upscope $end
$scope module inst_rom0 $end
$var wire 32 S" addr [31:0] $end
$var wire 1 # ce $end
$var reg 32 T" inst [31:0] $end
$upscope $end
$upscope $end
$upscope $end
$enddefinitions $end
#0
$dumpvars
bx T"
bx S"
b0 R"
b0 Q"
bx P"
bx O"
b0 N"
b0 M"
bx L"
bx K"
bx J"
bx I"
bx H"
b0 G"
b0 F"
b0 E"
b0 D"
b0 C"
b0 B"
b0 A"
b0 @"
bx ?"
bx >"
bx ="
bx <"
bx ;"
bx :"
bx 9"
bx 8"
bx 7"
bx 6"
bx 5"
bx 4"
bx 3"
b0 2"
b0 1"
b0 0"
b0 /"
b0 ."
b0 -"
b0 ,"
b0 +"
b0 *"
0)"
b0 ("
b0 '"
b0 &"
b0 %"
bx $"
b0 #"
b0 ""
bx !"
b0xxxxx ~
bx }
bx |
bx {
b0 z
b0 y
b0 x
bx w
bx v
bx u
bx t
bx s
bx r
bx q
bx p
bx o
b0 n
b0 m
b0 l
bx k
b0 j
b0 i
b0 h
b0 g
b0 f
b0 e
bx d
b0 c
b0 b
bx a
bx `
bx _
bx ^
bx ]
b0 \
b0 [
bx Z
bx Y
bx X
bx W
bx V
bx U
bx T
bx S
b0 R
b0 Q
b0 P
bx O
bx N
0M
xL
xK
bx J
b0 I
b0 H
b0 G
bx F
bx E
b0 D
b0 C
0B
bx A
bx @
b0 ?
bx >
b0 =
bx <
b0 ;
bx :
b0 9
x8
07
x6
05
bx 4
b0 3
b0 2
01
b0 0
b0 /
0.
bx -
bx ,
bx +
bx *
bx )
x(
x'
bx &
bx %
bx $
x#
1"
0!
$end
#10000
b0 %
b0 -
b0 9"
b0 T"
0K
b0 S
b0 d
b0 k
b0 w
b0 |
b0 }
b0 ~
b0 !"
0#
b0 F
b0 $"
b0 :"
b0 E
b0 {
b0 ;"
b0 A
b0 ]
b0 v
b0 J
b0 ^
b0 u
0L
b0 T
b0 _
b0 5"
b0 N
b0 Y
b0 7"
b0 O
b0 Z
b0 6"
b0 U
b0 `
b0 4"
b0 V
b0 a
b0 3"
08
b0 :
b0 r
b0 ?"
b0 <
b0 q
b0 >"
b0 >
b0 p
b0 ="
06
b0 @
b0 o
b0 <"
0(
b0 )
b0 W
b0 s
b0 K"
b0 *
b0 X
b0 t
b0 J"
b0 +
b0 I"
b0 P"
0'
b0 ,
b0 H"
b0 O"
1!
#20000
0!
#30000
b0 $
b0 &
b0 S"
b0 4
b0 8"
b0 L"
1!
#40000
0!
#50000
1!
#60000
0!
#70000
1!
#80000
0!
#90000
1!
#100000
0!
#110000
1!
#120000
0!
#130000
1!
#140000
0!
#150000
1!
#160000
0!
#170000
1!
#180000
0!
#190000
1!
#195000
1.
b10 H
b10 &"
b10 /"
1B
0)"
0"
#200000
0!
#210000
b111100000000010000000000000000 %
b111100000000010000000000000000 -
b111100000000010000000000000000 9"
b111100000000010000000000000000 T"
1K
1#
1L
b10 U
b10 `
b10 4"
1!
#220000
0!
#230000
b1 G
b1 '"
b1 0"
11
b100101 I
b100101 %"
b100101 ."
15
b1 0
b1 ,"
b1 N"
0.
0)"
1B
b1 H
b1 &"
b1 /"
b111100000000101111111111111111 %
b111100000000101111111111111111 -
b111100000000101111111111111111 9"
b111100000000101111111111111111 T"
b1 |
b1111 !"
16
b111100000000010000000000000000 F
b111100000000010000000000000000 $"
b111100000000010000000000000000 :"
b100 $
b100 &
b100 S"
b100 4
b100 8"
b100 L"
1!
#240000
0!
#250000
b11111111111111110000000000000000 C
b11111111111111110000000000000000 -"
b11111111111111110000000000000000 2"
b111100000000110000010100000101 %
b111100000000110000010100000101 -
b111100000000110000010100000101 9"
b111100000000110000010100000101 T"
b11111111111111110000000000000000 ("
b10 0
b10 ,"
b10 N"
11
0)"
1B
b10 G
b10 '"
b10 0"
b1 H
b1 &"
b1 /"
b100101 I
b100101 %"
b100101 ."
b1 S
b1 d
b1 k
b1 w
b10 |
b111111 }
b11111 ~
b1000 $
b1000 &
b1000 S"
b1000 4
b1000 8"
b1000 L"
b111100000000101111111111111111 F
b111100000000101111111111111111 $"
b111100000000101111111111111111 :"
b100 E
b100 {
b100 ;"
b1 T
b1 _
b1 5"
b1 U
b1 `
b1 4"
b100101 V
b100101 a
b100101 3"
1'
1!
#260000
0!
#270000
b11111111111111110000000000000000 R
b11111111111111110000000000000000 e
b11111111111111110000000000000000 l
b11111111111111110000000000000000 x
b101000001010000000000000000 C
b101000001010000000000000000 -"
b101000001010000000000000000 2"
b1 ?
b1 #"
b1 @"
b1 D"
b10 S
b10 d
b10 k
b10 w
b11111111111111110000000000000000 h
b101000001010000000000000000 ("
b11 0
b11 ,"
b11 N"
11
0)"
1B
b11 G
b11 '"
b11 0"
b1 H
b1 &"
b1 /"
b100101 I
b100101 %"
b100101 ."
b111100000001000000000000000000 %
b111100000001000000000000000000 -
b111100000001000000000000000000 9"
b111100000001000000000000000000 T"
b11 |
b101 }
b10100 ~
b1 @
b1 o
b1 <"
b10 T
b10 _
b10 5"
b11111111111111110000000000000000 N
b11111111111111110000000000000000 Y
b11111111111111110000000000000000 7"
b111100000000110000010100000101 F
b111100000000110000010100000101 $"
b111100000000110000010100000101 :"
b1000 E
b1000 {
b1000 ;"
b1100 $
b1100 &
b1100 S"
b1100 4
b1100 8"
b1100 L"
1!
#280000
0!
#290000
b101000001010000000000000000 R
b101000001010000000000000000 e
b101000001010000000000000000 l
b101000001010000000000000000 x
b0 C
b0 -"
b0 2"
b10000010010000000001010 %
b10000010010000000001010 -
b10000010010000000001010 9"
b10000010010000000001010 T"
b0 ("
b100 0
b100 ,"
b100 N"
11
0)"
1B
b100 G
b100 '"
b100 0"
b1 H
b1 &"
b1 /"
b100101 I
b100101 %"
b100101 ."
b11 S
b11 d
b11 k
b11 w
b101000001010000000000000000 h
b11111111111111110000000000000000 =
b11111111111111110000000000000000 ""
b11111111111111110000000000000000 A"
b11111111111111110000000000000000 E"
b10 ?
b10 #"
b10 @"
b10 D"
b100 |
b0 }
b0 ~
b10000 $
b10000 &
b10000 S"
b10000 4
b10000 8"
b10000 L"
b111100000001000000000000000000 F
b111100000001000000000000000000 $"
b111100000001000000000000000000 :"
b1100 E
b1100 {
b1100 ;"
b11 T
b11 _
b11 5"
b101000001010000000000000000 N
b101000001010000000000000000 Y
b101000001010000000000000000 7"
b11111111111111110000000000000000 >
b11111111111111110000000000000000 p
b11111111111111110000000000000000 ="
b10 @
b10 o
b10 <"
b1 ,
b1 H"
b1 O"
1!
#300000
0!
#310000
b11111111111111110000000000000000 D
b11111111111111110000000000000000 +"
b11111111111111110000000000000000 1"
b0 R
b0 e
b0 l
b0 x
b11111111111111110000000000000000 2
b11111111111111110000000000000000 z
b11111111111111110000000000000000 Q"
1.
b101000001010000000000000000 =
b101000001010000000000000000 ""
b101000001010000000000000000 A"
b101000001010000000000000000 E"
b11 ?
b11 #"
b11 @"
b11 D"
b100 S
b100 d
b100 k
b100 w
b0 h
b100 G
b100 '"
b100 0"
b0 ("
b1 0
b1 ,"
b1 N"
b10 3
b10 *"
b10 M"
11
0)"
1B
b11 H
b11 &"
b11 /"
b1010 I
b1010 %"
b1010 ."
b11000010010000000001011 %
b11000010010000000001011 -
b11000010010000000001011 9"
b11000010010000000001011 T"
b1 |
b1010 }
b0 !"
b11111111111111110000000000000000 +
b11111111111111110000000000000000 I"
b11111111111111110000000000000000 P"
b10 ,
b10 H"
b10 O"
b101000001010000000000000000 >
b101000001010000000000000000 p
b101000001010000000000000000 ="
b11 @
b11 o
b11 <"
b100 T
b100 _
b100 5"
b0 N
b0 Y
b0 7"
b10000010010000000001010 F
b10000010010000000001010 $"
b10000010010000000001010 :"
b10000 E
b10000 {
b10000 ;"
b10100 $
b10100 &
b10100 S"
b10100 4
b10100 8"
b10100 L"
1!
#320000
0!
#330000
b101000001010000000000000000 D
b101000001010000000000000000 +"
b101000001010000000000000000 1"
b101000001010000000000000000 2
b101000001010000000000000000 z
b101000001010000000000000000 Q"
b11111111111111110000000000000000 R
b11111111111111110000000000000000 e
b11111111111111110000000000000000 l
b11111111111111110000000000000000 x
b11000100010000000001011 %
b11000100010000000001011 -
b11000100010000000001011 9"
b11000100010000000001011 T"
b11 3
b11 *"
b11 M"
1.
11
0)"
0B
b11 H
b11 &"
b11 /"
b1011 I
b1011 %"
b1011 ."
b11111111111111110000000000000000 i
b0 =
b0 ""
b0 A"
b0 E"
b100 ?
b100 #"
b100 @"
b100 D"
b1011 }
b11000 $
b11000 &
b11000 S"
b11000 4
b11000 8"
b11000 L"
b11000010010000000001011 F
b11000010010000000001011 $"
b11000010010000000001011 :"
b10100 E
b10100 {
b10100 ;"
b11111111111111110000000000000000 O
b11111111111111110000000000000000 Z
b11111111111111110000000000000000 6"
b11 U
b11 `
b11 4"
b1010 V
b1010 a
b1010 3"
b0 >
b0 p
b0 ="
b100 @
b100 o
b100 <"
b101000001010000000000000000 +
b101000001010000000000000000 I"
b101000001010000000000000000 P"
b11 ,
b11 H"
b11 O"
1!
#340000
0!
#350000
1B
b11111111111111110000000000000000 C
b11111111111111110000000000000000 -"
b11111111111111110000000000000000 2"
b101000001010000000000000000 R
b101000001010000000000000000 e
b101000001010000000000000000 l
b101000001010000000000000000 x
b11111111111111110000000000000000 /
b11111111111111110000000000000000 y
b11111111111111110000000000000000 R"
b11111111111111110000000000000000 =
b11111111111111110000000000000000 ""
b11111111111111110000000000000000 A"
b11111111111111110000000000000000 E"
0K
b101000001010000000000000000 i
b10 0
b10 ,"
b10 N"
1.
11
0)"
b11 H
b11 &"
b11 /"
b1011 I
b1011 %"
b1011 ."
b10000110010000000001010 %
b10000110010000000001010 -
b10000110010000000001010 9"
b10000110010000000001010 T"
b10 |
b0 +
b0 I"
b0 P"
b100 ,
b100 H"
b100 O"
b11111111111111110000000000000000 >
b11111111111111110000000000000000 p
b11111111111111110000000000000000 ="
0L
b101000001010000000000000000 O
b101000001010000000000000000 Z
b101000001010000000000000000 6"
b1011 V
b1011 a
b1011 3"
b11000100010000000001011 F
b11000100010000000001011 $"
b11000100010000000001011 :"
b11000 E
b11000 {
b11000 ;"
b11100 $
b11100 &
b11100 S"
b11100 4
b11100 8"
b11100 L"
1!
#360000
0!
#370000
b101000001010000000000000000 C
b101000001010000000000000000 -"
b101000001010000000000000000 2"
b11111111111111110000000000000000 D
b11111111111111110000000000000000 +"
b11111111111111110000000000000000 1"
b101000001010000000000000000 /
b101000001010000000000000000 y
b101000001010000000000000000 R"
b11111111111111110000000000000000 2
b11111111111111110000000000000000 z
b11111111111111110000000000000000 Q"
b10001 %
b10001 -
b10001 9"
b10001 T"
b11 0
b11 ,"
b11 N"
b10 3
b10 *"
b10 M"
1.
11
0)"
0B
b11 H
b11 &"
b11 /"
b1010 I
b1010 %"
b1010 ."
1K
b101000001010000000000000000 =
b101000001010000000000000000 ""
b101000001010000000000000000 A"
b101000001010000000000000000 E"
05
b11 |
b1010 }
b100000 $
b100000 &
b100000 S"
b100000 4
b100000 8"
b100000 L"
b10000110010000000001010 F
b10000110010000000001010 $"
b10000110010000000001010 :"
b11100 E
b11100 {
b11100 ;"
1L
b11111111111111110000000000000000 N
b11111111111111110000000000000000 Y
b11111111111111110000000000000000 7"
b101000001010000000000000000 >
b101000001010000000000000000 p
b101000001010000000000000000 ="
06
b11111111111111110000000000000000 +
b11111111111111110000000000000000 I"
b11111111111111110000000000000000 P"
1!
#380000
0!
#390000
b11111111111111110000000000000000 R
b11111111111111110000000000000000 e
b11111111111111110000000000000000 l
b11111111111111110000000000000000 x
b0 C
b0 -"
b0 2"
b0 /
b0 y
b0 R"
b0 D
b0 +"
b0 1"
b0 2
b0 z
b0 Q"
1B
15
0K
b11111111111111110000000000000000 i
b0 0
b0 ,"
b0 N"
b0 3
b0 *"
b0 M"
0.
01
0)"
b0 G
b0 '"
b0 0"
b11 H
b11 &"
b11 /"
b10001 I
b10001 %"
b10001 ."
b10000000000000000010001 %
b10000000000000000010001 -
b10000000000000000010001 9"
b10000000000000000010001 T"
b0 |
b10001 }
b101000001010000000000000000 +
b101000001010000000000000000 I"
b101000001010000000000000000 P"
0'
16
0L
b101000001010000000000000000 N
b101000001010000000000000000 Y
b101000001010000000000000000 7"
b11111111111111110000000000000000 O
b11111111111111110000000000000000 Z
b11111111111111110000000000000000 6"
b1010 V
b1010 a
b1010 3"
b10001 F
b10001 $"
b10001 :"
b100000 E
b100000 {
b100000 ;"
b100100 $
b100100 &
b100100 S"
b100100 4
b100100 8"
b100100 L"
1!
#400000
0!
#410000
b0 R
b0 e
b0 l
b0 x
b11000000000000000010001 %
b11000000000000000010001 -
b11000000000000000010001 9"
b11000000000000000010001 T"
b10 3
b10 *"
b10 M"
0)"
1B
b11 H
b11 &"
b11 /"
b10001 I
b10001 %"
b10001 ."
1K
b0 S
b0 d
b0 k
b0 w
b0 i
b11111111111111110000000000000000 =
b11111111111111110000000000000000 ""
b11111111111111110000000000000000 A"
b11111111111111110000000000000000 E"
05
b101000 $
b101000 &
b101000 S"
b101000 4
b101000 8"
b101000 L"
b10000000000000000010001 F
b10000000000000000010001 $"
b10000000000000000010001 :"
b100100 E
b100100 {
b100100 ;"
1L
b0 T
b0 _
b0 5"
b0 N
b0 Y
b0 7"
b0 O
b0 Z
b0 6"
b10001 V
b10001 a
b10001 3"
b11111111111111110000000000000000 >
b11111111111111110000000000000000 p
b11111111111111110000000000000000 ="
06
1'
1!
#420000
0!
#430000
b0 =
b0 ""
b0 A"
b0 E"
15
b0 ?
b0 #"
b0 @"
b0 D"
b11 3
b11 *"
b11 M"
0)"
1B
b11 H
b11 &"
b11 /"
b10001 I
b10001 %"
b10001 ."
b10000000010000 %
b10000000010000 -
b10000000010000 9"
b10000000010000 T"
b11111111111111110000000000000000 +
b11111111111111110000000000000000 I"
b11111111111111110000000000000000 P"
0'
b0 >
b0 p
b0 ="
16
b0 @
b0 o
b0 <"
b11000000000000000010001 F
b11000000000000000010001 $"
b11000000000000000010001 :"
b101000 E
b101000 {
b101000 ;"
b101100 $
b101100 &
b101100 S"
b101100 4
b101100 8"
b101100 L"
1!
#440000
0!
#450000
b11000000000000000010011 %
b11000000000000000010011 -
b11000000000000000010011 9"
b11000000000000000010011 T"
b0 3
b0 *"
b0 M"
0)"
1B
b100 G
b100 '"
b100 0"
b11 H
b11 &"
b11 /"
b10000 I
b10000 %"
b10000 ."
b10000 }
b110000 $
b110000 &
b110000 S"
b110000 4
b110000 8"
b110000 L"
b10000000010000 F
b10000000010000 $"
b10000000010000 :"
b101100 E
b101100 {
b101100 ;"
b0 +
b0 I"
b0 P"
1'
b0 ,
b0 H"
b0 O"
1!
#460000
0!
#470000
b101000001010000000000000000 D
b101000001010000000000000000 +"
b101000001010000000000000000 1"
b101000001010000000000000000 2
b101000001010000000000000000 z
b101000001010000000000000000 Q"
11
b100 S
b100 d
b100 k
b100 w
b11 3
b11 *"
b11 M"
0)"
0B
b0 G
b0 '"
b0 0"
b11 H
b11 &"
b11 /"
b10011 I
b10011 %"
b10011 ."
b10000000000000000010011 %
b10000000000000000010011 -
b10000000000000000010011 9"
b10000000000000000010011 T"
b10011 }
b100 T
b100 _
b100 5"
b10000 V
b10000 a
b10000 3"
b11000000000000000010011 F
b11000000000000000010011 $"
b11000000000000000010011 :"
b110000 E
b110000 {
b110000 ;"
b110100 $
b110100 &
b110100 S"
b110100 4
b110100 8"
b110100 L"
1!
#480000
0!
#490000
b11111111111111110000000000000000 D
b11111111111111110000000000000000 +"
b11111111111111110000000000000000 1"
b11111111111111110000000000000000 2
b11111111111111110000000000000000 z
b11111111111111110000000000000000 Q"
b1000000000000000010011 %
b1000000000000000010011 -
b1000000000000000010011 9"
b1000000000000000010011 T"
b10 3
b10 *"
b10 M"
11
0)"
b11 H
b11 &"
b11 /"
b10011 I
b10011 %"
b10011 ."
0K
b0 S
b0 d
b0 k
b0 w
b101000001010000000000000000 P
b101000001010000000000000000 g
b101000001010000000000000000 n
1M
b100 ?
b100 #"
b100 @"
b100 D"
b111000 $
b111000 &
b111000 S"
b111000 4
b111000 8"
b111000 L"
b10000000000000000010011 F
b10000000000000000010011 $"
b10000000000000000010011 :"
b110100 E
b110100 {
b110100 ;"
0L
b0 T
b0 _
b0 5"
b101000001010000000000000000 O
b101000001010000000000000000 Z
b101000001010000000000000000 6"
b10011 V
b10011 a
b10011 3"
b100 @
b100 o
b100 <"
1!
#500000
0!
#510000
b0 D
b0 +"
b0 1"
b101000001010000000000000000 c
b0 2
b0 z
b0 Q"
17
b101000001010000000000000000 9
b101000001010000000000000000 [
b101000001010000000000000000 C"
b101000001010000000000000000 G"
05
b0 ?
b0 #"
b0 @"
b0 D"
b11111111111111110000000000000000 P
b11111111111111110000000000000000 g
b11111111111111110000000000000000 n
b1 3
b1 *"
b1 M"
11
0)"
b11 H
b11 &"
b11 /"
b10011 I
b10011 %"
b10011 ."
b10000000010010 %
b10000000010010 -
b10000000010010 9"
b10000000010010 T"
b100 ,
b100 H"
b100 O"
18
b101000001010000000000000000 :
b101000001010000000000000000 r
b101000001010000000000000000 ?"
06
b0 @
b0 o
b0 <"
b11111111111111110000000000000000 O
b11111111111111110000000000000000 Z
b11111111111111110000000000000000 6"
b1000000000000000010011 F
b1000000000000000010011 $"
b1000000000000000010011 :"
b111000 E
b111000 {
b111000 ;"
b111100 $
b111100 &
b111100 S"
b111100 4
b111100 8"
b111100 L"
1!
#520000
0!
#530000
b11111111111111110000000000000000 c
bx %
bx -
bx 9"
bx T"
b0 3
b0 *"
b0 M"
11
0)"
b100 G
b100 '"
b100 0"
b11 H
b11 &"
b11 /"
b10010 I
b10010 %"
b10010 ."
b0 P
b0 g
b0 n
b11111111111111110000000000000000 9
b11111111111111110000000000000000 [
b11111111111111110000000000000000 C"
b11111111111111110000000000000000 G"
b10010 }
b1000000 $
b1000000 &
b1000000 S"
b1000000 4
b1000000 8"
b1000000 L"
b10000000010010 F
b10000000010010 $"
b10000000010010 :"
b111100 E
b111100 {
b111100 ;"
b0 O
b0 Z
b0 6"
b11111111111111110000000000000000 :
b11111111111111110000000000000000 r
b11111111111111110000000000000000 ?"
1(
b101000001010000000000000000 )
b101000001010000000000000000 W
b101000001010000000000000000 s
b101000001010000000000000000 K"
0'
b0 ,
b0 H"
b0 O"
1!
#540000
0!
#550000
b0 c
b0 9
b0 [
b0 C"
b0 G"
b100 S
b100 d
b100 k
b100 w
b0 P
b0 g
b0 n
bx 0
bx ,"
bx N"
bx 3
bx *"
bx M"
01
1)"
bx G
bx '"
bx 0"
b0 H
b0 &"
b0 /"
b0 I
b0 %"
b0 ."
bx |
bx }
b0xxxxx ~
bx !"
b11111111111111110000000000000000 )
b11111111111111110000000000000000 W
b11111111111111110000000000000000 s
b11111111111111110000000000000000 K"
b0 :
b0 r
b0 ?"
b100 T
b100 _
b100 5"
b10010 V
b10010 a
b10010 3"
b101000001010000000000000000 A
b101000001010000000000000000 ]
b101000001010000000000000000 v
bx F
bx $"
bx :"
b1000000 E
b1000000 {
b1000000 ;"
b1000100 $
b1000100 &
b1000100 S"
b1000100 4
b1000100 8"
b1000100 L"
1!
#560000
0!
#570000
bx S
bx d
bx k
bx w
0M
b100 ?
b100 #"
b100 @"
b100 D"
b1001000 $
b1001000 &
b1001000 S"
b1001000 4
b1001000 8"
b1001000 L"
b1000100 E
b1000100 {
b1000100 ;"
b11111111111111110000000000000000 A
b11111111111111110000000000000000 ]
b11111111111111110000000000000000 v
bx T
bx _
bx 5"
b0 U
b0 `
b0 4"
b0 V
b0 a
b0 3"
b100 @
b100 o
b100 <"
b0 )
b0 W
b0 s
b0 K"
1!
#580000
0!
#590000
07
bx ?
bx #"
bx @"
bx D"
b100 ,
b100 H"
b100 O"
08
bx @
bx o
bx <"
b0 A
b0 ]
b0 v
b1001000 E
b1001000 {
b1001000 ;"
b1001100 $
b1001100 &
b1001100 S"
b1001100 4
b1001100 8"
b1001100 L"
1!
#600000
0!
#610000
b1010000 $
b1010000 &
b1010000 S"
b1010000 4
b1010000 8"
b1010000 L"
b1001100 E
b1001100 {
b1001100 ;"
0(
bx ,
bx H"
bx O"
1!
#620000
0!
#630000
b1010000 E
b1010000 {
b1010000 ;"
b1010100 $
b1010100 &
b1010100 S"
b1010100 4
b1010100 8"
b1010100 L"
1!
#640000
0!
#650000
b1011000 $
b1011000 &
b1011000 S"
b1011000 4
b1011000 8"
b1011000 L"
b1010100 E
b1010100 {
b1010100 ;"
1!
#660000
0!
#670000
b1011000 E
b1011000 {
b1011000 ;"
b1011100 $
b1011100 &
b1011100 S"
b1011100 4
b1011100 8"
b1011100 L"
1!
#680000
0!
#690000
b1100000 $
b1100000 &
b1100000 S"
b1100000 4
b1100000 8"
b1100000 L"
b1011100 E
b1011100 {
b1011100 ;"
1!
#700000
0!
#710000
b1100000 E
b1100000 {
b1100000 ;"
b1100100 $
b1100100 &
b1100100 S"
b1100100 4
b1100100 8"
b1100100 L"
1!
#720000
0!
#730000
b1101000 $
b1101000 &
b1101000 S"
b1101000 4
b1101000 8"
b1101000 L"
b1100100 E
b1100100 {
b1100100 ;"
1!
#740000
0!
#750000
b1101000 E
b1101000 {
b1101000 ;"
b1101100 $
b1101100 &
b1101100 S"
b1101100 4
b1101100 8"
b1101100 L"
1!
#760000
0!
