sopc_tb.vcd
$date
	Thu Sep  8 17:43:42 2016
$end
$version
	Icarus Verilog
$end
$timescale
	1ps
$end
$scope module sopc_tb $end
$var reg 1 ! CLOCK $end
$var reg 1 " rst $end
$scope module sopc0 $end
$var wire 1 ! clk $end
$var wire 1 " rst $end
$var wire 1 # rom_ce $end
$var wire 1 $ ram_we $end
$var wire 4 % ram_sel [3:0] $end
$var wire 32 & ram_data_out [31:0] $end
$var wire 32 ' ram_data_in [31:0] $end
$var wire 1 ( ram_ce $end
$var wire 32 ) ram_addr [31:0] $end
$var wire 32 * inst_addr [31:0] $end
$var wire 32 + inst [31:0] $end
$scope module cpu0 $end
$var wire 1 ! clk $end
$var wire 32 , rom_addr_out [31:0] $end
$var wire 1 " rst $end
$var wire 1 - wb_wreg_in $end
$var wire 1 . wb_whilo_in $end
$var wire 32 / wb_lo_in [31:0] $end
$var wire 32 0 wb_hi_in [31:0] $end
$var wire 32 1 wb_dest_data_in [31:0] $end
$var wire 5 2 wb_dest_addr_in [4:0] $end
$var wire 1 3 stall_req_id $end
$var wire 1 4 stall_req_ex $end
$var wire 6 5 stall [5:0] $end
$var wire 1 6 signed_div $end
$var wire 32 7 rom_data_in [31:0] $end
$var wire 1 # rom_ce_out $end
$var wire 1 8 reg2_read $end
$var wire 32 9 reg2_data [31:0] $end
$var wire 5 : reg2_addr [4:0] $end
$var wire 1 ; reg1_read $end
$var wire 32 < reg1_data [31:0] $end
$var wire 5 = reg1_addr [4:0] $end
$var wire 1 $ ram_we_out $end
$var wire 4 > ram_sel_out [3:0] $end
$var wire 32 ? ram_data_out [31:0] $end
$var wire 32 @ ram_data_in [31:0] $end
$var wire 1 ( ram_ce_out $end
$var wire 32 A ram_addr_out [31:0] $end
$var wire 32 B pc [31:0] $end
$var wire 1 C mem_wreg_out $end
$var wire 1 D mem_wreg_in $end
$var wire 1 E mem_whilo_out $end
$var wire 1 F mem_whilo_in $end
$var wire 32 G mem_src2_data_in [31:0] $end
$var wire 32 H mem_mem_addr_in [31:0] $end
$var wire 32 I mem_lo_out [31:0] $end
$var wire 32 J mem_lo_in [31:0] $end
$var wire 32 K mem_hi_out [31:0] $end
$var wire 32 L mem_hi_in [31:0] $end
$var wire 32 M mem_dest_data_out [31:0] $end
$var wire 32 N mem_dest_data_in [31:0] $end
$var wire 5 O mem_dest_addr_out [4:0] $end
$var wire 5 P mem_dest_addr_in [4:0] $end
$var wire 8 Q mem_aluop_in [7:0] $end
$var wire 32 R lo_data [31:0] $end
$var wire 1 S in_delayslot $end
$var wire 1 T id_wreg_out $end
$var wire 32 U id_src2_data_out [31:0] $end
$var wire 32 V id_src1_data_out [31:0] $end
$var wire 32 W id_pc_in [31:0] $end
$var wire 1 X id_nex_inst_delayslot_out $end
$var wire 32 Y id_link_addr_out [31:0] $end
$var wire 32 Z id_inst_out [31:0] $end
$var wire 32 [ id_inst_in [31:0] $end
$var wire 1 \ id_in_delayslot_out $end
$var wire 5 ] id_dest_addr_out [4:0] $end
$var wire 32 ^ id_branch_tar_addr_out [31:0] $end
$var wire 1 _ id_branch_flag_out $end
$var wire 3 ` id_alusel_out [2:0] $end
$var wire 8 a id_aluop_out [7:0] $end
$var wire 64 b hilo_temp_out [63:0] $end
$var wire 64 c hilo_temp_in [63:0] $end
$var wire 32 d hi_data [31:0] $end
$var wire 1 e ex_wreg_out $end
$var wire 1 f ex_wreg_in $end
$var wire 1 g ex_whilo_out $end
$var wire 32 h ex_src2_data_out [31:0] $end
$var wire 32 i ex_src2_data_in [31:0] $end
$var wire 32 j ex_src1_data_in [31:0] $end
$var wire 32 k ex_mem_addr_out [31:0] $end
$var wire 32 l ex_lo_out [31:0] $end
$var wire 32 m ex_link_addr_in [31:0] $end
$var wire 32 n ex_inst_in [31:0] $end
$var wire 1 o ex_in_delayslot_in $end
$var wire 32 p ex_hi_out [31:0] $end
$var wire 32 q ex_dest_data_out [31:0] $end
$var wire 5 r ex_dest_addr_out [4:0] $end
$var wire 5 s ex_dest_addr_in [4:0] $end
$var wire 3 t ex_alusel_in [2:0] $end
$var wire 8 u ex_aluop_out [7:0] $end
$var wire 8 v ex_aluop_in [7:0] $end
$var wire 1 w div_start $end
$var wire 64 x div_result [63:0] $end
$var wire 1 y div_ready $end
$var wire 32 z div_opdata2 [31:0] $end
$var wire 32 { div_opdata1 [31:0] $end
$var wire 2 | cnt_out [1:0] $end
$var wire 2 } cnt_in [1:0] $end
$scope module ctrl0 $end
$var wire 1 " rst $end
$var wire 1 3 stall_req_id $end
$var wire 1 4 stall_req_ex $end
$var reg 6 ~ stall [5:0] $end
$upscope $end
$scope module div0 $end
$var wire 1 !" annul_in $end
$var wire 1 ! clk $end
$var wire 1 " rst $end
$var wire 1 w start_in $end
$var wire 1 6 signed_div_in $end
$var wire 32 "" opdata2_in [31:0] $end
$var wire 32 #" opdata1_in [31:0] $end
$var wire 33 $" div_temp [32:0] $end
$var reg 6 %" cnt [5:0] $end
$var reg 65 &" dividend [64:0] $end
$var reg 32 '" divisor [31:0] $end
$var reg 1 y ready_out $end
$var reg 64 (" result_out [63:0] $end
$var reg 2 )" state [1:0] $end
$var reg 32 *" temp_op1 [31:0] $end
$var reg 32 +" temp_op2 [31:0] $end
$upscope $end
$scope module ex0 $end
$var wire 8 ," aluop_out [7:0] $end
$var wire 1 y div_ready_in $end
$var wire 64 -" div_result_in [63:0] $end
$var wire 1 ." ov_sum $end
$var wire 1 " rst $end
$var wire 32 /" src1_in_not [31:0] $end
$var wire 32 0" src2_data_out [31:0] $end
$var wire 1 f wreg_in $end
$var wire 1 . wb_whilo_in $end
$var wire 32 1" wb_lo_in [31:0] $end
$var wire 32 2" wb_hi_in [31:0] $end
$var wire 32 3" src2_in_mux [31:0] $end
$var wire 32 4" src2_data_in [31:0] $end
$var wire 1 5" src1_lt_src2 $end
$var wire 32 6" src1_data_in [31:0] $end
$var wire 32 7" result_sum [31:0] $end
$var wire 32 8" opdata2_mult [31:0] $end
$var wire 32 9" opdata1_mult [31:0] $end
$var wire 1 E mem_whilo_in $end
$var wire 32 :" mem_lo_in [31:0] $end
$var wire 32 ;" mem_hi_in [31:0] $end
$var wire 32 <" mem_addr_out [31:0] $end
$var wire 32 =" lo_in [31:0] $end
$var wire 32 >" link_addr_in [31:0] $end
$var wire 32 ?" inst_in [31:0] $end
$var wire 1 o in_delayslot_in $end
$var wire 64 @" hilo_temp_in [63:0] $end
$var wire 64 A" hilo_temp [63:0] $end
$var wire 32 B" hi_in [31:0] $end
$var wire 5 C" dest_addr_in [4:0] $end
$var wire 2 D" cnt_in [1:0] $end
$var wire 3 E" alusel_in [2:0] $end
$var wire 8 F" aluop_in [7:0] $end
$var reg 32 G" HI [31:0] $end
$var reg 32 H" LO [31:0] $end
$var reg 32 I" arithmeticres [31:0] $end
$var reg 2 J" cnt_out [1:0] $end
$var reg 5 K" dest_addr_out [4:0] $end
$var reg 32 L" dest_data_out [31:0] $end
$var reg 32 M" div_opdata1_out [31:0] $end
$var reg 32 N" div_opdata2_out [31:0] $end
$var reg 1 w div_start_out $end
$var reg 32 O" hi_out [31:0] $end
$var reg 64 P" hilo_temp1 [63:0] $end
$var reg 64 Q" hilo_temp_out [63:0] $end
$var reg 32 R" lo_out [31:0] $end
$var reg 32 S" logicres [31:0] $end
$var reg 32 T" moveres [31:0] $end
$var reg 64 U" mulres [63:0] $end
$var reg 32 V" shiftres [31:0] $end
$var reg 1 6 signed_div_out $end
$var reg 1 4 stall_req $end
$var reg 1 W" stall_req_div $end
$var reg 1 X" stall_req_madd_msub $end
$var reg 1 g whilo_out $end
$var reg 1 e wreg_out $end
$upscope $end
$scope module ex_mem0 $end
$var wire 1 ! clk $end
$var wire 2 Y" cnt_in [1:0] $end
$var wire 8 Z" ex_aluop [7:0] $end
$var wire 5 [" ex_dest_addr [4:0] $end
$var wire 32 \" ex_dest_data [31:0] $end
$var wire 32 ]" ex_hi [31:0] $end
$var wire 32 ^" ex_lo [31:0] $end
$var wire 32 _" ex_mem_addr [31:0] $end
$var wire 32 `" ex_src2_data [31:0] $end
$var wire 1 g ex_whilo $end
$var wire 1 e ex_wreg $end
$var wire 64 a" hilo_in [63:0] $end
$var wire 1 " rst $end
$var wire 6 b" stall [5:0] $end
$var reg 2 c" cnt_out [1:0] $end
$var reg 64 d" hilo_out [63:0] $end
$var reg 8 e" mem_aluop [7:0] $end
$var reg 5 f" mem_dest_addr [4:0] $end
$var reg 32 g" mem_dest_data [31:0] $end
$var reg 32 h" mem_hi [31:0] $end
$var reg 32 i" mem_lo [31:0] $end
$var reg 32 j" mem_mem_addr [31:0] $end
$var reg 32 k" mem_src2_data [31:0] $end
$var reg 1 F mem_whilo $end
$var reg 1 D mem_wreg $end
$upscope $end
$scope module hilo_reg0 $end
$var wire 1 ! clk $end
$var wire 1 " rst $end
$var wire 1 . we $end
$var wire 32 l" lo_in [31:0] $end
$var wire 32 m" hi_in [31:0] $end
$var reg 32 n" hi_out [31:0] $end
$var reg 32 o" lo_out [31:0] $end
$upscope $end
$scope module id0 $end
$var wire 8 p" ex_aluop_in [7:0] $end
$var wire 5 q" ex_dest_addr_in [4:0] $end
$var wire 32 r" ex_dest_data_in [31:0] $end
$var wire 1 e ex_wreg_in $end
$var wire 32 s" inst_out [31:0] $end
$var wire 1 " rst $end
$var wire 1 3 stall_req $end
$var wire 32 t" src2_data_in [31:0] $end
$var wire 32 u" src1_data_in [31:0] $end
$var wire 1 v" pre_inst_is_load $end
$var wire 32 w" pc_plus_8 [31:0] $end
$var wire 32 x" pc_plus_4 [31:0] $end
$var wire 32 y" pc_in [31:0] $end
$var wire 5 z" op4 [4:0] $end
$var wire 6 {" op3 [5:0] $end
$var wire 6 |" op2 [5:0] $end
$var wire 6 }" op [5:0] $end
$var wire 1 C mem_wreg_in $end
$var wire 32 ~" mem_dest_data_in [31:0] $end
$var wire 5 !# mem_dest_addr_in [4:0] $end
$var wire 32 "# inst_in [31:0] $end
$var wire 1 S in_delayslot_in $end
$var wire 32 ## imm_sll2 [31:0] $end
$var reg 8 $# aluop_out [7:0] $end
$var reg 3 %# alusel_out [2:0] $end
$var reg 1 _ branch_flag_out $end
$var reg 32 &# branch_tar_addr_out [31:0] $end
$var reg 5 '# dest_addr_out [4:0] $end
$var reg 32 (# imm [31:0] $end
$var reg 1 \ in_delayslot_out $end
$var reg 1 )# inst_valid $end
$var reg 32 *# link_addr_out [31:0] $end
$var reg 1 X next_inst_delayslot_out $end
$var reg 5 +# src1_addr_out [4:0] $end
$var reg 32 ,# src1_data_out [31:0] $end
$var reg 1 ; src1_read_out $end
$var reg 5 -# src2_addr_out [4:0] $end
$var reg 32 .# src2_data_out [31:0] $end
$var reg 1 8 src2_read_out $end
$var reg 1 /# stall_src1_loadrelated $end
$var reg 1 0# stall_src2_loadrelated $end
$var reg 1 T wreg_out $end
$upscope $end
$scope module id_ex0 $end
$var wire 1 ! clk $end
$var wire 8 1# id_aluop [7:0] $end
$var wire 3 2# id_alusel [2:0] $end
$var wire 5 3# id_dest_addr [4:0] $end
$var wire 1 \ id_in_delayslot $end
$var wire 32 4# id_inst [31:0] $end
$var wire 32 5# id_link_addr [31:0] $end
$var wire 32 6# id_src1_data [31:0] $end
$var wire 32 7# id_src2_data [31:0] $end
$var wire 1 T id_wreg $end
$var wire 1 X next_inst_delayslot_in $end
$var wire 1 " rst $end
$var wire 6 8# stall [5:0] $end
$var reg 8 9# ex_aluop [7:0] $end
$var reg 3 :# ex_alusel [2:0] $end
$var reg 5 ;# ex_dest_addr [4:0] $end
$var reg 1 o ex_in_delayslot $end
$var reg 32 <# ex_inst [31:0] $end
$var reg 32 =# ex_link_addr [31:0] $end
$var reg 32 ># ex_src1_data [31:0] $end
$var reg 32 ?# ex_src2_data [31:0] $end
$var reg 1 f ex_wreg $end
$var reg 1 S next_inst_delayslot_out $end
$upscope $end
$scope module if_id0 $end
$var wire 1 ! clk $end
$var wire 1 " rst $end
$var wire 6 @# stall [5:0] $end
$var wire 32 A# if_pc [31:0] $end
$var wire 32 B# if_inst [31:0] $end
$var reg 32 C# id_inst [31:0] $end
$var reg 32 D# id_pc [31:0] $end
$upscope $end
$scope module mem0 $end
$var wire 8 E# aluop_in [7:0] $end
$var wire 5 F# dest_addr_in [4:0] $end
$var wire 32 G# dest_data_in [31:0] $end
$var wire 32 H# hi_in [31:0] $end
$var wire 32 I# lo_in [31:0] $end
$var wire 32 J# mem_addr_in [31:0] $end
$var wire 1 $ mem_we_out $end
$var wire 1 " rst $end
$var wire 32 K# src2_data_in [31:0] $end
$var wire 1 F whilo_in $end
$var wire 1 D wreg_in $end
$var wire 32 L# zero32 [31:0] $end
$var wire 32 M# mem_data_in [31:0] $end
$var reg 5 N# dest_addr_out [4:0] $end
$var reg 32 O# dest_data_out [31:0] $end
$var reg 32 P# hi_out [31:0] $end
$var reg 32 Q# lo_out [31:0] $end
$var reg 32 R# mem_addr_out [31:0] $end
$var reg 1 ( mem_ce_out $end
$var reg 32 S# mem_data_out [31:0] $end
$var reg 4 T# mem_sel_out [3:0] $end
$var reg 1 U# mem_we $end
$var reg 1 E whilo_out $end
$var reg 1 C wreg_out $end
$upscope $end
$scope module men_wb0 $end
$var wire 1 ! clk $end
$var wire 5 V# mem_dest_addr [4:0] $end
$var wire 32 W# mem_dest_data [31:0] $end
$var wire 32 X# mem_hi [31:0] $end
$var wire 32 Y# mem_lo [31:0] $end
$var wire 1 E mem_whilo $end
$var wire 1 C mem_wreg $end
$var wire 1 " rst $end
$var wire 6 Z# stall [5:0] $end
$var reg 5 [# wb_dest_addr [4:0] $end
$var reg 32 \# wb_dest_data [31:0] $end
$var reg 32 ]# wb_hi [31:0] $end
$var reg 32 ^# wb_lo [31:0] $end
$var reg 1 . wb_whilo $end
$var reg 1 - wb_wreg $end
$upscope $end
$scope module pc_reg0 $end
$var wire 1 _ branch_flag_in $end
$var wire 32 _# branch_tar_addr_in [31:0] $end
$var wire 1 ! clk $end
$var wire 1 " rst $end
$var wire 6 `# stall [5:0] $end
$var reg 1 # ce $end
$var reg 32 a# pc [31:0] $end
$upscope $end
$scope module reg_file0 $end
$var wire 1 ! clk $end
$var wire 5 b# raddr1 [4:0] $end
$var wire 5 c# raddr2 [4:0] $end
$var wire 1 ; re1 $end
$var wire 1 8 re2 $end
$var wire 1 " rst $end
$var wire 5 d# waddr [4:0] $end
$var wire 32 e# wdata [31:0] $end
$var wire 1 - we $end
$var reg 32 f# rdata1 [31:0] $end
$var reg 32 g# rdata2 [31:0] $end
$upscope $end
$upscope $end
$scope module data_ram0 $end
$var wire 32 h# addr [31:0] $end
$var wire 1 ( ce $end
$var wire 1 ! clk $end
$var wire 32 i# data_in [31:0] $end
$var wire 4 j# sel [3:0] $end
$var wire 1 $ we $end
$var reg 32 k# data_out [31:0] $end
$upscope $end
$scope module inst_rom0 $end
$var wire 32 l# addr [31:0] $end
$var wire 1 # ce $end
$var reg 32 m# inst [31:0] $end
$upscope $end
$upscope $end
$upscope $end
$enddefinitions $end
#0
$dumpvars
bx m#
bx l#
b0 k#
b0 j#
b0 i#
b0 h#
b0 g#
b0 f#
bx e#
bx d#
b0 c#
b0 b#
bx a#
b0 `#
b0 _#
bx ^#
bx ]#
bx \#
bx [#
b0 Z#
b0 Y#
b0 X#
b0 W#
b0 V#
0U#
b0 T#
b0 S#
b0 R#
b0 Q#
b0 P#
b0 O#
b0 N#
b0 M#
b0 L#
bx K#
bx J#
bx I#
bx H#
bx G#
bx F#
bx E#
bx D#
bx C#
bx B#
bx A#
b0 @#
bx ?#
bx >#
bx =#
bx <#
bx ;#
bx :#
bx 9#
b0 8#
b0 7#
b0 6#
b0 5#
bx 4#
b0 3#
b0 2#
b0 1#
00#
0/#
b0 .#
b0 -#
b0 ,#
b0 +#
b0 *#
0)#
b0 (#
b0 '#
b0 &#
b0 %#
b0 $#
bx00 ##
bx "#
b0 !#
b0 ~"
bx }"
b0xxxxx |"
bx {"
bx z"
bx y"
bx x"
bx w"
xv"
b0 u"
b0 t"
bx s"
b0 r"
bx q"
bx p"
bx o"
bx n"
bx m"
bx l"
bx k"
bx j"
bx i"
bx h"
bx g"
bx f"
bx e"
bx d"
bx c"
b0 b"
b0 a"
bx `"
bx _"
b0 ^"
b0 ]"
b0 \"
bx ["
bx Z"
b0 Y"
0X"
0W"
b0 V"
b0 U"
b0 T"
b0 S"
b0 R"
b0 Q"
bx P"
b0 O"
b0 N"
b0 M"
b0 L"
bx K"
b0 J"
b0 I"
b0 H"
b0 G"
bx F"
bx E"
bx D"
bx C"
bx B"
bx A"
bx @"
bx ?"
bx >"
bx ="
bx <"
b0 ;"
b0 :"
bx 9"
bx 8"
bx 7"
bx 6"
x5"
bx 4"
bx 3"
bx 2"
bx 1"
bx 0"
bx /"
x."
bx -"
bx ,"
bx +"
bx *"
bx )"
bx ("
bx '"
bx &"
bx %"
bx $"
b0 #"
b0 ""
0!"
b0 ~
bx }
b0 |
b0 {
b0 z
xy
bx x
0w
bx v
bx u
bx t
bx s
bx r
b0 q
b0 p
xo
bx n
bx m
b0 l
bx k
bx j
bx i
bx h
0g
xf
xe
bx d
bx c
b0 b
b0 a
b0 `
0_
b0 ^
b0 ]
0\
bx [
bx Z
b0 Y
0X
bx W
b0 V
b0 U
0T
xS
bx R
bx Q
bx P
b0 O
bx N
b0 M
bx L
b0 K
bx J
b0 I
bx H
bx G
xF
0E
xD
0C
bx B
b0 A
b0 @
b0 ?
b0 >
b0 =
b0 <
0;
b0 :
b0 9
08
bx 7
06
b0 5
04
03
bx 2
bx 1
bx 0
bx /
x.
x-
bx ,
bx +
bx *
b0 )
0(
b0 '
b0 &
b0 %
0$
x#
1"
0!
$end
#10000
b0 +
b0 7
b0 B#
b0 m#
0e
b0 r
b0 K"
b0 ["
b0 q"
0v"
0."
b0 ##
b0 z"
b0 {"
b0 |"
b0 }"
b0 k
b0 <"
b0 _"
b0 A"
b0 8"
b0 7"
b0 3"
b0 9"
b11111111111111111111111111111111 /"
05"
0#
b0 Z
b0 s"
b0 4#
b0 [
b0 "#
b0 C#
b1000 w"
b100 x"
b0 W
b0 y"
b0 D#
b0 R
b0 ="
b0 o"
b0 d
b0 B"
b0 n"
b0 n
b0 ?"
b0 <#
0S
0o
b0 m
b0 >"
b0 =#
0f
b0 s
b0 C"
b0 ;#
b0 h
b0 0"
b0 `"
b0 i
b0 4"
b0 ?#
b0 j
b0 6"
b0 >#
b0 t
b0 E"
b0 :#
b0 u
b0 ,"
b0 Z"
b0 p"
b0 v
b0 F"
b0 9#
b0 G
b0 k"
b0 K#
b0 H
b0 j"
b0 J#
b0 Q
b0 e"
b0 E#
b0 }
b0 D"
b0 c"
b0 c
b0 @"
b0 d"
0F
b0 J
b0 i"
b0 I#
b0 L
b0 h"
b0 H#
b0 N
b0 g"
b0 G#
0D
b0 P
b0 f"
b0 F#
0.
b0 /
b0 1"
b0 l"
b0 ^#
b0 0
b0 2"
b0 m"
b0 ]#
b0 1
b0 \#
b0 e#
0-
b0 2
b0 [#
b0 d#
b0 x
b0 ("
b0 -"
0y
b0 )"
1!
#20000
0!
#30000
b0 *
b0 ,
b0 l#
b0 B
b0 A#
b0 a#
1!
#40000
0!
#50000
1!
#60000
0!
#70000
1!
#80000
0!
#90000
1!
#100000
0!
#110000
1!
#120000
0!
#130000
1!
#140000
0!
#150000
1!
#160000
0!
#170000
1!
#180000
0!
#190000
1!
#195000
18
b10 `
b10 %#
b10 2#
1T
0)#
b1111 %
b1111 >
b1111 T#
b1111 j#
0"
#200000
0!
#210000
b110100000000111110111011111111 +
b110100000000111110111011111111 7
b110100000000111110111011111111 B#
b110100000000111110111011111111 m#
1e
1#
1f
b10 t
b10 E"
b10 :#
1!
#220000
0!
#230000
b1110111011111111 U
b1110111011111111 .#
b1110111011111111 7#
b1110111011111111 (#
1;
b100101 a
b100101 $#
b100101 1#
1C
b11 :
b11 -#
b11 c#
08
0)#
1T
b11 ]
b11 '#
b11 3#
b1 `
b1 %#
b1 2#
b10100000000000110000000000000011 +
b10100000000000110000000000000011 7
b10100000000000110000000000000011 B#
b10100000000000110000000000000011 m#
b11111111111111111011101111111100 ##
b11 z"
b111111 {"
b11011 |"
b1101 }"
1D
b110100000000111110111011111111 Z
b110100000000111110111011111111 s"
b110100000000111110111011111111 4#
b110100000000111110111011111111 [
b110100000000111110111011111111 "#
b110100000000111110111011111111 C#
b100 *
b100 ,
b100 l#
b100 B
b100 A#
b100 a#
1!
#240000
0!
#250000
bx 9
bx t"
bx g#
b1110111011111111 U
b1110111011111111 .#
b1110111011111111 7#
b1110111011111111 q
b1110111011111111 L"
b1110111011111111 \"
b1110111011111111 r"
18
b110001101000000010 +
b110001101000000010 7
b110001101000000010 B#
b110001101000000010 m#
b0 (#
1;
0)#
0T
b0 ]
b0 '#
b0 3#
b111 `
b111 %#
b111 2#
b10101000 a
b10101000 $#
b10101000 1#
b11 r
b11 K"
b11 ["
b11 q"
b1110111011111111 S"
b1100 ##
b11 {"
b0 |"
b101000 }"
b11111111111111111110111011111111 k
b11111111111111111110111011111111 <"
b11111111111111111110111011111111 _"
b1110111011111111 8"
15"
b1110111011111111 7"
b1110111011111111 3"
b1000 *
b1000 ,
b1000 l#
b1000 B
b1000 A#
b1000 a#
b10100000000000110000000000000011 Z
b10100000000000110000000000000011 s"
b10100000000000110000000000000011 4#
b10100000000000110000000000000011 [
b10100000000000110000000000000011 "#
b10100000000000110000000000000011 C#
b1100 w"
b1000 x"
b100 W
b100 y"
b100 D#
b110100000000111110111011111111 n
b110100000000111110111011111111 ?"
b110100000000111110111011111111 <#
b11 s
b11 C"
b11 ;#
b1110111011111111 h
b1110111011111111 0"
b1110111011111111 `"
b1110111011111111 i
b1110111011111111 4"
b1110111011111111 ?#
b1 t
b1 E"
b1 :#
b100101 u
b100101 ,"
b100101 Z"
b100101 p"
b100101 v
b100101 F"
b100101 9#
1-
1!
#260000
0!
#270000
b1000 V
b1000 ,#
b1000 6#
b1110111011111111 M
b1110111011111111 ~"
b1110111011111111 O#
b1110111011111111 W#
b11 O
b11 !#
b11 N#
b11 V#
b0 q
b0 L"
b0 \"
b0 r"
0e
b0 r
b0 K"
b0 ["
b0 q"
b0 S"
b1000 (#
1T
18
0;
0)#
b11 ]
b11 '#
b11 3#
b10 `
b10 %#
b10 2#
b10 a
b10 $#
b10 1#
b10100000000000110000000000000010 +
b10100000000000110000000000000010 7
b10100000000000110000000000000010 B#
b10100000000000110000000000000010 m#
b11 k
b11 <"
b11 _"
b110100000001000 ##
b10 {"
b1000 |"
b0 }"
b1110111011111111 G
b1110111011111111 k"
b1110111011111111 K#
b11111111111111111110111011111111 H
b11111111111111111110111011111111 j"
b11111111111111111110111011111111 J#
b100101 Q
b100101 e"
b100101 E#
b1110111011111111 N
b1110111011111111 g"
b1110111011111111 G#
b11 P
b11 f"
b11 F#
b10100000000000110000000000000011 n
b10100000000000110000000000000011 ?"
b10100000000000110000000000000011 <#
0f
b0 s
b0 C"
b0 ;#
b111 t
b111 E"
b111 :#
b10101000 u
b10101000 ,"
b10101000 Z"
b10101000 p"
b10101000 v
b10101000 F"
b10101000 9#
b110001101000000010 Z
b110001101000000010 s"
b110001101000000010 4#
b110001101000000010 [
b110001101000000010 "#
b110001101000000010 C#
b10000 w"
b1100 x"
b1000 W
b1000 y"
b1000 D#
b1100 *
b1100 ,
b1100 l#
b1100 B
b1100 A#
b1100 a#
1!
#280000
0!
#290000
b11101110 q
b11101110 L"
b11101110 \"
b11101110 r"
b0 V
b0 ,#
b0 6#
b11101110 U
b11101110 .#
b11101110 7#
1;
b1110111011111111000 U"
b110100000000111100110011011101 +
b110100000000111100110011011101 7
b110100000000111100110011011101 B#
b110100000000111100110011011101 m#
b0 (#
18
0)#
0T
b0 ]
b0 '#
b0 3#
b111 `
b111 %#
b111 2#
b10101000 a
b10101000 $#
b10101000 1#
1e
b11 r
b11 K"
b11 ["
b11 q"
b11101110 V"
b1 %
b1 >
b1 T#
b1 j#
1(
b11111111111111111111111111111111 '
b11111111111111111111111111111111 ?
b11111111111111111111111111111111 S#
b11111111111111111111111111111111 i#
1$
1U#
b11 )
b11 A
b11 R#
b11 h#
b0 M
b0 ~"
b0 O#
b0 W#
0C
b0 O
b0 !#
b0 N#
b0 V#
b1110111011111111 9
b1110111011111111 t"
b1110111011111111 g#
b1000 ##
b0 |"
b101000 }"
b1110111011111111000 A"
b1000 9"
b11111111111111111111111111110111 /"
b10000 *
b10000 ,
b10000 l#
b10000 B
b10000 A#
b10000 a#
b10100000000000110000000000000010 Z
b10100000000000110000000000000010 s"
b10100000000000110000000000000010 4#
b10100000000000110000000000000010 [
b10100000000000110000000000000010 "#
b10100000000000110000000000000010 C#
b10100 w"
b10000 x"
b1100 W
b1100 y"
b1100 D#
b110001101000000010 n
b110001101000000010 ?"
b110001101000000010 <#
1f
b11 s
b11 C"
b11 ;#
b1110111100000111 7"
b1101000001010 k
b1101000001010 <"
b1101000001010 _"
b1000 j
b1000 6"
b1000 >#
b10 t
b10 E"
b10 :#
b10 u
b10 ,"
b10 Z"
b10 p"
b10 v
b10 F"
b10 9#
b11 H
b11 j"
b11 J#
b10101000 Q
b10101000 e"
b10101000 E#
b0 N
b0 g"
b0 G#
0D
b0 P
b0 f"
b0 F#
b1110111011111111 1
b1110111011111111 \#
b1110111011111111 e#
b11 2
b11 [#
b11 d#
1!
#300000
0!
#310000
b1100110011011101 U
b1100110011011101 .#
b1100110011011101 7#
b0 9
b0 t"
b0 g#
b0 U"
b1100110011011101 (#
1T
0(
b1111 %
b1111 >
b1111 T#
b1111 j#
0$
0U#
b0 )
b0 A
b0 R#
b0 h#
b11101110 M
b11101110 ~"
b11101110 O#
b11101110 W#
1C
b11 O
b11 !#
b11 N#
b11 V#
b0 q
b0 L"
b0 \"
b0 r"
0e
b0 r
b0 K"
b0 ["
b0 q"
b0 V"
08
1;
0)#
b11 ]
b11 '#
b11 3#
b1 `
b1 %#
b1 2#
b100101 a
b100101 $#
b100101 1#
b10100000000000110000000000000001 +
b10100000000000110000000000000001 7
b10100000000000110000000000000001 B#
b10100000000000110000000000000001 m#
b11101110 8"
b11101110 3"
b0 A"
b0 9"
b11111111111111111111111111111111 /"
b11111111111111110011001101110100 ##
b11101 {"
b10011 |"
b1101 }"
b0 1
b0 \#
b0 e#
0-
b0 2
b0 [#
b0 d#
b1101000001010 H
b1101000001010 j"
b1101000001010 J#
b10 Q
b10 e"
b10 E#
b11101110 N
b11101110 g"
b11101110 G#
1D
b11 P
b11 f"
b11 F#
b10100000000000110000000000000010 n
b10100000000000110000000000000010 ?"
b10100000000000110000000000000010 <#
0f
b0 s
b0 C"
b0 ;#
b11101110 h
b11101110 0"
b11101110 `"
b11101110 i
b11101110 4"
b11101110 ?#
b11101110 7"
b10 k
b10 <"
b10 _"
b0 j
b0 6"
b0 >#
b111 t
b111 E"
b111 :#
b10101000 u
b10101000 ,"
b10101000 Z"
b10101000 p"
b10101000 v
b10101000 F"
b10101000 9#
b110100000000111100110011011101 Z
b110100000000111100110011011101 s"
b110100000000111100110011011101 4#
b110100000000111100110011011101 [
b110100000000111100110011011101 "#
b110100000000111100110011011101 C#
b11000 w"
b10100 x"
b10000 W
b10000 y"
b10000 D#
b10100 *
b10100 ,
b10100 l#
b10100 B
b10100 A#
b10100 a#
1!
#320000
0!
#330000
b11101110 9
b11101110 t"
b11101110 g#
b1100110011011101 q
b1100110011011101 L"
b1100110011011101 \"
b1100110011011101 r"
b1100110011011101 U
b1100110011011101 .#
b1100110011011101 7#
18
b110001101000000010 +
b110001101000000010 7
b110001101000000010 B#
b110001101000000010 m#
b0 (#
1;
0)#
0T
b0 ]
b0 '#
b0 3#
b111 `
b111 %#
b111 2#
b10101000 a
b10101000 $#
b10101000 1#
1e
b11 r
b11 K"
b11 ["
b11 q"
b1100110011011101 S"
b10 %
b10 >
b10 T#
b10 j#
1(
b11101110111011101110111011101110 '
b11101110111011101110111011101110 ?
b11101110111011101110111011101110 S#
b11101110111011101110111011101110 i#
1$
1U#
b10 )
b10 A
b10 R#
b10 h#
b0 M
b0 ~"
b0 O#
b0 W#
0C
b0 O
b0 !#
b0 N#
b0 V#
b100 ##
b1 {"
b0 |"
b101000 }"
b11111111111111111100110011011101 k
b11111111111111111100110011011101 <"
b11111111111111111100110011011101 _"
b1100110011011101 8"
b1100110011011101 7"
b1100110011011101 3"
b11000 *
b11000 ,
b11000 l#
b11000 B
b11000 A#
b11000 a#
b10100000000000110000000000000001 Z
b10100000000000110000000000000001 s"
b10100000000000110000000000000001 4#
b10100000000000110000000000000001 [
b10100000000000110000000000000001 "#
b10100000000000110000000000000001 C#
b11100 w"
b11000 x"
b10100 W
b10100 y"
b10100 D#
b110100000000111100110011011101 n
b110100000000111100110011011101 ?"
b110100000000111100110011011101 <#
1f
b11 s
b11 C"
b11 ;#
b1100110011011101 h
b1100110011011101 0"
b1100110011011101 `"
b1100110011011101 i
b1100110011011101 4"
b1100110011011101 ?#
b1 t
b1 E"
b1 :#
b100101 u
b100101 ,"
b100101 Z"
b100101 p"
b100101 v
b100101 F"
b100101 9#
b11101110 G
b11101110 k"
b11101110 K#
b10 H
b10 j"
b10 J#
b10101000 Q
b10101000 e"
b10101000 E#
b0 N
b0 g"
b0 G#
0D
b0 P
b0 f"
b0 F#
b11101110 1
b11101110 \#
b11101110 e#
1-
b11 2
b11 [#
b11 d#
1!
#340000
0!
