sopc_tb.vcd
$date
	Wed Sep  7 15:12:33 2016
$end
$version
	Icarus Verilog
$end
$timescale
	1ps
$end
$scope module sopc_tb $end
$var reg 1 ! CLOCK $end
$var reg 1 " rst $end
$scope module sopc0 $end
$var wire 1 ! clk $end
$var wire 1 " rst $end
$var wire 1 # rom_ce $end
$var wire 32 $ inst_addr [31:0] $end
$var wire 32 % inst [31:0] $end
$scope module cpu0 $end
$var wire 1 ! clk $end
$var wire 32 & rom_addr_out [31:0] $end
$var wire 1 " rst $end
$var wire 1 ' wb_wreg_in $end
$var wire 1 ( wb_whilo_in $end
$var wire 32 ) wb_lo_in [31:0] $end
$var wire 32 * wb_hi_in [31:0] $end
$var wire 32 + wb_dest_data_in [31:0] $end
$var wire 5 , wb_dest_addr_in [4:0] $end
$var wire 1 - stall_req_id $end
$var wire 1 . stall_req_ex $end
$var wire 6 / stall [5:0] $end
$var wire 1 0 signed_div $end
$var wire 32 1 rom_data_in [31:0] $end
$var wire 1 # rom_ce_out $end
$var wire 1 2 reg2_read $end
$var wire 32 3 reg2_data [31:0] $end
$var wire 5 4 reg2_addr [4:0] $end
$var wire 1 5 reg1_read $end
$var wire 32 6 reg1_data [31:0] $end
$var wire 5 7 reg1_addr [4:0] $end
$var wire 32 8 pc [31:0] $end
$var wire 1 9 mem_wreg_out $end
$var wire 1 : mem_wreg_in $end
$var wire 1 ; mem_whilo_out $end
$var wire 1 < mem_whilo_in $end
$var wire 32 = mem_lo_out [31:0] $end
$var wire 32 > mem_lo_in [31:0] $end
$var wire 32 ? mem_hi_out [31:0] $end
$var wire 32 @ mem_hi_in [31:0] $end
$var wire 32 A mem_dest_data_out [31:0] $end
$var wire 32 B mem_dest_data_in [31:0] $end
$var wire 5 C mem_dest_addr_out [4:0] $end
$var wire 5 D mem_dest_addr_in [4:0] $end
$var wire 32 E lo_data [31:0] $end
$var wire 1 F id_wreg_out $end
$var wire 32 G id_src2_data_out [31:0] $end
$var wire 32 H id_src1_data_out [31:0] $end
$var wire 32 I id_pc_in [31:0] $end
$var wire 32 J id_inst_in [31:0] $end
$var wire 5 K id_dest_addr_out [4:0] $end
$var wire 3 L id_alusel_out [2:0] $end
$var wire 8 M id_aluop_out [7:0] $end
$var wire 64 N hilo_temp_out [63:0] $end
$var wire 64 O hilo_temp_in [63:0] $end
$var wire 32 P hi_data [31:0] $end
$var wire 1 Q ex_wreg_out $end
$var wire 1 R ex_wreg_in $end
$var wire 1 S ex_whilo_out $end
$var wire 32 T ex_src2_data_in [31:0] $end
$var wire 32 U ex_src1_data_in [31:0] $end
$var wire 32 V ex_lo_out [31:0] $end
$var wire 32 W ex_hi_out [31:0] $end
$var wire 32 X ex_dest_data_out [31:0] $end
$var wire 5 Y ex_dest_addr_out [4:0] $end
$var wire 5 Z ex_dest_addr_in [4:0] $end
$var wire 3 [ ex_alusel_in [2:0] $end
$var wire 8 \ ex_aluop_in [7:0] $end
$var wire 1 ] div_start $end
$var wire 64 ^ div_result [63:0] $end
$var wire 1 _ div_ready $end
$var wire 32 ` div_opdata2 [31:0] $end
$var wire 32 a div_opdata1 [31:0] $end
$var wire 2 b cnt_out [1:0] $end
$var wire 2 c cnt_in [1:0] $end
$scope module ctrl0 $end
$var wire 1 " rst $end
$var wire 1 - stall_req_id $end
$var wire 1 . stall_req_ex $end
$var reg 6 d stall [5:0] $end
$upscope $end
$scope module div0 $end
$var wire 1 e annul_in $end
$var wire 1 ! clk $end
$var wire 1 " rst $end
$var wire 1 ] start_in $end
$var wire 1 0 signed_div_in $end
$var wire 32 f opdata2_in [31:0] $end
$var wire 32 g opdata1_in [31:0] $end
$var wire 33 h div_temp [32:0] $end
$var reg 6 i cnt [5:0] $end
$var reg 65 j dividend [64:0] $end
$var reg 32 k divisor [31:0] $end
$var reg 1 _ ready_out $end
$var reg 64 l result_out [63:0] $end
$var reg 2 m state [1:0] $end
$var reg 32 n temp_op1 [31:0] $end
$var reg 32 o temp_op2 [31:0] $end
$upscope $end
$scope module ex0 $end
$var wire 1 _ div_ready_in $end
$var wire 64 p div_result_in [63:0] $end
$var wire 1 q ov_sum $end
$var wire 1 " rst $end
$var wire 32 r src1_in_not [31:0] $end
$var wire 1 R wreg_in $end
$var wire 1 ( wb_whilo_in $end
$var wire 32 s wb_lo_in [31:0] $end
$var wire 32 t wb_hi_in [31:0] $end
$var wire 32 u src2_in_mux [31:0] $end
$var wire 32 v src2_data_in [31:0] $end
$var wire 1 w src1_lt_src2 $end
$var wire 32 x src1_data_in [31:0] $end
$var wire 32 y result_sum [31:0] $end
$var wire 32 z opdata2_mult [31:0] $end
$var wire 32 { opdata1_mult [31:0] $end
$var wire 1 ; mem_whilo_in $end
$var wire 32 | mem_lo_in [31:0] $end
$var wire 32 } mem_hi_in [31:0] $end
$var wire 32 ~ lo_in [31:0] $end
$var wire 64 !" hilo_temp_in [63:0] $end
$var wire 64 "" hilo_temp [63:0] $end
$var wire 32 #" hi_in [31:0] $end
$var wire 5 $" dest_addr_in [4:0] $end
$var wire 2 %" cnt_in [1:0] $end
$var wire 3 &" alusel_in [2:0] $end
$var wire 8 '" aluop_in [7:0] $end
$var reg 32 (" HI [31:0] $end
$var reg 32 )" LO [31:0] $end
$var reg 32 *" arithmeticres [31:0] $end
$var reg 2 +" cnt_out [1:0] $end
$var reg 5 ," dest_addr_out [4:0] $end
$var reg 32 -" dest_data_out [31:0] $end
$var reg 32 ." div_opdata1_out [31:0] $end
$var reg 32 /" div_opdata2_out [31:0] $end
$var reg 1 ] div_start_out $end
$var reg 32 0" hi_out [31:0] $end
$var reg 64 1" hilo_temp1 [63:0] $end
$var reg 64 2" hilo_temp_out [63:0] $end
$var reg 32 3" lo_out [31:0] $end
$var reg 32 4" logicres [31:0] $end
$var reg 32 5" moveres [31:0] $end
$var reg 64 6" mulres [63:0] $end
$var reg 32 7" shiftres [31:0] $end
$var reg 1 0 signed_div_out $end
$var reg 1 . stall_req $end
$var reg 1 8" stall_req_div $end
$var reg 1 9" stall_req_madd_msub $end
$var reg 1 S whilo_out $end
$var reg 1 Q wreg_out $end
$upscope $end
$scope module ex_mem0 $end
$var wire 1 ! clk $end
$var wire 2 :" cnt_in [1:0] $end
$var wire 5 ;" ex_dest_addr [4:0] $end
$var wire 32 <" ex_dest_data [31:0] $end
$var wire 32 =" ex_hi [31:0] $end
$var wire 32 >" ex_lo [31:0] $end
$var wire 1 S ex_whilo $end
$var wire 1 Q ex_wreg $end
$var wire 64 ?" hilo_in [63:0] $end
$var wire 1 " rst $end
$var wire 6 @" stall [5:0] $end
$var reg 2 A" cnt_out [1:0] $end
$var reg 64 B" hilo_out [63:0] $end
$var reg 5 C" mem_dest_addr [4:0] $end
$var reg 32 D" mem_dest_data [31:0] $end
$var reg 32 E" mem_hi [31:0] $end
$var reg 32 F" mem_lo [31:0] $end
$var reg 1 < mem_whilo $end
$var reg 1 : mem_wreg $end
$upscope $end
$scope module hilo_reg0 $end
$var wire 1 ! clk $end
$var wire 1 " rst $end
$var wire 1 ( we $end
$var wire 32 G" lo_in [31:0] $end
$var wire 32 H" hi_in [31:0] $end
$var reg 32 I" hi_out [31:0] $end
$var reg 32 J" lo_out [31:0] $end
$upscope $end
$scope module id0 $end
$var wire 5 K" ex_dest_addr_in [4:0] $end
$var wire 32 L" ex_dest_data_in [31:0] $end
$var wire 1 Q ex_wreg_in $end
$var wire 1 " rst $end
$var wire 32 M" src2_data_in [31:0] $end
$var wire 32 N" src1_data_in [31:0] $end
$var wire 32 O" pc_in [31:0] $end
$var wire 5 P" op4 [4:0] $end
$var wire 6 Q" op3 [5:0] $end
$var wire 6 R" op2 [5:0] $end
$var wire 6 S" op [5:0] $end
$var wire 1 9 mem_wreg_in $end
$var wire 32 T" mem_dest_data_in [31:0] $end
$var wire 5 U" mem_dest_addr_in [4:0] $end
$var wire 32 V" inst_in [31:0] $end
$var reg 8 W" aluop_out [7:0] $end
$var reg 3 X" alusel_out [2:0] $end
$var reg 5 Y" dest_addr_out [4:0] $end
$var reg 32 Z" imm [31:0] $end
$var reg 1 [" inst_valid $end
$var reg 5 \" src1_addr_out [4:0] $end
$var reg 32 ]" src1_data_out [31:0] $end
$var reg 1 5 src1_read_out $end
$var reg 5 ^" src2_addr_out [4:0] $end
$var reg 32 _" src2_data_out [31:0] $end
$var reg 1 2 src2_read_out $end
$var reg 1 - stall_req $end
$var reg 1 F wreg_out $end
$upscope $end
$scope module id_ex0 $end
$var wire 1 ! clk $end
$var wire 8 `" id_aluop [7:0] $end
$var wire 3 a" id_alusel [2:0] $end
$var wire 5 b" id_dest_addr [4:0] $end
$var wire 32 c" id_src1_data [31:0] $end
$var wire 32 d" id_src2_data [31:0] $end
$var wire 1 F id_wreg $end
$var wire 1 " rst $end
$var wire 6 e" stall [5:0] $end
$var reg 8 f" ex_aluop [7:0] $end
$var reg 3 g" ex_alusel [2:0] $end
$var reg 5 h" ex_dest_addr [4:0] $end
$var reg 32 i" ex_src1_data [31:0] $end
$var reg 32 j" ex_src2_data [31:0] $end
$var reg 1 R ex_wreg $end
$upscope $end
$scope module if_id0 $end
$var wire 1 ! clk $end
$var wire 1 " rst $end
$var wire 6 k" stall [5:0] $end
$var wire 32 l" if_pc [31:0] $end
$var wire 32 m" if_inst [31:0] $end
$var reg 32 n" id_inst [31:0] $end
$var reg 32 o" id_pc [31:0] $end
$upscope $end
$scope module mem0 $end
$var wire 5 p" dest_addr_in [4:0] $end
$var wire 32 q" dest_data_in [31:0] $end
$var wire 32 r" hi_in [31:0] $end
$var wire 32 s" lo_in [31:0] $end
$var wire 1 " rst $end
$var wire 1 < whilo_in $end
$var wire 1 : wreg_in $end
$var reg 5 t" dest_addr_out [4:0] $end
$var reg 32 u" dest_data_out [31:0] $end
$var reg 32 v" hi_out [31:0] $end
$var reg 32 w" lo_out [31:0] $end
$var reg 1 ; whilo_out $end
$var reg 1 9 wreg_out $end
$upscope $end
$scope module men_wb0 $end
$var wire 1 ! clk $end
$var wire 5 x" mem_dest_addr [4:0] $end
$var wire 32 y" mem_dest_data [31:0] $end
$var wire 32 z" mem_hi [31:0] $end
$var wire 32 {" mem_lo [31:0] $end
$var wire 1 ; mem_whilo $end
$var wire 1 9 mem_wreg $end
$var wire 1 " rst $end
$var wire 6 |" stall [5:0] $end
$var reg 5 }" wb_dest_addr [4:0] $end
$var reg 32 ~" wb_dest_data [31:0] $end
$var reg 32 !# wb_hi [31:0] $end
$var reg 32 "# wb_lo [31:0] $end
$var reg 1 ( wb_whilo $end
$var reg 1 ' wb_wreg $end
$upscope $end
$scope module pc_reg0 $end
$var wire 1 ! clk $end
$var wire 1 " rst $end
$var wire 6 ## stall [5:0] $end
$var reg 1 # ce $end
$var reg 32 $# pc [31:0] $end
$upscope $end
$scope module reg_file0 $end
$var wire 1 ! clk $end
$var wire 5 %# raddr1 [4:0] $end
$var wire 5 &# raddr2 [4:0] $end
$var wire 1 5 re1 $end
$var wire 1 2 re2 $end
$var wire 1 " rst $end
$var wire 5 '# waddr [4:0] $end
$var wire 32 (# wdata [31:0] $end
$var wire 1 ' we $end
$var reg 32 )# rdata1 [31:0] $end
$var reg 32 *# rdata2 [31:0] $end
$upscope $end
$upscope $end
$scope module inst_rom0 $end
$var wire 32 +# addr [31:0] $end
$var wire 1 # ce $end
$var reg 32 ,# inst [31:0] $end
$upscope $end
$upscope $end
$upscope $end
$enddefinitions $end
#0
$dumpvars
bx ,#
bx +#
b0 *#
b0 )#
bx (#
bx '#
b0 &#
b0 %#
bx $#
b0 ##
bx "#
bx !#
bx ~"
bx }"
b0 |"
b0 {"
b0 z"
b0 y"
b0 x"
b0 w"
b0 v"
b0 u"
b0 t"
bx s"
bx r"
bx q"
bx p"
bx o"
bx n"
bx m"
bx l"
b0 k"
bx j"
bx i"
bx h"
bx g"
bx f"
b0 e"
b0 d"
b0 c"
b0 b"
b0 a"
b0 `"
b0 _"
b0 ^"
b0 ]"
b0 \"
0["
b0 Z"
b0 Y"
b0 X"
b0 W"
bx V"
b0 U"
b0 T"
bx S"
b0xxxxx R"
bx Q"
bx P"
bx O"
b0 N"
b0 M"
b0 L"
bx K"
bx J"
bx I"
bx H"
bx G"
bx F"
bx E"
bx D"
bx C"
bx B"
bx A"
b0 @"
b0 ?"
b0 >"
b0 ="
b0 <"
bx ;"
b0 :"
09"
08"
b0 7"
b0 6"
b0 5"
b0 4"
b0 3"
b0 2"
bx 1"
b0 0"
b0 /"
b0 ."
b0 -"
bx ,"
b0 +"
b0 *"
b0 )"
b0 ("
bx '"
bx &"
bx %"
bx $"
bx #"
bx ""
bx !"
bx ~
b0 }
b0 |
bx {
bx z
bx y
bx x
xw
bx v
bx u
bx t
bx s
bx r
xq
bx p
bx o
bx n
bx m
bx l
bx k
bx j
bx i
bx h
b0 g
b0 f
0e
b0 d
bx c
b0 b
b0 a
b0 `
x_
bx ^
0]
bx \
bx [
bx Z
bx Y
b0 X
b0 W
b0 V
bx U
bx T
0S
xR
xQ
bx P
bx O
b0 N
b0 M
b0 L
b0 K
bx J
bx I
b0 H
b0 G
0F
bx E
bx D
b0 C
bx B
b0 A
bx @
b0 ?
bx >
b0 =
x<
0;
x:
09
bx 8
b0 7
b0 6
05
b0 4
b0 3
02
bx 1
00
b0 /
0.
0-
bx ,
bx +
bx *
bx )
x(
x'
bx &
bx %
bx $
x#
1"
0!
$end
#10000
b0 %
b0 1
b0 m"
b0 ,#
0Q
b0 Y
b0 ,"
b0 ;"
b0 K"
0q
b0 P"
b0 Q"
b0 R"
b0 S"
b0 ""
b0 z
b0 y
b0 u
b0 {
b11111111111111111111111111111111 r
0w
0#
b0 J
b0 V"
b0 n"
b0 I
b0 O"
b0 o"
b0 E
b0 ~
b0 J"
b0 P
b0 #"
b0 I"
0R
b0 Z
b0 $"
b0 h"
b0 T
b0 v
b0 j"
b0 U
b0 x
b0 i"
b0 [
b0 &"
b0 g"
b0 \
b0 '"
b0 f"
b0 c
b0 %"
b0 A"
b0 O
b0 !"
b0 B"
0<
b0 >
b0 F"
b0 s"
b0 @
b0 E"
b0 r"
b0 B
b0 D"
b0 q"
0:
b0 D
b0 C"
b0 p"
0(
b0 )
b0 s
b0 G"
b0 "#
b0 *
b0 t
b0 H"
b0 !#
b0 +
b0 ~"
b0 (#
0'
b0 ,
b0 }"
b0 '#
b0 ^
b0 l
b0 p
0_
b0 m
1!
#20000
0!
#30000
b0 $
b0 &
b0 +#
b0 8
b0 l"
b0 $#
1!
#40000
0!
#50000
1!
#60000
0!
#70000
1!
#80000
0!
#90000
1!
#100000
0!
#110000
1!
#120000
0!
#130000
1!
#140000
0!
#150000
1!
#160000
0!
#170000
1!
#180000
0!
#190000
1!
#195000
12
b10 L
b10 X"
b10 a"
1F
0["
0"
#200000
0!
#210000
b110100000000101111111111111111 %
b110100000000101111111111111111 1
b110100000000101111111111111111 m"
b110100000000101111111111111111 ,#
1Q
1#
1R
b10 [
b10 &"
b10 g"
1!
#220000
0!
#230000
b1111111111111111 G
b1111111111111111 _"
b1111111111111111 d"
b1111111111111111 Z"
15
b100101 M
b100101 W"
b100101 `"
19
b10 4
b10 ^"
b10 &#
02
0["
1F
b10 K
b10 Y"
b10 b"
b1 L
b1 X"
b1 a"
b100001010000000000 %
b100001010000000000 1
b100001010000000000 m"
b100001010000000000 ,#
b10 P"
b111111 Q"
b11111 R"
b1101 S"
1:
b110100000000101111111111111111 J
b110100000000101111111111111111 V"
b110100000000101111111111111111 n"
b100 $
b100 &
b100 +#
b100 8
b100 l"
b100 $#
1!
#240000
0!
#250000
bx 3
bx M"
bx *#
b1111111111111111 G
b1111111111111111 _"
b1111111111111111 d"
b10000 H
b10000 ]"
b10000 c"
b1111111111111111 X
b1111111111111111 -"
b1111111111111111 <"
b1111111111111111 L"
12
b110100010000101111111111110001 %
b110100010000101111111111110001 1
b110100010000101111111111110001 m"
b110100010000101111111111110001 ,#
b10000 Z"
05
0["
1F
b10 L
b10 X"
b10 a"
b0 M
b0 W"
b0 `"
b10 Y
b10 ,"
b10 ;"
b10 K"
b1111111111111111 4"
b0 Q"
b10000 R"
b0 S"
b1111111111111111 z
1w
b1111111111111111 y
b1111111111111111 u
b1000 $
b1000 &
b1000 +#
b1000 8
b1000 l"
b1000 $#
b100001010000000000 J
b100001010000000000 V"
b100001010000000000 n"
b100 I
b100 O"
b100 o"
b10 Z
b10 $"
b10 h"
b1111111111111111 T
b1111111111111111 v
b1111111111111111 j"
b1 [
b1 &"
b1 g"
b100101 \
b100101 '"
b100101 f"
1'
1!
#260000
0!
#270000
b11111111111111110000000000000000 H
b11111111111111110000000000000000 ]"
b11111111111111110000000000000000 c"
bx 6
bx N"
bx )#
b1111111111110001 G
b1111111111110001 _"
b1111111111110001 d"
b0 3
b0 M"
b0 *#
b11111111111111110000 6"
15
b100101 M
b100101 W"
b100101 `"
b1111111111111111 A
b1111111111111111 T"
b1111111111111111 u"
b1111111111111111 y"
b10 C
b10 U"
b10 t"
b10 x"
b11111111111111110000000000000000 X
b11111111111111110000000000000000 -"
b11111111111111110000000000000000 <"
b11111111111111110000000000000000 L"
b11111111111111110000000000000000 7"
b0 4"
b1111111111110001 Z"
b10 7
b10 \"
b10 %#
02
0["
1F
b10 K
b10 Y"
b10 b"
b1 L
b1 X"
b1 a"
b110100000000110000000000010001 %
b110100000000110000000000010001 1
b110100000000110000000000010001 m"
b110100000000110000000000010001 ,#
b11111111111111110000 ""
b10000 {
b11111111111111111111111111101111 r
b110001 Q"
b11111 R"
b1101 S"
b1111111111111111 B
b1111111111111111 D"
b1111111111111111 q"
b10 D
b10 C"
b10 p"
b10000000000001111 y
b10000 U
b10000 x
b10000 i"
b10 [
b10 &"
b10 g"
b0 \
b0 '"
b0 f"
b110100010000101111111111110001 J
b110100010000101111111111110001 V"
b110100010000101111111111110001 n"
b1000 I
b1000 O"
b1000 o"
b1100 $
b1100 &
b1100 +#
b1100 8
b1100 l"
b1100 $#
1!
#280000
0!
#290000
b10001 G
b10001 _"
b10001 d"
b0 H
b0 ]"
b0 c"
b111111111111000000000000000011110000000000000000 6"
b10000110000000000011010 %
b10000110000000000011010 1
b10000110000000000011010 m"
b10000110000000000011010 ,#
b10001 Z"
b11 4
b11 ^"
b11 &#
b0 7
b0 \"
b0 %#
15
0["
1F
b11 K
b11 Y"
b11 b"
b1 L
b1 X"
b1 a"
b100101 M
b100101 W"
b100101 `"
b11111111111111111111111111110001 X
b11111111111111111111111111110001 -"
b11111111111111111111111111110001 <"
b11111111111111111111111111110001 L"
b0 7"
b11111111111111111111111111110001 4"
b11111111111111110000000000000000 A
b11111111111111110000000000000000 T"
b11111111111111110000000000000000 u"
b11111111111111110000000000000000 y"
b0 6
b0 N"
b0 )#
0q
b11 P"
b10001 Q"
b0 R"
b1111111111110001 z
b1111111111110001 u
b111111111111000000000000000011110000000000000000 ""
b11111111111111110000000000000000 {
0w
b1111111111111111 r
b10000 $
b10000 &
b10000 +#
b10000 8
b10000 l"
b10000 $#
b110100000000110000000000010001 J
b110100000000110000000000010001 V"
b110100000000110000000000010001 n"
b1100 I
b1100 O"
b1100 o"
b1111111111110001 T
b1111111111110001 v
b1111111111110001 j"
b11111111111111111111111111110001 y
b11111111111111110000000000000000 U
b11111111111111110000000000000000 x
b11111111111111110000000000000000 i"
b1 [
b1 &"
b1 g"
b100101 \
b100101 '"
b100101 f"
b11111111111111110000000000000000 B
b11111111111111110000000000000000 D"
b11111111111111110000000000000000 q"
b1111111111111111 +
b1111111111111111 ~"
b1111111111111111 (#
b10 ,
b10 }"
b10 '#
1!
#300000
0!
#310000
bx 3
bx M"
bx *#
b10001 X
b10001 -"
b10001 <"
b10001 L"
b10001 G
b10001 _"
b10001 d"
b11111111111111111111111111110001 H
b11111111111111111111111111110001 ]"
b11111111111111111111111111110001 c"
b11111111111111110000000000000000 6
b11111111111111110000000000000000 N"
b11111111111111110000000000000000 )#
b0 6"
12
b11111111111111111111111111110001 A
b11111111111111111111111111110001 T"
b11111111111111111111111111110001 u"
b11111111111111111111111111110001 y"
b11 Y
b11 ,"
b11 ;"
b11 K"
b10001 4"
b0 Z"
b10 7
b10 \"
b10 %#
15
0["
0F
b0 K
b0 Y"
b0 b"
b0 L
b0 X"
b0 a"
b11010 M
b11010 W"
b11010 `"
b10000110000000000011011 %
b10000110000000000011011 1
b10000110000000000011011 m"
b10000110000000000011011 ,#
b10001 z
b10001 u
b0 ""
b0 {
1w
b11111111111111111111111111111111 r
b11010 Q"
b0 S"
b11111111111111110000000000000000 +
b11111111111111110000000000000000 ~"
b11111111111111110000000000000000 (#
b11111111111111111111111111110001 B
b11111111111111111111111111110001 D"
b11111111111111111111111111110001 q"
b11 Z
b11 $"
b11 h"
b10001 T
b10001 v
b10001 j"
b10001 y
b0 U
b0 x
b0 i"
b10000110000000000011010 J
b10000110000000000011010 V"
b10000110000000000011010 n"
b10000 I
b10000 O"
b10000 o"
b10100 $
b10100 &
b10100 +#
b10100 8
b10100 l"
b10100 $#
1!
#320000
0!
#330000
b1111 /
b1111 d
b1111 @"
b1111 e"
b1111 k"
b1111 |"
b1111 ##
1.
b1000011111111111111111111111100000001 6"
b11000100000000000011010 %
b11000100000000000011010 1
b11000100000000000011010 m"
b11000100000000000011010 ,#
12
15
0["
b11011 M
b11011 W"
b11011 `"
1S
b0 X
b0 -"
b0 <"
b0 L"
0Q
b0 Y
b0 ,"
b0 ;"
b0 K"
18"
10
1]
b10001 `
b10001 f
b10001 /"
b11111111111111111111111111110001 a
b11111111111111111111111111110001 g
b11111111111111111111111111110001 ."
b0 4"
b10001 A
b10001 T"
b10001 u"
b10001 y"
b11 C
b11 U"
b11 t"
b11 x"
b11111111111111111111111111110001 6
b11111111111111111111111111110001 N"
b11111111111111111111111111110001 )#
b11011 Q"
b1000011111111111111111111111100000001 ""
b11111111111111111111111111110001 {
0w
b1110 r
b11000 $
b11000 &
b11000 +#
b11000 8
b11000 l"
b11000 $#
b10000110000000000011011 J
b10000110000000000011011 V"
b10000110000000000011011 n"
b10100 I
b10100 O"
b10100 o"
0R
b0 Z
b0 $"
b0 h"
b10 y
b11111111111111111111111111110001 U
b11111111111111111111111111110001 x
b11111111111111111111111111110001 i"
b0 [
b0 &"
b0 g"
b11010 \
b11010 '"
b11010 f"
b10001 B
b10001 D"
b10001 q"
b11 D
b11 C"
b11 p"
b11111111111111111111111111110001 +
b11111111111111111111111111110001 ~"
b11111111111111111111111111110001 (#
1!
#340000
0!
#350000
b0 A
b0 T"
b0 u"
b0 y"
09
b0 C
b0 U"
b0 t"
b0 x"
b10001 3
b10001 M"
b10001 *#
b111111111111111111111111111101111 h
b10001 k
b11110 j
b0 i
b10 m
b10001 +
b10001 ~"
b10001 (#
b11 ,
b11 }"
b11 '#
b0 B
b0 D"
b0 q"
0:
b0 D
b0 C"
b0 p"
b10001 o
b1111 n
1!
#360000
0!
#370000
b0 +
b0 ~"
b0 (#
0'
b0 ,
b0 }"
b0 '#
b1 i
b111100 j
1!
#380000
0!
#390000
b10 i
b1111000 j
1!
#400000
0!
#410000
b11 i
b11110000 j
1!
#420000
0!
#430000
b100 i
b111100000 j
1!
#440000
0!
#450000
b101 i
b1111000000 j
1!
#460000
0!
#470000
b110 i
b11110000000 j
1!
#480000
0!
#490000
b111 i
b111100000000 j
1!
#500000
0!
#510000
b1000 i
b1111000000000 j
1!
#520000
0!
#530000
b1001 i
b11110000000000 j
1!
#540000
0!
#550000
b1010 i
b111100000000000 j
1!
#560000
0!
#570000
b1011 i
b1111000000000000 j
1!
#580000
0!
#590000
b1100 i
b11110000000000000 j
1!
#600000
0!
#610000
b1101 i
b111100000000000000 j
1!
#620000
0!
#630000
b1110 i
b1111000000000000000 j
1!
#640000
0!
#650000
b1111 i
b11110000000000000000 j
1!
#660000
0!
#670000
b10000 i
b111100000000000000000 j
1!
#680000
0!
#690000
b10001 i
b1111000000000000000000 j
1!
#700000
0!
#710000
b10010 i
b11110000000000000000000 j
1!
#720000
0!
#730000
b10011 i
b111100000000000000000000 j
1!
#740000
0!
#750000
b10100 i
b1111000000000000000000000 j
1!
#760000
0!
#770000
b10101 i
b11110000000000000000000000 j
1!
#780000
0!
#790000
b10110 i
b111100000000000000000000000 j
1!
#800000
0!
#810000
b10111 i
b1111000000000000000000000000 j
1!
#820000
0!
#830000
b11000 i
b11110000000000000000000000000 j
1!
#840000
0!
#850000
b11001 i
b111100000000000000000000000000 j
1!
#860000
0!
#870000
b11010 i
b1111000000000000000000000000000 j
1!
#880000
0!
#890000
b11011 i
b11110000000000000000000000000000 j
1!
#900000
0!
#910000
b111111111111111111111111111110000 h
b11100 i
b111100000000000000000000000000000 j
1!
#920000
0!
#930000
b111111111111111111111111111110010 h
b11101 i
b1111000000000000000000000000000000 j
1!
#940000
0!
#950000
b111111111111111111111111111110110 h
b11110 i
b11110000000000000000000000000000000 j
1!
#960000
0!
#970000
b111111111111111111111111111111110 h
b11111 i
b111100000000000000000000000000000000 j
1!
#980000
0!
#990000
b1101 h
b100000 i
b1111000000000000000000000000000000000 j
1!
#1000000
0!
#1010000
b11111111111111111111111111010001 h
b0 i
b11 m
b11111111111111111111111111110001000000000000000000000000000000000 j
1!
#1020000
0!
#1030000
b0 /
b0 d
b0 @"
b0 e"
b0 k"
b0 |"
b0 ##
0.
10
0]
b10001 `
b10001 f
b10001 /"
b11111111111111111111111111110001 a
b11111111111111111111111111110001 g
b11111111111111111111111111110001 ."
08"
b11111111111111111111111111110001 W
b11111111111111111111111111110001 0"
b11111111111111111111111111110001 ="
1_
b1111111111111111111111111111000100000000000000000000000000000000 ^
b1111111111111111111111111111000100000000000000000000000000000000 l
b1111111111111111111111111111000100000000000000000000000000000000 p
1!
#1040000
0!
#1050000
b11111111111111111111111111110001 G
b11111111111111111111111111110001 _"
b11111111111111111111111111110001 d"
b10001 H
b10001 ]"
b10001 c"
b1111 /
b1111 d
b1111 @"
b1111 e"
b1111 k"
b1111 |"
b1111 ##
b11111111111111111111111111110001 3
b11111111111111111111111111110001 M"
b11111111111111111111111111110001 *#
b10001 6
b10001 N"
b10001 )#
b11111111111111111111111111110001 ("
1.
bx %
bx 1
bx m"
bx ,#
b10 4
b10 ^"
b10 &#
b11 7
b11 \"
b11 %#
12
15
0["
b11010 M
b11010 W"
b11010 `"
1;
b11111111111111111111111111110001 ?
b11111111111111111111111111110001 }
b11111111111111111111111111110001 v"
b11111111111111111111111111110001 z"
b0 W
b0 0"
b0 ="
18"
1]
00
b10001 `
b10001 f
b10001 /"
b11111111111111111111111111110001 a
b11111111111111111111111111110001 g
b11111111111111111111111111110001 ."
b10 P"
b11010 Q"
b11100 $
b11100 &
b11100 +#
b11100 8
b11100 l"
b11100 $#
b11000100000000000011010 J
b11000100000000000011010 V"
b11000100000000000011010 n"
b11000 I
b11000 O"
b11000 o"
b11011 \
b11011 '"
b11011 f"
1<
b11111111111111111111111111110001 @
b11111111111111111111111111110001 E"
b11111111111111111111111111110001 r"
b0 ^
b0 l
b0 p
0_
b0 m
1!
#1060000
0!
#1070000
0;
b0 ?
b0 }
b0 v"
b0 z"
b111111111111111111111111111110000 h
b111111111111111111111111111100010 j
b10 m
1(
b11111111111111111111111111110001 *
b11111111111111111111111111110001 t
b11111111111111111111111111110001 H"
b11111111111111111111111111110001 !#
0<
b0 @
b0 E"
b0 r"
b11111111111111111111111111110001 n
1!
#1080000
0!
#1090000
b111111111111111111111111111110010 h
b11111111111111111111111111110001 P
b11111111111111111111111111110001 #"
b11111111111111111111111111110001 I"
0(
b0 *
b0 t
b0 H"
b0 !#
b1 i
b1111111111111111111111111111000100 j
1!
#1100000
0!
#1110000
b111111111111111111111111111110110 h
b10 i
b11111111111111111111111111110001000 j
1!
#1120000
0!
#1130000
b111111111111111111111111111111110 h
b11 i
b111111111111111111111111111100010000 j
1!
#1140000
0!
#1150000
b1110 h
b100 i
b1111111111111111111111111111000100000 j
1!
#1160000
0!
#1170000
b1100 h
b101 i
b1110111111111111111111111110001000001 j
1!
#1180000
0!
#1190000
b1000 h
b110 i
b1100111111111111111111111100010000011 j
1!
#1200000
0!
#1210000
b0 h
b111 i
b1000111111111111111111111000100000111 j
1!
#1220000
0!
#1230000
b111111111111111111111111111110000 h
b1000 i
b111111111111111111110001000001111 j
1!
#1240000
0!
#1250000
b111111111111111111111111111110010 h
b1001 i
b1111111111111111111100010000011110 j
1!
#1260000
0!
#1270000
b111111111111111111111111111110110 h
b1010 i
b11111111111111111111000100000111100 j
1!
#1280000
0!
#1290000
b111111111111111111111111111111110 h
b1011 i
b111111111111111111110001000001111000 j
1!
#1300000
0!
#1310000
b1110 h
b1100 i
b1111111111111111111100010000011110000 j
1!
#1320000
0!
#1330000
b1100 h
b1101 i
b1110111111111111111000100000111100001 j
1!
#1340000
0!
#1350000
b1000 h
b1110 i
b1100111111111111110001000001111000011 j
1!
#1360000
0!
#1370000
b0 h
b1111 i
b1000111111111111100010000011110000111 j
1!
#1380000
0!
#1390000
b111111111111111111111111111110000 h
b10000 i
b111111111111000100000111100001111 j
1!
#1400000
0!
#1410000
b111111111111111111111111111110010 h
b10001 i
b1111111111110001000001111000011110 j
1!
#1420000
0!
#1430000
b111111111111111111111111111110110 h
b10010 i
b11111111111100010000011110000111100 j
1!
#1440000
0!
#1450000
b111111111111111111111111111111110 h
b10011 i
b111111111111000100000111100001111000 j
1!
#1460000
0!
#1470000
b1110 h
b10100 i
b1111111111110001000001111000011110000 j
1!
#1480000
0!
#1490000
b1100 h
b10101 i
b1110111111100010000011110000111100001 j
1!
#1500000
0!
#1510000
b1000 h
b10110 i
b1100111111000100000111100001111000011 j
1!
#1520000
0!
#1530000
b0 h
b10111 i
b1000111110001000001111000011110000111 j
1!
#1540000
0!
