src/sopc_tb.vcd
$date
	Thu Sep  8 21:16:53 2016
$end
$version
	Icarus Verilog
$end
$timescale
	1ps
$end
$scope module sopc_tb $end
$var reg 1 ! CLOCK $end
$var reg 1 " rst $end
$scope module sopc0 $end
$var wire 1 ! clk $end
$var wire 1 " rst $end
$var wire 1 # rom_ce $end
$var wire 1 $ ram_we $end
$var wire 4 % ram_sel [3:0] $end
$var wire 32 & ram_data_out [31:0] $end
$var wire 32 ' ram_data_in [31:0] $end
$var wire 1 ( ram_ce $end
$var wire 32 ) ram_addr [31:0] $end
$var wire 32 * inst_addr [31:0] $end
$var wire 32 + inst [31:0] $end
$scope module cpu0 $end
$var wire 1 ! clk $end
$var wire 32 , rom_addr_out [31:0] $end
$var wire 1 " rst $end
$var wire 1 - wb_wreg_in $end
$var wire 1 . wb_whilo_in $end
$var wire 32 / wb_lo_in [31:0] $end
$var wire 32 0 wb_hi_in [31:0] $end
$var wire 32 1 wb_dest_data_in [31:0] $end
$var wire 5 2 wb_dest_addr_in [4:0] $end
$var wire 1 3 stall_req_id $end
$var wire 1 4 stall_req_ex $end
$var wire 6 5 stall [5:0] $end
$var wire 1 6 signed_div $end
$var wire 32 7 rom_data_in [31:0] $end
$var wire 1 # rom_ce_out $end
$var wire 1 8 reg2_read $end
$var wire 32 9 reg2_data [31:0] $end
$var wire 5 : reg2_addr [4:0] $end
$var wire 1 ; reg1_read $end
$var wire 32 < reg1_data [31:0] $end
$var wire 5 = reg1_addr [4:0] $end
$var wire 1 $ ram_we_out $end
$var wire 4 > ram_sel_out [3:0] $end
$var wire 32 ? ram_data_out [31:0] $end
$var wire 32 @ ram_data_in [31:0] $end
$var wire 1 ( ram_ce_out $end
$var wire 32 A ram_addr_out [31:0] $end
$var wire 32 B pc [31:0] $end
$var wire 1 C mem_wreg_out $end
$var wire 1 D mem_wreg_in $end
$var wire 1 E mem_whilo_out $end
$var wire 1 F mem_whilo_in $end
$var wire 32 G mem_src2_data_in [31:0] $end
$var wire 32 H mem_mem_addr_in [31:0] $end
$var wire 32 I mem_lo_out [31:0] $end
$var wire 32 J mem_lo_in [31:0] $end
$var wire 1 K mem_llbit_we $end
$var wire 1 L mem_llbit_data $end
$var wire 32 M mem_hi_out [31:0] $end
$var wire 32 N mem_hi_in [31:0] $end
$var wire 32 O mem_dest_data_out [31:0] $end
$var wire 32 P mem_dest_data_in [31:0] $end
$var wire 5 Q mem_dest_addr_out [4:0] $end
$var wire 5 R mem_dest_addr_in [4:0] $end
$var wire 8 S mem_aluop_in [7:0] $end
$var wire 32 T lo_data [31:0] $end
$var wire 1 U llbit_we $end
$var wire 1 V llbit_data_out $end
$var wire 1 W llbit_data_in $end
$var wire 1 X in_delayslot $end
$var wire 1 Y id_wreg_out $end
$var wire 32 Z id_src2_data_out [31:0] $end
$var wire 32 [ id_src1_data_out [31:0] $end
$var wire 32 \ id_pc_in [31:0] $end
$var wire 1 ] id_nex_inst_delayslot_out $end
$var wire 32 ^ id_link_addr_out [31:0] $end
$var wire 32 _ id_inst_out [31:0] $end
$var wire 32 ` id_inst_in [31:0] $end
$var wire 1 a id_in_delayslot_out $end
$var wire 5 b id_dest_addr_out [4:0] $end
$var wire 32 c id_branch_tar_addr_out [31:0] $end
$var wire 1 d id_branch_flag_out $end
$var wire 3 e id_alusel_out [2:0] $end
$var wire 8 f id_aluop_out [7:0] $end
$var wire 64 g hilo_temp_out [63:0] $end
$var wire 64 h hilo_temp_in [63:0] $end
$var wire 32 i hi_data [31:0] $end
$var wire 1 j ex_wreg_out $end
$var wire 1 k ex_wreg_in $end
$var wire 1 l ex_whilo_out $end
$var wire 32 m ex_src2_data_out [31:0] $end
$var wire 32 n ex_src2_data_in [31:0] $end
$var wire 32 o ex_src1_data_in [31:0] $end
$var wire 32 p ex_mem_addr_out [31:0] $end
$var wire 32 q ex_lo_out [31:0] $end
$var wire 32 r ex_link_addr_in [31:0] $end
$var wire 32 s ex_inst_in [31:0] $end
$var wire 1 t ex_in_delayslot_in $end
$var wire 32 u ex_hi_out [31:0] $end
$var wire 32 v ex_dest_data_out [31:0] $end
$var wire 5 w ex_dest_addr_out [4:0] $end
$var wire 5 x ex_dest_addr_in [4:0] $end
$var wire 3 y ex_alusel_in [2:0] $end
$var wire 8 z ex_aluop_out [7:0] $end
$var wire 8 { ex_aluop_in [7:0] $end
$var wire 1 | div_start $end
$var wire 64 } div_result [63:0] $end
$var wire 1 ~ div_ready $end
$var wire 32 !" div_opdata2 [31:0] $end
$var wire 32 "" div_opdata1 [31:0] $end
$var wire 2 #" cnt_out [1:0] $end
$var wire 2 $" cnt_in [1:0] $end
$scope module ctrl0 $end
$var wire 1 " rst $end
$var wire 1 3 stall_req_id $end
$var wire 1 4 stall_req_ex $end
$var reg 6 %" stall [5:0] $end
$upscope $end
$scope module div0 $end
$var wire 1 &" annul_in $end
$var wire 1 ! clk $end
$var wire 1 " rst $end
$var wire 1 | start_in $end
$var wire 1 6 signed_div_in $end
$var wire 32 '" opdata2_in [31:0] $end
$var wire 32 (" opdata1_in [31:0] $end
$var wire 33 )" div_temp [32:0] $end
$var reg 6 *" cnt [5:0] $end
$var reg 65 +" dividend [64:0] $end
$var reg 32 ," divisor [31:0] $end
$var reg 1 ~ ready_out $end
$var reg 64 -" result_out [63:0] $end
$var reg 2 ." state [1:0] $end
$var reg 32 /" temp_op1 [31:0] $end
$var reg 32 0" temp_op2 [31:0] $end
$upscope $end
$scope module ex0 $end
$var wire 8 1" aluop_out [7:0] $end
$var wire 1 ~ div_ready_in $end
$var wire 64 2" div_result_in [63:0] $end
$var wire 1 3" ov_sum $end
$var wire 1 " rst $end
$var wire 32 4" src1_in_not [31:0] $end
$var wire 32 5" src2_data_out [31:0] $end
$var wire 1 k wreg_in $end
$var wire 1 . wb_whilo_in $end
$var wire 32 6" wb_lo_in [31:0] $end
$var wire 32 7" wb_hi_in [31:0] $end
$var wire 32 8" src2_in_mux [31:0] $end
$var wire 32 9" src2_data_in [31:0] $end
$var wire 1 :" src1_lt_src2 $end
$var wire 32 ;" src1_data_in [31:0] $end
$var wire 32 <" result_sum [31:0] $end
$var wire 32 =" opdata2_mult [31:0] $end
$var wire 32 >" opdata1_mult [31:0] $end
$var wire 1 E mem_whilo_in $end
$var wire 32 ?" mem_lo_in [31:0] $end
$var wire 32 @" mem_hi_in [31:0] $end
$var wire 32 A" mem_addr_out [31:0] $end
$var wire 32 B" lo_in [31:0] $end
$var wire 32 C" link_addr_in [31:0] $end
$var wire 32 D" inst_in [31:0] $end
$var wire 1 t in_delayslot_in $end
$var wire 64 E" hilo_temp_in [63:0] $end
$var wire 64 F" hilo_temp [63:0] $end
$var wire 32 G" hi_in [31:0] $end
$var wire 5 H" dest_addr_in [4:0] $end
$var wire 2 I" cnt_in [1:0] $end
$var wire 3 J" alusel_in [2:0] $end
$var wire 8 K" aluop_in [7:0] $end
$var reg 32 L" HI [31:0] $end
$var reg 32 M" LO [31:0] $end
$var reg 32 N" arithmeticres [31:0] $end
$var reg 2 O" cnt_out [1:0] $end
$var reg 5 P" dest_addr_out [4:0] $end
$var reg 32 Q" dest_data_out [31:0] $end
$var reg 32 R" div_opdata1_out [31:0] $end
$var reg 32 S" div_opdata2_out [31:0] $end
$var reg 1 | div_start_out $end
$var reg 32 T" hi_out [31:0] $end
$var reg 64 U" hilo_temp1 [63:0] $end
$var reg 64 V" hilo_temp_out [63:0] $end
$var reg 32 W" lo_out [31:0] $end
$var reg 32 X" logicres [31:0] $end
$var reg 32 Y" moveres [31:0] $end
$var reg 64 Z" mulres [63:0] $end
$var reg 32 [" shiftres [31:0] $end
$var reg 1 6 signed_div_out $end
$var reg 1 4 stall_req $end
$var reg 1 \" stall_req_div $end
$var reg 1 ]" stall_req_madd_msub $end
$var reg 1 l whilo_out $end
$var reg 1 j wreg_out $end
$upscope $end
$scope module ex_mem0 $end
$var wire 1 ! clk $end
$var wire 2 ^" cnt_in [1:0] $end
$var wire 8 _" ex_aluop [7:0] $end
$var wire 5 `" ex_dest_addr [4:0] $end
$var wire 32 a" ex_dest_data [31:0] $end
$var wire 32 b" ex_hi [31:0] $end
$var wire 32 c" ex_lo [31:0] $end
$var wire 32 d" ex_mem_addr [31:0] $end
$var wire 32 e" ex_src2_data [31:0] $end
$var wire 1 l ex_whilo $end
$var wire 1 j ex_wreg $end
$var wire 64 f" hilo_in [63:0] $end
$var wire 1 " rst $end
$var wire 6 g" stall [5:0] $end
$var reg 2 h" cnt_out [1:0] $end
$var reg 64 i" hilo_out [63:0] $end
$var reg 8 j" mem_aluop [7:0] $end
$var reg 5 k" mem_dest_addr [4:0] $end
$var reg 32 l" mem_dest_data [31:0] $end
$var reg 32 m" mem_hi [31:0] $end
$var reg 32 n" mem_lo [31:0] $end
$var reg 32 o" mem_mem_addr [31:0] $end
$var reg 32 p" mem_src2_data [31:0] $end
$var reg 1 F mem_whilo $end
$var reg 1 D mem_wreg $end
$upscope $end
$scope module hilo_reg0 $end
$var wire 1 ! clk $end
$var wire 1 " rst $end
$var wire 1 . we $end
$var wire 32 q" lo_in [31:0] $end
$var wire 32 r" hi_in [31:0] $end
$var reg 32 s" hi_out [31:0] $end
$var reg 32 t" lo_out [31:0] $end
$upscope $end
$scope module id0 $end
$var wire 8 u" ex_aluop_in [7:0] $end
$var wire 5 v" ex_dest_addr_in [4:0] $end
$var wire 32 w" ex_dest_data_in [31:0] $end
$var wire 1 j ex_wreg_in $end
$var wire 32 x" inst_out [31:0] $end
$var wire 1 " rst $end
$var wire 1 3 stall_req $end
$var wire 32 y" src2_data_in [31:0] $end
$var wire 32 z" src1_data_in [31:0] $end
$var wire 1 {" pre_inst_is_load $end
$var wire 32 |" pc_plus_8 [31:0] $end
$var wire 32 }" pc_plus_4 [31:0] $end
$var wire 32 ~" pc_in [31:0] $end
$var wire 5 !# op4 [4:0] $end
$var wire 6 "# op3 [5:0] $end
$var wire 6 ## op2 [5:0] $end
$var wire 6 $# op [5:0] $end
$var wire 1 C mem_wreg_in $end
$var wire 32 %# mem_dest_data_in [31:0] $end
$var wire 5 &# mem_dest_addr_in [4:0] $end
$var wire 32 '# inst_in [31:0] $end
$var wire 1 X in_delayslot_in $end
$var wire 32 (# imm_sll2 [31:0] $end
$var reg 8 )# aluop_out [7:0] $end
$var reg 3 *# alusel_out [2:0] $end
$var reg 1 d branch_flag_out $end
$var reg 32 +# branch_tar_addr_out [31:0] $end
$var reg 5 ,# dest_addr_out [4:0] $end
$var reg 32 -# imm [31:0] $end
$var reg 1 a in_delayslot_out $end
$var reg 1 .# inst_valid $end
$var reg 32 /# link_addr_out [31:0] $end
$var reg 1 ] next_inst_delayslot_out $end
$var reg 5 0# src1_addr_out [4:0] $end
$var reg 32 1# src1_data_out [31:0] $end
$var reg 1 ; src1_read_out $end
$var reg 5 2# src2_addr_out [4:0] $end
$var reg 32 3# src2_data_out [31:0] $end
$var reg 1 8 src2_read_out $end
$var reg 1 4# stall_src1_loadrelated $end
$var reg 1 5# stall_src2_loadrelated $end
$var reg 1 Y wreg_out $end
$upscope $end
$scope module id_ex0 $end
$var wire 1 ! clk $end
$var wire 8 6# id_aluop [7:0] $end
$var wire 3 7# id_alusel [2:0] $end
$var wire 5 8# id_dest_addr [4:0] $end
$var wire 1 a id_in_delayslot $end
$var wire 32 9# id_inst [31:0] $end
$var wire 32 :# id_link_addr [31:0] $end
$var wire 32 ;# id_src1_data [31:0] $end
$var wire 32 <# id_src2_data [31:0] $end
$var wire 1 Y id_wreg $end
$var wire 1 ] next_inst_delayslot_in $end
$var wire 1 " rst $end
$var wire 6 =# stall [5:0] $end
$var reg 8 ># ex_aluop [7:0] $end
$var reg 3 ?# ex_alusel [2:0] $end
$var reg 5 @# ex_dest_addr [4:0] $end
$var reg 1 t ex_in_delayslot $end
$var reg 32 A# ex_inst [31:0] $end
$var reg 32 B# ex_link_addr [31:0] $end
$var reg 32 C# ex_src1_data [31:0] $end
$var reg 32 D# ex_src2_data [31:0] $end
$var reg 1 k ex_wreg $end
$var reg 1 X next_inst_delayslot_out $end
$upscope $end
$scope module if_id0 $end
$var wire 1 ! clk $end
$var wire 1 " rst $end
$var wire 6 E# stall [5:0] $end
$var wire 32 F# if_pc [31:0] $end
$var wire 32 G# if_inst [31:0] $end
$var reg 32 H# id_inst [31:0] $end
$var reg 32 I# id_pc [31:0] $end
$upscope $end
$scope module llbit_reg0 $end
$var wire 1 ! clk $end
$var wire 1 J# flush $end
$var wire 1 " rst $end
$var wire 1 U we $end
$var wire 1 W llbit_in $end
$var reg 1 V llbit_out $end
$upscope $end
$scope module mem0 $end
$var wire 8 K# aluop_in [7:0] $end
$var wire 5 L# dest_addr_in [4:0] $end
$var wire 32 M# dest_data_in [31:0] $end
$var wire 32 N# hi_in [31:0] $end
$var wire 1 V llbit_in $end
$var wire 32 O# lo_in [31:0] $end
$var wire 32 P# mem_addr_in [31:0] $end
$var wire 1 $ mem_we_out $end
$var wire 1 " rst $end
$var wire 32 Q# src2_data_in [31:0] $end
$var wire 1 F whilo_in $end
$var wire 1 D wreg_in $end
$var wire 32 R# zero32 [31:0] $end
$var wire 1 U wb_llbit_we_in $end
$var wire 1 W wb_llbit_data_in $end
$var wire 32 S# mem_data_in [31:0] $end
$var reg 5 T# dest_addr_out [4:0] $end
$var reg 32 U# dest_data_out [31:0] $end
$var reg 32 V# hi_out [31:0] $end
$var reg 1 W# llbit $end
$var reg 1 L llbit_data_out $end
$var reg 1 K llbit_we_out $end
$var reg 32 X# lo_out [31:0] $end
$var reg 32 Y# mem_addr_out [31:0] $end
$var reg 1 ( mem_ce_out $end
$var reg 32 Z# mem_data_out [31:0] $end
$var reg 4 [# mem_sel_out [3:0] $end
$var reg 1 \# mem_we $end
$var reg 1 E whilo_out $end
$var reg 1 C wreg_out $end
$upscope $end
$scope module men_wb0 $end
$var wire 1 ! clk $end
$var wire 5 ]# mem_dest_addr [4:0] $end
$var wire 32 ^# mem_dest_data [31:0] $end
$var wire 32 _# mem_hi [31:0] $end
$var wire 1 L mem_llbit_data $end
$var wire 1 K mem_llbit_we $end
$var wire 32 `# mem_lo [31:0] $end
$var wire 1 E mem_whilo $end
$var wire 1 C mem_wreg $end
$var wire 1 " rst $end
$var wire 6 a# stall [5:0] $end
$var reg 5 b# wb_dest_addr [4:0] $end
$var reg 32 c# wb_dest_data [31:0] $end
$var reg 32 d# wb_hi [31:0] $end
$var reg 1 W wb_llbit_data $end
$var reg 1 U wb_llbit_we $end
$var reg 32 e# wb_lo [31:0] $end
$var reg 1 . wb_whilo $end
$var reg 1 - wb_wreg $end
$upscope $end
$scope module pc_reg0 $end
$var wire 1 d branch_flag_in $end
$var wire 32 f# branch_tar_addr_in [31:0] $end
$var wire 1 ! clk $end
$var wire 1 " rst $end
$var wire 6 g# stall [5:0] $end
$var reg 1 # ce $end
$var reg 32 h# pc [31:0] $end
$upscope $end
$scope module reg_file0 $end
$var wire 1 ! clk $end
$var wire 5 i# raddr1 [4:0] $end
$var wire 5 j# raddr2 [4:0] $end
$var wire 1 ; re1 $end
$var wire 1 8 re2 $end
$var wire 1 " rst $end
$var wire 5 k# waddr [4:0] $end
$var wire 32 l# wdata [31:0] $end
$var wire 1 - we $end
$var reg 32 m# rdata1 [31:0] $end
$var reg 32 n# rdata2 [31:0] $end
$upscope $end
$upscope $end
$scope module data_ram0 $end
$var wire 32 o# addr [31:0] $end
$var wire 1 ( ce $end
$var wire 1 ! clk $end
$var wire 32 p# data_in [31:0] $end
$var wire 4 q# sel [3:0] $end
$var wire 1 $ we $end
$var reg 32 r# data_out [31:0] $end
$upscope $end
$scope module inst_rom0 $end
$var wire 32 s# addr [31:0] $end
$var wire 1 # ce $end
$var reg 32 t# inst [31:0] $end
$upscope $end
$upscope $end
$upscope $end
$enddefinitions $end
#0
$dumpvars
bx t#
bx s#
b0 r#
b0 q#
b0 p#
b0 o#
b0 n#
b0 m#
bx l#
bx k#
b0 j#
b0 i#
bx h#
b0 g#
b0 f#
bx e#
bx d#
bx c#
bx b#
b0 a#
b0 `#
b0 _#
b0 ^#
b0 ]#
0\#
b0 [#
b0 Z#
b0 Y#
b0 X#
0W#
b0 V#
b0 U#
b0 T#
b0 S#
b0 R#
bx Q#
bx P#
bx O#
bx N#
bx M#
bx L#
bx K#
0J#
bx I#
bx H#
bx G#
bx F#
b0 E#
bx D#
bx C#
bx B#
bx A#
bx @#
bx ?#
bx >#
b0 =#
b0 <#
b0 ;#
b0 :#
bx 9#
b0 8#
b0 7#
b0 6#
05#
04#
b0 3#
b0 2#
b0 1#
b0 0#
b0 /#
0.#
b0 -#
b0 ,#
b0 +#
b0 *#
b0 )#
bx00 (#
bx '#
b0 &#
b0 %#
bx $#
b0xxxxx ##
bx "#
bx !#
bx ~"
bx }"
bx |"
x{"
b0 z"
b0 y"
bx x"
b0 w"
bx v"
bx u"
bx t"
bx s"
bx r"
bx q"
bx p"
bx o"
bx n"
bx m"
bx l"
bx k"
bx j"
bx i"
bx h"
b0 g"
b0 f"
bx e"
bx d"
b0 c"
b0 b"
b0 a"
bx `"
bx _"
b0 ^"
0]"
0\"
b0 ["
b0 Z"
b0 Y"
b0 X"
b0 W"
b0 V"
bx U"
b0 T"
b0 S"
b0 R"
b0 Q"
bx P"
b0 O"
b0 N"
b0 M"
b0 L"
bx K"
bx J"
bx I"
bx H"
bx G"
bx F"
bx E"
bx D"
bx C"
bx B"
bx A"
b0 @"
b0 ?"
bx >"
bx ="
bx <"
bx ;"
x:"
bx 9"
bx 8"
bx 7"
bx 6"
bx 5"
bx 4"
x3"
bx 2"
bx 1"
bx 0"
bx /"
bx ."
bx -"
bx ,"
bx +"
bx *"
bx )"
b0 ("
b0 '"
0&"
b0 %"
bx $"
b0 #"
b0 ""
b0 !"
x~
bx }
0|
bx {
bx z
bx y
bx x
bx w
b0 v
b0 u
xt
bx s
bx r
b0 q
bx p
bx o
bx n
bx m
0l
xk
xj
bx i
bx h
b0 g
b0 f
b0 e
0d
b0 c
b0 b
0a
bx `
bx _
b0 ^
0]
bx \
b0 [
b0 Z
0Y
xX
xW
0V
xU
bx T
bx S
bx R
b0 Q
bx P
b0 O
bx N
b0 M
0L
0K
bx J
b0 I
bx H
bx G
xF
0E
xD
0C
bx B
b0 A
b0 @
b0 ?
b0 >
b0 =
b0 <
0;
b0 :
b0 9
08
bx 7
06
b0 5
04
03
bx 2
bx 1
bx 0
bx /
x.
x-
bx ,
bx +
bx *
b0 )
0(
b0 '
b0 &
b0 %
0$
x#
1"
0!
$end
#10000
b0 +
b0 7
b0 G#
b0 t#
0j
b0 w
b0 P"
b0 `"
b0 v"
0{"
03"
b0 (#
b0 !#
b0 "#
b0 ##
b0 $#
b0 p
b0 A"
b0 d"
b0 F"
b0 ="
b0 <"
b0 8"
b0 >"
b11111111111111111111111111111111 4"
0:"
0#
b0 _
b0 x"
b0 9#
b0 `
b0 '#
b0 H#
b1000 |"
b100 }"
b0 \
b0 ~"
b0 I#
b0 T
b0 B"
b0 t"
b0 i
b0 G"
b0 s"
b0 s
b0 D"
b0 A#
0X
0t
b0 r
b0 C"
b0 B#
0k
b0 x
b0 H"
b0 @#
b0 m
b0 5"
b0 e"
b0 n
b0 9"
b0 D#
b0 o
b0 ;"
b0 C#
b0 y
b0 J"
b0 ?#
b0 z
b0 1"
b0 _"
b0 u"
b0 {
b0 K"
b0 >#
b0 G
b0 p"
b0 Q#
b0 H
b0 o"
b0 P#
b0 S
b0 j"
b0 K#
b0 $"
b0 I"
b0 h"
b0 h
b0 E"
b0 i"
0F
b0 J
b0 n"
b0 O#
b0 N
b0 m"
b0 N#
b0 P
b0 l"
b0 M#
0D
b0 R
b0 k"
b0 L#
0W
0U
0.
b0 /
b0 6"
b0 q"
b0 e#
b0 0
b0 7"
b0 r"
b0 d#
b0 1
b0 c#
b0 l#
0-
b0 2
b0 b#
b0 k#
b0 }
b0 -"
b0 2"
0~
b0 ."
1!
#20000
0!
#30000
b0 *
b0 ,
b0 s#
b0 B
b0 F#
b0 h#
1!
#40000
0!
#50000
1!
#60000
0!
#70000
1!
#80000
0!
#90000
1!
#100000
0!
#110000
1!
#120000
0!
#130000
1!
#140000
0!
#150000
1!
#160000
0!
#170000
1!
#180000
0!
#190000
1!
#195000
18
b10 e
b10 *#
b10 7#
1Y
0.#
b1111 %
b1111 >
b1111 [#
b1111 q#
0"
#200000
0!
#210000
b110100000000010001001000110100 +
b110100000000010001001000110100 7
b110100000000010001001000110100 G#
b110100000000010001001000110100 t#
1j
1#
1k
b10 y
b10 J"
b10 ?#
1!
#220000
0!
#230000
b1001000110100 Z
b1001000110100 3#
b1001000110100 <#
b1001000110100 -#
1;
b100101 f
b100101 )#
b100101 6#
1C
b1 :
b1 2#
b1 j#
08
0.#
1Y
b1 b
b1 ,#
b1 8#
b1 e
b1 *#
b1 7#
b10101100000000010000000000000000 +
b10101100000000010000000000000000 7
b10101100000000010000000000000000 G#
b10101100000000010000000000000000 t#
b100100011010000 (#
b1 !#
b110100 "#
b1000 ##
b1101 $#
1D
b110100000000010001001000110100 _
b110100000000010001001000110100 x"
b110100000000010001001000110100 9#
b110100000000010001001000110100 `
b110100000000010001001000110100 '#
b110100000000010001001000110100 H#
b100 *
b100 ,
b100 s#
b100 B
b100 F#
b100 h#
1!
#240000
0!
#250000
bx 9
bx y"
bx n#
b1001000110100 Z
b1001000110100 3#
b1001000110100 <#
b1001000110100 v
b1001000110100 Q"
b1001000110100 a"
b1001000110100 w"
18
b110100000000010101011001111000 +
b110100000000010101011001111000 7
b110100000000010101011001111000 G#
b110100000000010101011001111000 t#
b0 -#
1;
0.#
0Y
b0 b
b0 ,#
b0 8#
b111 e
b111 *#
b111 7#
b10101011 f
b10101011 )#
b10101011 6#
b1 w
b1 P"
b1 `"
b1 v"
b1001000110100 X"
b0 (#
b0 "#
b0 ##
b101011 $#
b1001000110100 p
b1001000110100 A"
b1001000110100 d"
b1001000110100 ="
1:"
b1001000110100 <"
b1001000110100 8"
b1000 *
b1000 ,
b1000 s#
b1000 B
b1000 F#
b1000 h#
b10101100000000010000000000000000 _
b10101100000000010000000000000000 x"
b10101100000000010000000000000000 9#
b10101100000000010000000000000000 `
b10101100000000010000000000000000 '#
b10101100000000010000000000000000 H#
b1100 |"
b1000 }"
b100 \
b100 ~"
b100 I#
b110100000000010001001000110100 s
b110100000000010001001000110100 D"
b110100000000010001001000110100 A#
b1 x
b1 H"
b1 @#
b1001000110100 m
b1001000110100 5"
b1001000110100 e"
b1001000110100 n
b1001000110100 9"
b1001000110100 D#
b1 y
b1 J"
b1 ?#
b100101 z
b100101 1"
b100101 _"
b100101 u"
b100101 {
b100101 K"
b100101 >#
1-
1!
#260000
0!
#270000
b101011001111000 Z
b101011001111000 3#
b101011001111000 <#
b0 9
b0 y"
b0 n#
b101011001111000 -#
1Y
b1001000110100 O
b1001000110100 %#
b1001000110100 U#
b1001000110100 ^#
b1 Q
b1 &#
b1 T#
b1 ]#
b0 v
b0 Q"
b0 a"
b0 w"
0j
b0 w
b0 P"
b0 `"
b0 v"
b0 X"
08
1;
0.#
b1 b
b1 ,#
b1 8#
b1 e
b1 *#
b1 7#
b100101 f
b100101 )#
b100101 6#
b11100000000000010000000000000000 +
b11100000000000010000000000000000 7
b11100000000000010000000000000000 G#
b11100000000000010000000000000000 t#
b0 p
b0 A"
b0 d"
b10101100111100000 (#
b111000 "#
b11001 ##
b1101 $#
b1001000110100 G
b1001000110100 p"
b1001000110100 Q#
b1001000110100 H
b1001000110100 o"
b1001000110100 P#
b100101 S
b100101 j"
b100101 K#
b1001000110100 P
b1001000110100 l"
b1001000110100 M#
b1 R
b1 k"
b1 L#
b10101100000000010000000000000000 s
b10101100000000010000000000000000 D"
b10101100000000010000000000000000 A#
0k
b0 x
b0 H"
b0 @#
b111 y
b111 J"
b111 ?#
b10101011 z
b10101011 1"
b10101011 _"
b10101011 u"
b10101011 {
b10101011 K"
b10101011 >#
b110100000000010101011001111000 _
b110100000000010101011001111000 x"
b110100000000010101011001111000 9#
b110100000000010101011001111000 `
b110100000000010101011001111000 '#
b110100000000010101011001111000 H#
b10000 |"
b1100 }"
b1000 \
b1000 ~"
b1000 I#
b1100 *
b1100 ,
b1100 s#
b1100 B
b1100 F#
b1100 h#
1!
#280000
0!
#290000
b1001000110100 9
b1001000110100 y"
b1001000110100 n#
b101011001111000 v
b101011001111000 Q"
b101011001111000 a"
b101011001111000 w"
b101011001111000 Z
b101011001111000 3#
b101011001111000 <#
18
b10001100000000010000000000000000 +
b10001100000000010000000000000000 7
b10001100000000010000000000000000 G#
b10001100000000010000000000000000 t#
b0 -#
1;
0.#
1Y
b1 b
b1 ,#
b1 8#
b111 e
b111 *#
b111 7#
b10111000 f
b10111000 )#
b10111000 6#
1j
b1 w
b1 P"
b1 `"
b1 v"
b101011001111000 X"
1(
b1001000110100 '
b1001000110100 ?
b1001000110100 Z#
b1001000110100 p#
1$
1\#
b0 O
b0 %#
b0 U#
b0 ^#
0C
b0 Q
b0 &#
b0 T#
b0 ]#
b0 (#
b0 "#
b0 ##
b111000 $#
b101011001111000 p
b101011001111000 A"
b101011001111000 d"
b101011001111000 ="
b101011001111000 <"
b101011001111000 8"
b10000 *
b10000 ,
b10000 s#
b10000 B
b10000 F#
b10000 h#
b11100000000000010000000000000000 _
b11100000000000010000000000000000 x"
b11100000000000010000000000000000 9#
b11100000000000010000000000000000 `
b11100000000000010000000000000000 '#
b11100000000000010000000000000000 H#
b10100 |"
b10000 }"
b1100 \
b1100 ~"
b1100 I#
b110100000000010101011001111000 s
b110100000000010101011001111000 D"
b110100000000010101011001111000 A#
1k
b1 x
b1 H"
b1 @#
b101011001111000 m
b101011001111000 5"
b101011001111000 e"
b101011001111000 n
b101011001111000 9"
b101011001111000 D#
b1 y
b1 J"
b1 ?#
b100101 z
b100101 1"
b100101 _"
b100101 u"
b100101 {
b100101 K"
b100101 >#
b0 H
b0 o"
b0 P#
b10101011 S
b10101011 j"
b10101011 K#
b0 P
b0 l"
b0 M#
0D
b0 R
b0 k"
b0 L#
b1001000110100 1
b1001000110100 c#
b1001000110100 l#
b1 2
b1 b#
b1 k#
1!
#300000
0!
#310000
b0 5
b0 %"
b0 g"
b0 =#
b0 E#
b0 a#
b0 g#
b0 Z
b0 3#
b0 <#
b0 9
b0 y"
b0 n#
03
05#
0(
0$
0\#
b101011001111000 O
b101011001111000 %#
b101011001111000 U#
b101011001111000 ^#
1C
b1 Q
b1 &#
b1 T#
b1 ]#
b0 v
b0 Q"
b0 a"
b0 w"
b0 X"
08
1;
0.#
1Y
b1 b
b1 ,#
b1 8#
b111 e
b111 *#
b111 7#
b10100011 f
b10100011 )#
b10100011 6#
b0 +
b0 7
b0 G#
b0 t#
1{"
b0 p
b0 A"
b0 d"
b100011 $#
b0 1
b0 c#
b0 l#
0-
b0 2
b0 b#
b0 k#
b101011001111000 G
b101011001111000 p"
b101011001111000 Q#
b101011001111000 H
b101011001111000 o"
b101011001111000 P#
b100101 S
b100101 j"
b100101 K#
b101011001111000 P
b101011001111000 l"
b101011001111000 M#
1D
b1 R
b1 k"
b1 L#
b11100000000000010000000000000000 s
b11100000000000010000000000000000 D"
b11100000000000010000000000000000 A#
b111 y
b111 J"
b111 ?#
b10111000 z
b10111000 1"
b10111000 _"
b10111000 u"
b10111000 {
b10111000 K"
b10111000 >#
b10001100000000010000000000000000 _
b10001100000000010000000000000000 x"
b10001100000000010000000000000000 9#
b10001100000000010000000000000000 `
b10001100000000010000000000000000 '#
b10001100000000010000000000000000 H#
b11000 |"
b10100 }"
b10000 \
b10000 ~"
b10000 I#
b10100 *
b10100 ,
b10100 s#
b10100 B
b10100 F#
b10100 h#
1!
#320000
0!
#330000
b110100000000010000000000000000 +
b110100000000010000000000000000 7
b110100000000010000000000000000 G#
b110100000000010000000000000000 t#
18
b0 :
b0 2#
b0 j#
0;
0.#
1Y
b0 b
b0 ,#
b0 8#
b10 e
b10 *#
b10 7#
b0 f
b0 )#
b0 6#
b0 O
b0 %#
b0 U#
b0 ^#
1{"
b0 !#
b0 $#
b0 ="
0:"
b0 <"
b0 8"
b11000 *
b11000 ,
b11000 s#
b11000 B
b11000 F#
b11000 h#
b0 _
b0 x"
b0 9#
b0 `
b0 '#
b0 H#
b11100 |"
b11000 }"
b10100 \
b10100 ~"
b10100 I#
b10001100000000010000000000000000 s
b10001100000000010000000000000000 D"
b10001100000000010000000000000000 A#
b0 m
b0 5"
b0 e"
b0 n
b0 9"
b0 D#
b10100011 z
b10100011 1"
b10100011 _"
b10100011 u"
b10100011 {
b10100011 K"
b10100011 >#
b0 H
b0 o"
b0 P#
b10111000 S
b10111000 j"
b10111000 K#
b0 P
b0 l"
b0 M#
b101011001111000 1
b101011001111000 c#
b101011001111000 l#
1-
b1 2
b1 b#
b1 k#
1!
#340000
0!
